3, 0, 0, 816, 67, 0, 0, 6, 1
4, 0, 0, 823, 71, 0, 0, 0, 1
6, 0, 0, 823, 66, 0, 0, 0, 1
8, 0, 0, 828, 66, 0, 0, 6, 1
12, 0, 0, 776, 60, 0, 0, 0, 1
12, 0, 1, 823, 71, 0, 0, 0, 1
14, 0, 0, 832, 67, 0, 0, 6, 1
16, 0, 0, 813, 64, 0, 0, 0, 1
