3, 3, 0, 2652, 50, 0, -4, 6, 2
4, 3, 0, 2641, 53, 0, 0, 0, 3
6, 3, 0, 2604, 55, 0, 0, 0, 1
10, 3, 0, 2580, 49, 0, 0, 6, 2
12, 3, 0, 2567, 50, 0, 0, 0, 3
14, 3, 0, 2572, 49, 0, 0, 6, 2
16, 3, 0, 2567, 53, 0, 0, 0, 3
