1, 5, 0, 3877, 42, 0, 0, 0, 2
2, 5, 0, 3809, 40, 0, -4, 6, 2
5, 2, 0, 3611, 41, 0, 0, 0, 2
7, 2, 0, 3608, 40, 0, 0, 6, 2
12, 4, 0, 3636, 41, 0, 0, 0, 2
14, 4, 0, 3672, 38, 0, 4, 6, 2
16, 4, 0, 3701, 35, 0, 0, 0, 2
