0, 1, 0, 1237, 17, 0, 6, 6, 4
2, 0, 0, 1257, 12, 0, 4, 6, 4
5, 0, 0, 1311, 13, 0, 0, 0, 4
5, 1, 0, 1310, 13, 0, 0, 0, 4
7, 0, 0, 1312, 13, 0, 0, 6, 4
7, 1, 0, 1320, 13, 0, 0, 6, 4
9, 0, 0, 1336, 13, 0, 0, 6, 4
9, 1, 0, 1336, 13, 0, 0, 6, 4
11, 1, 0, 1341, 13, 0, 0, 0, 4
13, 0, 0, 1336, 13, 0, 4, 6, 4
13, 1, 0, 1336, 13, 0, 0, 6, 4
15, 1, 0, 1335, 13, 0, 0, 0, 4
