1, 4, 0, 3565, 30, 0, 0, 0, 2
2, 4, 0, 3561, 28, 0, 0, 6, 2
5, 2, 0, 3524, 30, 0, 0, 0, 2
7, 2, 0, 3520, 29, 0, 0, 6, 2
11, 2, 0, 3509, 29, 0, 0, 0, 2
15, 2, 0, 3628, 30, 0, 0, 0, 2
15, 2, 1, 3522, 29, 0, 0, 0, 2
16, 4, 0, 3448, 35, 0, 0, 0, 2
16, 4, 1, 3392, 35, 0, 0, 0, 2
