3, 4, 0, 3137, 63, 0, 4, 6, 1
6, 4, 0, 3185, 66, 0, 0, 0, 1
8, 4, 0, 3184, 62, 0, 0, 6, 1
10, 4, 0, 3152, 62, 0, 0, 6, 1
12, 4, 0, 3139, 60, 0, 0, 0, 1
14, 3, 0, 3128, 61, 0, 0, 6, 1
16, 3, 0, 3111, 64, 0, 0, 0, 1
