3, 2, 0, 2148, 67, 0, 12, 6, 1
4, 2, 0, 2164, 71, 0, 0, 0, 1
6, 2, 0, 2267, 66, 0, 0, 0, 1
8, 2, 0, 2264, 63, 0, 0, 6, 1
10, 2, 0, 2180, 61, 0, -4, 6, 1
12, 2, 0, 2154, 60, 0, 0, 0, 1
14, 2, 0, 2116, 60, 0, 0, 6, 1
16, 2, 0, 2098, 64, 0, 0, 0, 1
