2, 3, 0, 2914, 23, 0, -12, 6, 4
5, 1, 0, 2532, 24, 0, 0, 0, 6
5, 2, 0, 2529, 24, 0, 0, 0, 6
7, 1, 0, 2504, 22, 0, -4, 6, 4
9, 1, 0, 2456, 22, 0, 0, 6, 4
11, 1, 0, 2474, 22, 0, 0, 0, 4
13, 1, 0, 2496, 21, 0, 4, 6, 4
15, 1, 0, 2495, 21, 0, 0, 0, 4
