1, 2, 0, 2036, 30, 0, 0, 0, 2
1, 2, 1, 2047, 30, 0, 0, 0, 2
2, 2, 0, 2019, 31, 28, 4, 6, 2
2, 2, 1, 2019, 31, 28, 4, 6, 2
5, 1, 0, 1830, 34, 0, 0, 0, 2
7, 1, 0, 1824, 32, 0, 0, 6, 2
9, 1, 0, 1832, 32, 0, 0, 6, 2
11, 1, 0, 1838, 32, 0, 0, 0, 2
13, 1, 0, 1856, 32, 0, 4, 6, 2
16, 1, 0, 1873, 35, 0, 0, 0, 2
