1, 6, 0, 4636, 51, 0, 0, 0, 2
1, 6, 1, 4644, 51, 0, 0, 0, 2
2, 6, 0, 4724, 50, 0, 8, 6, 2
2, 6, 1, 4674, 50, 0, 4, 6, 2
3, 6, 0, 4600, 53, 50, 0, 6, 3
3, 6, 1, 4652, 53, 50, -4, 6, 3
4, 6, 0, 4601, 56, 0, 0, 0, 3
4, 6, 1, 4648, 56, 0, 0, 0, 3
6, 6, 0, 4667, 55, 0, 0, 0, 1
10, 6, 0, 4664, 52, 0, 0, 6, 3
12, 6, 0, 4667, 50, 0, 0, 0, 3
14, 6, 0, 4664, 53, 0, 0, 6, 3
16, 6, 0, 4667, 53, 0, 0, 0, 3
