1, 6, 0, 4736, 51, 0, 0, 0, 2
2, 6, 0, 4744, 50, 0, 4, 6, 2
3, 6, 0, 4792, 51, 0, 0, 6, 2
4, 6, 0, 4799, 56, 0, 0, 0, 3
6, 6, 0, 4817, 55, 0, 0, 0, 1
10, 6, 0, 4836, 51, 0, 0, 6, 3
12, 6, 0, 4845, 50, 0, 0, 0, 3
