5, 3, 0, 4667, 18, 0, 0, 0, 4
7, 3, 0, 4640, 18, 17, -4, 6, 4
7, 3, 1, 4720, 18, 17, 12, 6, 4
9, 3, 0, 4592, 18, 0, 0, 6, 4
11, 3, 0, 4577, 18, 0, 0, 0, 4
11, 3, 1, 4521, 17, 0, 0, 0, 4
13, 3, 0, 4576, 17, 0, 0, 6, 4
15, 3, 0, 4572, 17, 0, 0, 0, 4
