1, 3, 0, 2834, 28, 0, 0, 0, 2
2, 3, 0, 2782, 28, 0, -4, 6, 2
5, 2, 0, 2633, 30, 0, 0, 0, 2
7, 2, 0, 2616, 28, 0, -4, 6, 2
7, 2, 1, 2672, 28, 0, 4, 6, 2
9, 2, 0, 2592, 28, 0, 0, 6, 2
11, 2, 0, 2583, 28, 0, 0, 0, 2
13, 2, 0, 2600, 28, 0, 0, 6, 2
15, 2, 0, 2600, 28, 0, 0, 0, 2
