1, 0, 0, 1218, 35, 0, 0, 0, 2
1, 0, 1, 1237, 35, 0, 0, 0, 2
2, 0, 0, 1180, 31, 0, -12, 6, 2
5, 0, 0, 778, 34, 0, 0, 0, 2
7, 0, 0, 760, 33, 0, -4, 6, 2
9, 0, 0, 720, 33, 0, 0, 6, 2
11, 0, 0, 720, 34, 0, 0, 0, 2
16, 0, 0, 795, 35, 0, 0, 0, 2
