1, 2, 0, 2282, 45, 0, 0, 0, 2
2, 2, 0, 2314, 43, 0, 4, 6, 2
4, 3, 0, 2538, 53, 0, 0, 0, 3
5, 2, 0, 2587, 45, 0, 0, 0, 2
7, 2, 0, 2608, 43, 0, 0, 6, 2
12, 3, 0, 2642, 41, 0, 0, 0, 2
14, 3, 0, 2632, 43, 0, 0, 6, 2
16, 3, 0, 2632, 44, 0, 0, 0, 2
