1, 2, 0, 2067, 30, 0, 0, 0, 2
2, 2, 0, 2116, 31, 0, 8, 6, 2
5, 2, 0, 2548, 30, 0, 0, 0, 2
7, 1, 0, 2536, 29, 0, 0, 6, 2
7, 2, 0, 2544, 29, 0, 0, 6, 2
9, 1, 0, 2448, 26, 0, -4, 6, 2
11, 1, 0, 2371, 26, 0, 0, 0, 2
13, 1, 0, 2288, 25, 0, -4, 6, 6
15, 1, 0, 2235, 25, 0, 0, 0, 6
