1, 6, 0, 4579, 30, 0, 0, 0, 2
2, 6, 0, 4597, 29, 0, 4, 6, 2
5, 3, 0, 4779, 30, 0, 0, 0, 2
7, 3, 0, 4792, 28, 0, 0, 6, 2
9, 3, 0, 4800, 28, 0, 0, 6, 2
11, 3, 0, 4808, 28, 0, 0, 0, 2
13, 3, 0, 4808, 28, 0, 0, 6, 2
15, 3, 0, 4809, 29, 0, 0, 0, 2
