1, 3, 0, 2796, 42, 0, 0, 0, 2
2, 3, 0, 2807, 38, 0, 0, 6, 2
5, 2, 0, 2836, 40, 0, 0, 0, 2
7, 2, 0, 2840, 39, 0, 0, 6, 2
9, 2, 0, 2840, 39, 0, 0, 6, 2
12, 3, 0, 2848, 40, 0, 0, 0, 2
16, 3, 0, 2848, 44, 0, 0, 0, 2
