1, 6, 0, 4787, 45, 0, 0, 0, 2
2, 6, 0, 4795, 44, 0, 0, 6, 2
5, 3, 0, 4858, 45, 0, 0, 0, 2
7, 3, 0, 4864, 43, 0, 0, 6, 2
12, 6, 0, 4864, 41, 0, 0, 0, 2
14, 6, 0, 4864, 43, 0, 0, 6, 2
16, 6, 0, 4864, 44, 0, 0, 0, 2
