1, 4, 0, 3718, 30, 0, 0, 0, 2
2, 4, 0, 3692, 27, 0, -4, 6, 2
5, 2, 0, 3508, 30, 0, 0, 0, 2
7, 2, 0, 3504, 27, 0, 0, 6, 2
11, 2, 0, 3620, 28, 0, 0, 0, 2
13, 2, 0, 3704, 28, 0, 4, 6, 2
15, 3, 0, 3732, 28, 0, 0, 0, 2
