0, 2, 0, 2893, 17, 0, 8, 6, 4
1, 3, 0, 2907, 17, 0, 0, 0, 4
2, 3, 0, 2930, 16, 0, 0, 6, 4
5, 2, 0, 3016, 18, 0, 0, 0, 4
7, 2, 0, 3032, 16, 0, 4, 6, 4
9, 2, 0, 3032, 15, 0, 0, 6, 4
11, 2, 0, 3120, 17, 0, 0, 0, 4
11, 2, 1, 3045, 16, 0, 0, 0, 4
13, 2, 0, 3040, 16, 0, 0, 6, 4
15, 2, 0, 3038, 15, 0, 0, 0, 4
