1, 0, 0, 771, 30, 0, 0, 0, 2
2, 0, 0, 799, 29, 0, 0, 6, 2
5, 0, 0, 1030, 29, 0, 0, 0, 2
7, 0, 0, 1048, 30, 0, 0, 6, 2
9, 0, 0, 1048, 31, 0, 0, 6, 2
11, 0, 0, 1041, 31, 0, 0, 0, 2
13, 0, 0, 1024, 31, 0, 0, 6, 2
16, 0, 0, 1011, 35, 0, 0, 0, 2
