1, 6, 0, 4385, 51, 0, 0, 0, 2
2, 6, 0, 4373, 49, 0, 0, 6, 2
3, 6, 0, 4316, 50, 0, -4, 6, 2
4, 5, 0, 4293, 53, 0, 0, 0, 3
6, 5, 0, 4292, 55, 0, 0, 0, 1
10, 5, 0, 4252, 49, 0, 0, 6, 2
12, 5, 0, 4255, 50, 0, 0, 0, 3
14, 5, 0, 4248, 49, 0, 0, 6, 2
16, 5, 0, 4255, 53, 0, 0, 0, 3
