1, 4, 0, 3546, 51, 0, 0, 0, 2
2, 4, 0, 3596, 49, 0, 4, 6, 2
3, 5, 0, 3856, 48, 0, 8, 6, 2
4, 5, 0, 3888, 53, 0, 0, 0, 3
5, 3, 0, 3948, 45, 0, 0, 0, 2
7, 3, 0, 3960, 47, 0, 0, 6, 2
10, 5, 0, 3932, 46, 0, -8, 6, 2
12, 5, 0, 3860, 50, 0, 0, 0, 3
16, 5, 0, 3748, 44, 0, 0, 0, 2
