0, 3, 0, 3427, 18, 0, 0, 5, 4
2, 4, 0, 3436, 14, 0, 4, 6, 4
5, 2, 0, 3454, 18, 0, 0, 0, 4
5, 2, 1, 3449, 18, 0, 0, 0, 4
7, 2, 0, 3600, 13, 12, 4, 6, 4
7, 2, 1, 3256, 12, 12, -8, 6, 4
9, 2, 0, 3441, 15, 0, 0, 6, 4
13, 2, 0, 3440, 15, 0, -4, 6, 4
15, 2, 0, 3440, 15, 0, 0, 0, 4
