0, 3, 0, 4317, 12, 0, 0, 6, 4
2, 5, 0, 4317, 9, 0, 0, 6, 4
2, 5, 1, 4257, 8, 0, 4, 6, 4
2, 6, 0, 4323, 9, 0, 0, 6, 4
5, 3, 0, 4317, 12, 0, 0, 0, 4
5, 3, 1, 4325, 12, 0, 0, 0, 4
7, 3, 0, 4312, 10, 0, 0, 6, 4
9, 3, 0, 4320, 10, 0, 0, 6, 4
11, 3, 0, 4314, 11, 0, 0, 0, 4
13, 3, 0, 4320, 12, 10, 0, 6, 4
13, 3, 1, 4168, 12, 10, -4, 6, 4
15, 3, 0, 4314, 10, 0, 0, 0, 4
15, 3, 1, 4219, 13, 0, 0, 0, 4
