3, 2, 0, 2144, 53, 0, 12, 6, 3
4, 2, 0, 2154, 56, 0, 0, 0, 3
6, 2, 0, 2276, 55, 0, 0, 0, 1
10, 2, 0, 2296, 50, 0, 0, 6, 3
12, 2, 0, 2286, 50, 0, 0, 0, 3
14, 2, 0, 2284, 49, 0, -4, 6, 2
16, 2, 0, 2276, 53, 0, 0, 0, 3
