3, 6, 0, 4752, 58, 0, 0, 6, 1
4, 6, 0, 4752, 56, 0, 0, 0, 3
6, 6, 0, 4723, 55, 0, 0, 0, 1
8, 6, 0, 4720, 57, 0, 0, 6, 1
10, 6, 0, 4704, 57, 0, 0, 6, 1
12, 6, 0, 4705, 60, 0, 0, 0, 1
14, 6, 0, 4700, 58, 0, 0, 6, 1
16, 6, 0, 4705, 53, 0, 0, 0, 3
