1, 5, 0, 4122, 47, 0, 0, 0, 2
2, 5, 0, 4023, 43, 0, -8, 6, 2
5, 3, 0, 3768, 41, 0, 0, 0, 2
7, 3, 0, 3784, 40, 0, 4, 6, 2
9, 3, 0, 3856, 39, 0, 4, 6, 2
12, 5, 0, 3935, 41, 0, 0, 0, 2
16, 5, 0, 4058, 35, 0, 0, 0, 2
