0, 2, 0, 2777, 8, 0, 18, 6, 4
2, 3, 0, 2863, 8, 0, 4, 6, 4
5, 2, 0, 2993, 7, 0, 0, 0, 4
7, 2, 0, 3000, 9, 0, 0, 6, 4
9, 2, 0, 3016, 9, 0, 0, 6, 4
13, 2, 0, 3008, 9, 0, 0, 6, 4
15, 2, 0, 2995, 9, 0, 0, 0, 4
