0, 0, 0, 798, 22, 0, 27, 6, 4
1, 0, 0, 844, 21, 0, 0, 0, 4
2, 0, 0, 880, 22, 0, 4, 6, 4
5, 0, 0, 1097, 19, 0, 0, 0, 4
7, 0, 0, 1072, 20, 0, 0, 6, 4
9, 0, 0, 968, 18, 0, -4, 6, 4
11, 0, 0, 877, 18, 0, 0, 0, 4
13, 0, 0, 752, 16, 0, -4, 6, 4
15, 0, 0, 638, 16, 0, 0, 0, 4
