3, 0, 0, 836, 57, 0, -8, 6, 1
4, 0, 0, 822, 56, 0, 0, 0, 3
6, 0, 0, 739, 56, 0, 0, 0, 1
8, 0, 0, 732, 55, 0, 0, 6, 1
10, 0, 0, 732, 54, 0, 0, 6, 3
12, 0, 0, 739, 60, 0, 0, 0, 1
14, 0, 0, 748, 55, 0, 0, 6, 1
16, 0, 0, 757, 54, 0, 0, 0, 3
