1, 1, 0, 1758, 37, 0, 0, 0, 2
2, 1, 0, 1892, 37, 0, 12, 6, 2
5, 1, 0, 2230, 34, 0, 0, 0, 2
7, 1, 0, 2232, 31, 0, 0, 6, 2
9, 1, 0, 2112, 30, 0, -8, 6, 2
11, 1, 0, 1996, 30, 0, 0, 0, 2
13, 1, 0, 1856, 29, 0, -8, 6, 2
15, 1, 0, 1712, 29, 0, 0, 0, 2
