0, 2, 0, 3209, 13, 0, -7, 6, 4
2, 4, 0, 3190, 11, 0, -4, 6, 4
5, 2, 0, 3127, 12, 0, 0, 0, 4
9, 2, 0, 3136, 12, 0, 4, 6, 4
11, 2, 0, 3340, 14, 0, 0, 0, 4
11, 2, 1, 3158, 13, 0, 0, 0, 4
13, 2, 0, 3176, 12, 0, 0, 6, 4
15, 2, 0, 3183, 13, 0, 0, 0, 4
