3, 4, 0, 3300, 72, 0, 8, 6, 1
4, 4, 0, 3307, 71, 0, 0, 0, 1
6, 4, 0, 3401, 66, 0, 0, 0, 1
8, 4, 0, 3416, 68, 0, 0, 6, 1
10, 4, 0, 3380, 66, 0, -4, 6, 1
12, 4, 0, 3354, 71, 0, 0, 0, 1
14, 4, 0, 3316, 66, 0, -4, 6, 1
16, 4, 0, 3298, 64, 0, 0, 0, 1
