3, 1, 0, 1428, 75, 0, 4, 6, 1
4, 1, 0, 1441, 79, 0, 0, 0, 1
6, 1, 0, 1479, 77, 0, 0, 0, 1
8, 1, 0, 1476, 73, 0, 0, 6, 1
10, 1, 0, 1460, 72, 0, 0, 6, 1
12, 1, 0, 1442, 71, 0, 0, 0, 1
14, 1, 0, 1436, 72, 0, 0, 6, 1
16, 1, 0, 1432, 74, 0, 0, 0, 1
