3, 4, 0, 3212, 56, 0, 4, 6, 1
4, 4, 0, 3222, 56, 0, 0, 0, 3
6, 4, 0, 3317, 55, 0, 0, 0, 1
8, 4, 0, 3328, 55, 0, 4, 6, 1
10, 4, 0, 3364, 55, 0, 0, 6, 1
12, 4, 0, 3373, 60, 0, 0, 0, 1
14, 4, 0, 3376, 55, 0, 0, 6, 1
16, 4, 0, 3373, 53, 0, 0, 0, 3
