0, 1, 0, 1885, 22, 0, -7, 6, 4
1, 1, 0, 1872, 17, 0, 0, 0, 4
2, 1, 0, 1850, 17, 0, 0, 6, 4
5, 1, 0, 1789, 18, 0, 0, 0, 4
7, 1, 0, 1784, 18, 17, 0, 6, 4
7, 1, 1, 1784, 18, 17, 0, 6, 4
9, 1, 0, 1784, 18, 0, 0, 6, 4
11, 1, 0, 1788, 19, 0, 0, 0, 4
13, 1, 0, 1792, 18, 0, 0, 6, 4
15, 1, 0, 1800, 18, 0, 0, 0, 4
