0, 0, 0, 846, 13, 0, 12, 6, 4
2, 0, 0, 883, 10, 0, 4, 6, 4
5, 0, 0, 1017, 12, 0, 0, 0, 4
5, 0, 1, 1033, 12, 0, 0, 0, 4
7, 0, 0, 1032, 10, 0, 4, 6, 4
9, 0, 0, 1064, 11, 0, 0, 6, 4
13, 0, 0, 1072, 11, 0, 4, 6, 4
15, 0, 0, 1059, 11, 0, 0, 0, 4
