3, 4, 0, 3723, 71, 0, -4, 6, 1
3, 5, 0, 3707, 72, 0, 0, 6, 1
4, 4, 0, 3702, 71, 0, 0, 0, 1
6, 4, 0, 3664, 78, 0, 0, 0, 1
8, 4, 0, 3671, 71, 0, -4, 6, 1
10, 4, 0, 3655, 72, 0, 0, 6, 1
12, 4, 0, 3655, 71, 0, 0, 0, 1
14, 4, 0, 3652, 72, 0, 0, 6, 1
16, 4, 0, 3655, 74, 0, 0, 0, 1
