3, 4, 0, 3256, 58, 0, -8, 6, 1
6, 3, 0, 3092, 55, 0, 0, 0, 1
10, 3, 0, 3052, 54, 0, 0, 6, 3
12, 3, 0, 3073, 50, 0, 0, 0, 3
14, 3, 0, 3096, 51, 0, 4, 6, 3
14, 4, 0, 3112, 51, 0, 0, 6, 3
16, 4, 0, 3129, 54, 0, 0, 0, 3
