3, 2, 0, 2316, 69, 0, 0, 6, 1
4, 2, 0, 2314, 71, 0, 0, 0, 1
6, 2, 0, 2305, 66, 0, 0, 0, 1
6, 3, 0, 2651, 77, 0, 0, 0, 1
8, 2, 0, 2292, 69, 74, -4, 6, 1
8, 2, 1, 2292, 69, 74, -4, 6, 1
10, 2, 0, 2308, 69, 0, 0, 6, 1
12, 2, 0, 2305, 71, 0, 0, 0, 1
14, 2, 0, 2312, 69, 67, 0, 6, 1
14, 2, 1, 2312, 69, 67, 0, 6, 1
16, 2, 0, 2305, 74, 0, 0, 0, 1
16, 2, 1, 2370, 64, 0, 0, 0, 1
