1, 4, 0, 3528, 40, 0, 0, 0, 2
2, 4, 0, 3555, 39, 0, 4, 6, 2
5, 3, 0, 3803, 41, 0, 0, 0, 2
7, 3, 0, 3816, 38, 0, 0, 6, 2
9, 3, 0, 3864, 38, 0, 0, 6, 2
12, 5, 0, 3870, 41, 0, 0, 0, 2
16, 5, 0, 3888, 35, 0, 0, 0, 2
