3, 3, 0, 2944, 69, 0, 4, 6, 1
4, 3, 0, 2942, 68, 0, 0, 0, 1
6, 3, 0, 2970, 66, 0, 0, 0, 1
8, 3, 0, 2972, 69, 0, 0, 6, 1
10, 3, 0, 2976, 69, 0, 0, 6, 1
12, 3, 0, 2970, 71, 0, 0, 0, 1
14, 3, 0, 2976, 69, 0, -4, 6, 1
16, 3, 0, 2980, 74, 0, 0, 0, 1
