3, 2, 0, 2296, 57, 0, 0, 6, 1
4, 2, 0, 2305, 56, 0, 0, 0, 3
6, 2, 0, 2314, 55, 0, 0, 0, 1
8, 2, 0, 2316, 56, 0, 0, 6, 1
10, 2, 0, 2324, 56, 0, 0, 6, 1
12, 2, 0, 2323, 60, 0, 0, 0, 1
14, 2, 0, 2324, 56, 0, 0, 6, 1
