0, 4, 0, 4873, 17, 0, -7, 6, 4
1, 6, 0, 4860, 18, 0, 0, 0, 4
1, 6, 1, 4868, 18, 0, 0, 0, 4
2, 6, 0, 4850, 14, 0, -4, 6, 4
2, 6, 1, 4783, 14, 0, -12, 6, 4
7, 3, 0, 4784, 16, 0, 0, 6, 4
11, 3, 0, 4745, 16, 0, 0, 0, 4
13, 3, 0, 4760, 16, 0, 0, 6, 4
