0, 4, 0, 4625, 9, 0, 6, 5, 4
2, 6, 0, 4650, 7, 0, 0, 6, 4
5, 3, 0, 4711, 7, 0, 0, 0, 4
7, 3, 0, 4720, 9, 0, 4, 6, 4
9, 3, 0, 4744, 9, 0, 4, 6, 4
11, 3, 0, 4739, 10, 0, 0, 0, 4
13, 3, 0, 4752, 9, 0, 0, 6, 4
15, 3, 0, 4751, 9, 0, 0, 0, 4
