1, 0, 0, 1313, 52, 0, 0, 0, 2
2, 0, 0, 1302, 48, 0, 0, 6, 2
3, 0, 0, 1252, 49, 0, 0, 6, 2
4, 0, 0, 1246, 56, 0, 0, 0, 3
7, 0, 0, 1216, 49, 0, 4, 6, 2
10, 0, 0, 1212, 48, 0, 0, 6, 2
12, 0, 0, 1217, 50, 0, 0, 0, 3
14, 0, 0, 1212, 49, 0, 0, 6, 2
16, 0, 0, 1217, 54, 0, 0, 0, 3
