3, 0, 0, 1144, 70, 0, 12, 6, 1
4, 0, 0, 1161, 71, 0, 0, 0, 1
6, 0, 0, 1255, 66, 0, 0, 0, 1
8, 0, 0, 1240, 65, 0, 0, 6, 1
10, 0, 0, 1096, 62, 0, -8, 6, 1
12, 0, 0, 1048, 60, 0, 0, 0, 1
16, 0, 0, 870, 64, 0, 0, 0, 1
