0, 3, 0, 4219, 22, 0, 8, 5, 4
1, 5, 0, 4237, 24, 0, 0, 0, 6
2, 5, 0, 4267, 23, 0, 0, 6, 4
5, 3, 0, 4371, 23, 0, 0, 0, 6
7, 3, 0, 4384, 24, 0, 0, 6, 6
9, 3, 0, 4400, 24, 0, 0, 6, 6
11, 3, 0, 4389, 24, 0, 0, 0, 6
13, 3, 0, 4384, 24, 0, 0, 6, 6
15, 3, 0, 4377, 23, 0, 0, 0, 6
