3, 3, 0, 2940, 54, 0, 4, 6, 3
4, 3, 0, 2952, 53, 0, 0, 0, 3
6, 3, 0, 2980, 55, 0, 0, 0, 1
8, 3, 0, 2992, 53, 0, 0, 6, 1
10, 3, 0, 3008, 53, 0, 0, 6, 3
12, 3, 0, 3027, 50, 0, 0, 0, 3
14, 3, 0, 3016, 53, 0, 0, 6, 3
16, 3, 0, 3027, 53, 0, 0, 0, 3
