0, 1, 0, 2053, 23, 0, -21, 5, 4
1, 2, 0, 2020, 26, 0, 0, 0, 6
2, 2, 0, 1994, 22, 0, -4, 6, 4
5, 1, 0, 1780, 24, 0, 0, 0, 6
7, 1, 0, 1760, 22, 0, 0, 6, 4
9, 1, 0, 1712, 22, 0, 0, 6, 4
11, 1, 0, 1712, 23, 0, 0, 0, 6
13, 1, 0, 1688, 22, 0, -4, 6, 4
15, 1, 0, 1687, 23, 0, 0, 0, 6
