3, 2, 0, 1968, 76, 0, 4, 6, 1
4, 2, 0, 1957, 71, 0, 0, 0, 1
6, 2, 0, 2004, 78, 0, 0, 0, 1
8, 2, 0, 2012, 74, 0, 0, 6, 1
10, 2, 0, 2024, 73, 0, 0, 6, 1
12, 2, 0, 2013, 71, 0, 0, 0, 1
14, 2, 0, 2020, 73, 0, 0, 6, 1
16, 2, 0, 2013, 74, 0, 0, 0, 1
