1, 2, 0, 2120, 45, 0, 0, 0, 2
2, 2, 0, 2106, 47, 0, 0, 6, 2
4, 2, 0, 2041, 56, 0, 0, 0, 3
7, 1, 0, 1992, 47, 0, 0, 6, 2
10, 2, 0, 1984, 47, 0, 0, 6, 2
12, 2, 0, 1995, 50, 0, 0, 0, 3
14, 2, 0, 1984, 47, 0, 0, 6, 2
16, 2, 0, 1985, 44, 0, 0, 0, 2
