1, 4, 0, 3550, 40, 0, 0, 0, 2
2, 4, 0, 3529, 38, 0, -4, 6, 2
5, 2, 0, 3378, 40, 0, 0, 0, 2
7, 2, 0, 3376, 38, 0, 0, 6, 2
9, 2, 0, 3376, 38, 0, 0, 6, 2
12, 4, 0, 3373, 41, 0, 0, 0, 2
14, 4, 0, 3388, 38, 0, 0, 6, 2
16, 4, 0, 3392, 35, 0, 0, 0, 2
