0, 0, 0, 831, 17, 0, -26, 6, 4
1, 0, 0, 791, 18, 0, 0, 0, 4
2, 0, 0, 763, 16, 0, -4, 6, 4
5, 0, 0, 521, 18, 0, 0, 0, 4
7, 0, 0, 480, 17, 0, -4, 6, 4
9, 0, 0, 432, 17, 0, 0, 6, 4
11, 0, 0, 419, 17, 0, 0, 0, 4
13, 0, 0, 408, 17, 0, 0, 6, 4
15, 0, 0, 400, 18, 0, 0, 0, 4
