1, 0, 0, 952, 30, 0, 0, 0, 2
2, 0, 0, 957, 30, 0, 0, 6, 2
5, 0, 0, 1004, 29, 0, 0, 0, 2
7, 0, 0, 1008, 31, 0, 0, 6, 2
9, 0, 0, 1016, 31, 0, 0, 6, 2
11, 0, 0, 1016, 32, 0, 0, 0, 2
13, 0, 0, 1024, 31, 0, 4, 6, 2
16, 0, 0, 1029, 35, 0, 0, 0, 2
