3, 2, 0, 1988, 64, 0, -4, 6, 1
6, 2, 0, 1957, 66, 0, 0, 0, 1
8, 2, 0, 1948, 63, 0, 0, 6, 1
10, 2, 0, 1936, 63, 0, -4, 6, 1
12, 2, 0, 1929, 60, 0, 0, 0, 1
14, 2, 0, 1936, 63, 0, 4, 6, 1
14, 2, 1, 1984, 63, 0, 8, 6, 1
16, 2, 0, 2004, 64, 0, 0, 0, 1
16, 2, 1, 1939, 64, 0, 0, 0, 1
