1, 6, 0, 4425, 45, 0, 0, 0, 2
2, 6, 0, 4419, 48, 0, 0, 6, 2
4, 6, 0, 4385, 56, 0, 0, 0, 3
7, 3, 0, 4368, 48, 0, 0, 6, 2
10, 6, 0, 4360, 47, 0, 0, 6, 2
14, 6, 0, 4356, 47, 0, 0, 6, 2
16, 6, 0, 4339, 44, 0, 0, 0, 2
