1, 1, 0, 1818, 47, 0, 0, 0, 2
2, 1, 0, 1902, 46, 0, 4, 6, 2
4, 2, 0, 2022, 56, 0, 0, 0, 3
5, 1, 0, 2130, 45, 0, 0, 0, 2
7, 1, 0, 2152, 46, 0, 0, 6, 2
12, 2, 0, 2135, 50, 0, 0, 0, 3
14, 2, 0, 2112, 45, 0, 0, 6, 2
16, 2, 0, 2098, 44, 0, 0, 0, 2
