1, 1, 0, 1533, 32, 0, 0, 0, 2
2, 1, 0, 1465, 32, 0, -4, 6, 2
5, 0, 0, 1324, 30, 0, 0, 0, 2
5, 1, 0, 1323, 30, 0, 0, 0, 2
7, 0, 0, 1320, 30, 0, 0, 6, 2
7, 1, 0, 1320, 31, 0, 0, 6, 2
9, 1, 0, 1368, 30, 0, 4, 6, 2
11, 1, 0, 1388, 30, 0, 0, 0, 2
13, 1, 0, 1440, 29, 0, 0, 6, 2
15, 1, 0, 1456, 29, 0, 0, 0, 2
15, 1, 1, 1400, 29, 0, 0, 0, 2
