0, 1, 0, 1517, 8, 0, -29, 6, 4
2, 1, 0, 1370, 6, 0, -4, 6, 4
5, 0, 0, 1166, 7, 0, 0, 0, 4
7, 0, 0, 1152, 7, 0, 0, 6, 4
9, 0, 0, 1128, 7, 0, 0, 6, 4
11, 0, 0, 1139, 7, 0, 0, 0, 4
13, 0, 0, 1152, 7, 0, 0, 6, 4
15, 0, 0, 1157, 7, 0, 0, 0, 4
