1, 3, 0, 2704, 24, 0, 0, 0, 6
2, 3, 0, 2610, 25, 0, -8, 6, 6
5, 1, 0, 2395, 24, 0, 0, 0, 6
5, 1, 1, 2389, 24, 0, 0, 0, 6
7, 1, 0, 2392, 22, 0, 0, 6, 4
9, 1, 0, 2408, 21, 0, 0, 6, 4
11, 1, 0, 2437, 20, 0, 0, 0, 4
13, 1, 0, 2448, 19, 0, 0, 6, 4
15, 1, 0, 2464, 19, 0, 0, 0, 4
