0, 4, 0, 4770, 23, 0, -19, 4, 4
1, 6, 0, 4738, 26, 0, 0, 0, 6
1, 6, 1, 4750, 26, 0, 0, 0, 6
2, 6, 0, 4715, 24, 0, -4, 6, 6
5, 3, 0, 4504, 23, 0, 0, 0, 6
7, 3, 0, 4480, 24, 0, -4, 6, 6
9, 3, 0, 4456, 24, 0, -4, 6, 6
11, 3, 0, 4452, 23, 0, 0, 0, 6
13, 3, 0, 4456, 23, 0, 0, 6, 6
15, 3, 0, 4452, 23, 0, 0, 0, 6
