5, 0, 0, 368, 29, 0, 0, 0, 2
7, 0, 0, 352, 27, 26, -4, 6, 2
7, 0, 1, 408, 27, 26, -4, 6, 2
9, 0, 0, 344, 26, 0, 0, 6, 2
11, 0, 0, 350, 27, 0, 0, 0, 2
13, 0, 0, 352, 26, 0, 0, 6, 2
15, 0, 0, 368, 26, 0, 0, 0, 2
