1, 1, 0, 1752, 32, 0, 0, 0, 2
2, 1, 0, 1724, 30, 0, 0, 6, 2
5, 1, 0, 1640, 29, 0, 0, 0, 2
7, 1, 0, 1624, 30, 0, 0, 6, 2
9, 1, 0, 1608, 29, 0, 0, 6, 2
9, 1, 1, 1792, 29, 0, 12, 6, 2
11, 1, 0, 1681, 28, 0, 0, 0, 2
11, 1, 1, 1500, 34, 0, 0, 0, 2
13, 1, 0, 1616, 30, 0, 0, 6, 2
16, 1, 0, 1611, 35, 0, 0, 0, 2
