1, 4, 0, 3715, 52, 0, 0, 0, 2
2, 4, 0, 3687, 51, 0, -4, 6, 2
3, 4, 0, 3572, 51, 0, -4, 6, 2
4, 4, 0, 3552, 56, 0, 0, 0, 3
6, 4, 0, 3495, 55, 0, 0, 0, 1
10, 4, 0, 3472, 50, 0, 0, 6, 3
12, 4, 0, 3467, 50, 0, 0, 0, 3
14, 4, 0, 3476, 49, 0, -4, 6, 2
