0, 3, 0, 3591, 17, 0, 3, 6, 4
2, 4, 0, 3603, 14, 0, 0, 6, 4
7, 2, 0, 3648, 15, 0, 0, 6, 4
9, 2, 0, 3656, 15, 0, 0, 6, 4
11, 2, 0, 3669, 15, 0, 0, 0, 4
13, 2, 0, 3656, 15, 0, 0, 6, 4
15, 2, 0, 3664, 15, 0, 0, 0, 4
