1, 1, 0, 1812, 47, 0, 0, 0, 2
2, 1, 0, 1729, 44, 0, -8, 6, 2
4, 1, 0, 1554, 53, 0, 0, 0, 3
5, 1, 0, 1500, 45, 0, 0, 0, 2
7, 1, 0, 1488, 43, 0, 0, 6, 2
14, 1, 0, 1528, 41, 0, 0, 6, 2
16, 1, 0, 1554, 44, 0, 0, 0, 2
