1, 1, 0, 1637, 32, 0, 0, 0, 2
2, 1, 0, 1597, 30, 0, 0, 6, 2
5, 1, 0, 1461, 30, 0, 0, 0, 2
7, 1, 0, 1448, 30, 0, -4, 6, 2
9, 1, 0, 1408, 30, 0, 0, 6, 2
11, 1, 0, 1401, 31, 0, 0, 0, 2
13, 1, 0, 1392, 31, 0, 0, 6, 2
