1, 5, 0, 4187, 47, 0, 0, 0, 2
2, 5, 0, 4099, 43, 0, -4, 6, 2
4, 5, 0, 3945, 53, 0, 0, 0, 3
5, 3, 0, 3864, 45, 0, 0, 0, 2
7, 3, 0, 3832, 46, 0, 0, 6, 2
10, 5, 0, 3800, 46, 0, 0, 6, 2
12, 5, 0, 3804, 50, 0, 0, 0, 3
14, 5, 0, 3796, 45, 0, 0, 6, 2
