0, 3, 0, 3857, 22, 0, -14, 6, 4
1, 5, 0, 3852, 21, 0, 0, 0, 4
1, 5, 1, 3839, 21, 0, 0, 0, 4
2, 5, 0, 3789, 19, 0, -4, 6, 4
5, 2, 0, 3656, 19, 0, 0, 0, 4
7, 2, 0, 3624, 18, 0, 0, 6, 4
9, 2, 0, 3600, 17, 0, 0, 6, 4
11, 2, 0, 3600, 17, 0, 0, 0, 4
15, 2, 0, 3608, 16, 0, 0, 0, 4
