1, 4, 0, 3217, 30, 0, 0, 0, 2
2, 4, 0, 3249, 30, 0, 8, 6, 2
5, 2, 0, 3523, 30, 0, 0, 0, 2
7, 2, 0, 3520, 28, 0, 0, 6, 2
9, 2, 0, 3472, 28, 0, -4, 6, 2
13, 2, 0, 3384, 28, 0, -4, 6, 2
15, 2, 0, 3353, 29, 0, 0, 0, 2
