1, 0, 0, 1166, 51, 0, 0, 0, 2
2, 0, 0, 1180, 51, 0, 0, 6, 2
3, 0, 0, 1244, 52, 0, 0, 6, 3
4, 0, 0, 1246, 56, 0, 0, 0, 3
6, 0, 0, 1283, 56, 0, 0, 0, 1
10, 0, 0, 1312, 52, 0, 0, 6, 3
10, 1, 0, 1308, 52, 0, 0, 6, 3
12, 0, 0, 1311, 50, 0, 0, 0, 3
14, 0, 0, 1316, 52, 0, 0, 6, 3
14, 1, 0, 1316, 52, 0, 0, 6, 3
16, 0, 0, 1301, 54, 0, 0, 0, 3
