0, 3, 0, 3592, 13, 0, -18, 6, 4
2, 4, 0, 3536, 9, 0, -4, 6, 4
5, 2, 0, 3351, 12, 0, 0, 0, 4
7, 2, 0, 3328, 11, 0, -4, 6, 4
9, 2, 0, 3297, 12, 0, -4, 6, 4
11, 2, 0, 3290, 12, 0, 0, 0, 4
15, 2, 0, 3290, 13, 0, 0, 0, 4
