1, 2, 0, 2074, 30, 0, 0, 0, 2
2, 2, 0, 2035, 29, 0, -8, 6, 2
5, 1, 0, 1711, 29, 0, 0, 0, 2
7, 1, 0, 1728, 30, 0, 0, 6, 2
9, 1, 0, 1824, 30, 0, 4, 6, 2
11, 1, 0, 1914, 31, 0, 0, 0, 2
13, 1, 0, 2024, 31, 0, 4, 6, 2
16, 2, 0, 2117, 35, 0, 0, 0, 2
