0, 1, 0, 941, 17, 0, -35, 5, 4
1, 0, 0, 885, 18, 0, 0, 0, 4
2, 0, 0, 843, 17, 0, -4, 6, 4
7, 0, 0, 448, 15, 0, 0, 6, 4
9, 0, 0, 392, 14, 0, 0, 6, 4
11, 0, 0, 382, 15, 0, 0, 0, 4
13, 0, 0, 384, 14, 0, 0, 6, 4
