3, 0, 0, 1328, 64, 0, -4, 6, 1
4, 0, 0, 1311, 56, 0, 0, 0, 3
6, 0, 0, 1245, 66, 0, 0, 0, 1
8, 0, 0, 1240, 62, 0, -4, 6, 1
10, 0, 0, 1236, 62, 0, 0, 6, 1
12, 0, 0, 1236, 60, 0, 0, 0, 1
14, 0, 0, 1252, 62, 0, 0, 6, 1
16, 0, 0, 1245, 64, 0, 0, 0, 1
