0, 3, 0, 3575, 13, 0, -9, 6, 4
2, 4, 0, 3551, 13, 0, -4, 6, 4
5, 2, 0, 3461, 13, 0, 0, 0, 4
7, 2, 0, 3456, 13, 0, 0, 6, 4
9, 2, 0, 3440, 13, 0, 0, 6, 4
13, 2, 0, 3448, 13, 0, 0, 6, 4
15, 2, 0, 3459, 14, 0, 0, 0, 4
