1, 0, 0, 742, 52, 0, 0, 0, 2
2, 0, 0, 752, 48, 0, 4, 6, 2
3, 0, 0, 804, 49, 0, 4, 6, 2
4, 0, 0, 804, 56, 0, 0, 0, 3
10, 0, 0, 864, 47, 0, 0, 6, 2
12, 0, 0, 860, 50, 0, 0, 0, 3
12, 0, 1, 739, 50, 0, 0, 0, 3
14, 0, 0, 868, 48, 0, 0, 6, 2
16, 0, 0, 935, 53, 0, 0, 0, 3
16, 0, 1, 860, 53, 0, 0, 0, 3
