3, 0, 0, 988, 60, 0, 12, 6, 1
4, 0, 0, 1011, 56, 0, 0, 0, 3
6, 0, 0, 1133, 55, 0, 0, 0, 1
8, 0, 0, 1128, 57, 55, 0, 6, 1
8, 0, 1, 1280, 57, 55, 12, 6, 1
8, 1, 0, 1328, 53, 0, 4, 6, 1
10, 0, 0, 1144, 55, 0, 0, 6, 1
12, 0, 0, 1142, 60, 0, 0, 0, 1
14, 0, 0, 1116, 55, 0, 0, 6, 1
16, 0, 0, 1105, 53, 0, 0, 0, 3
