0, 2, 0, 3082, 8, 0, 0, 6, 4
0, 2, 1, 3106, 8, 0, -2, 4, 4
2, 3, 0, 3083, 6, 0, 0, 6, 4
7, 2, 0, 3096, 8, 0, 0, 6, 4
9, 2, 0, 3096, 8, 0, 0, 6, 4
11, 2, 0, 3095, 8, 0, 0, 0, 4
13, 2, 0, 3096, 8, 0, 0, 6, 4
15, 2, 0, 3089, 9, 0, 0, 0, 4
