0, 2, 0, 2709, 22, 0, -24, 5, 4
1, 3, 0, 2660, 21, 0, 0, 0, 4
2, 3, 0, 2584, 21, 0, -4, 6, 4
5, 1, 0, 2334, 19, 0, 0, 0, 4
9, 1, 0, 2320, 21, 0, 4, 6, 4
11, 1, 0, 2369, 21, 0, 0, 0, 4
13, 1, 0, 2408, 22, 0, 4, 6, 4
15, 1, 0, 2452, 22, 0, 0, 0, 4
