3, 4, 0, 3408, 63, 0, 0, 6, 1
3, 4, 1, 3700, 63, 0, -8, 6, 1
4, 4, 0, 3683, 83, 0, 0, 0, 1
4, 4, 1, 3411, 56, 0, 0, 0, 3
6, 4, 0, 3429, 66, 0, 0, 0, 1
8, 4, 0, 3436, 62, 0, 0, 6, 1
10, 4, 0, 3448, 63, 0, 0, 6, 1
12, 4, 0, 3458, 60, 0, 0, 0, 1
14, 4, 0, 3452, 62, 0, 0, 6, 1
16, 4, 0, 3448, 64, 0, 0, 0, 1
