1, 3, 0, 2582, 28, 0, 0, 0, 2
2, 3, 0, 2645, 29, 0, 4, 6, 2
5, 2, 0, 2833, 30, 0, 0, 0, 2
7, 2, 0, 2840, 29, 0, 0, 6, 2
9, 2, 0, 2864, 29, 0, -4, 6, 2
11, 2, 0, 2862, 29, 0, 0, 0, 2
13, 2, 0, 2848, 29, 0, -4, 6, 2
15, 2, 0, 2849, 29, 0, 0, 0, 2
