0, 1, 0, 1372, 17, 0, -16, 6, 4
5, 0, 0, 1195, 13, 0, 0, 0, 4
7, 0, 0, 1200, 13, 0, 0, 6, 4
9, 0, 0, 1232, 13, 0, 4, 6, 4
11, 0, 0, 1263, 13, 0, 0, 0, 4
13, 0, 0, 1296, 13, 0, 0, 6, 4
13, 1, 0, 1312, 13, 0, 0, 6, 4
15, 1, 0, 1328, 13, 0, 0, 0, 4
