1, 2, 0, 2376, 51, 0, 0, 0, 2
2, 2, 0, 2380, 50, 0, 0, 6, 2
3, 2, 0, 2396, 51, 0, 0, 6, 2
4, 2, 0, 2399, 56, 0, 0, 0, 3
6, 2, 0, 2389, 55, 0, 0, 0, 1
10, 2, 0, 2412, 50, 0, 0, 6, 3
12, 2, 0, 2417, 50, 0, 0, 0, 3
14, 2, 0, 2412, 50, 0, 0, 6, 3
16, 2, 0, 2408, 54, 0, 0, 0, 3
