0, 4, 0, 4541, 17, 0, -35, 5, 4
1, 6, 0, 4485, 18, 0, 0, 0, 4
2, 6, 0, 4443, 17, 0, -4, 6, 4
7, 3, 0, 4048, 15, 0, 0, 6, 4
9, 3, 0, 3992, 14, 0, 0, 6, 4
11, 3, 0, 3982, 15, 0, 0, 0, 4
13, 3, 0, 3984, 14, 0, 0, 6, 4
