1, 1, 0, 1677, 37, 0, 0, 0, 2
2, 1, 0, 1770, 34, 0, 8, 6, 2
5, 1, 0, 2035, 34, 0, 0, 0, 2
7, 1, 0, 2040, 34, 0, 0, 6, 2
9, 1, 0, 2040, 34, 0, -4, 6, 2
11, 1, 0, 2040, 33, 0, 0, 0, 2
16, 2, 0, 1985, 35, 0, 0, 0, 2
