1, 1, 0, 1631, 32, 0, 0, 0, 2
2, 1, 0, 1602, 32, 0, 0, 6, 2
5, 1, 0, 1509, 35, 0, 0, 0, 2
7, 1, 0, 1504, 32, 0, 0, 6, 2
9, 1, 0, 1488, 33, 0, 0, 6, 2
11, 1, 0, 1481, 33, 0, 0, 0, 2
13, 1, 0, 1488, 32, 0, 0, 6, 2
16, 1, 0, 1488, 35, 0, 0, 0, 2
