0, 4, 0, 4854, 12, 0, -15, 6, 4
2, 6, 0, 4810, 12, 0, 0, 6, 4
5, 3, 0, 4633, 12, 0, 0, 0, 4
7, 3, 0, 4600, 12, 0, -4, 6, 4
11, 3, 0, 4571, 13, 0, 0, 0, 4
13, 3, 0, 4576, 11, 0, 0, 6, 4
15, 3, 0, 4577, 11, 0, 0, 0, 4
