0, 3, 0, 4166, 17, 0, -21, 5, 4
1, 5, 0, 4125, 17, 0, 0, 0, 4
2, 5, 0, 4043, 14, 0, -4, 6, 4
5, 3, 0, 3788, 13, 0, 0, 0, 4
7, 3, 0, 3776, 13, 0, 0, 6, 4
9, 2, 0, 3728, 12, 0, -4, 6, 4
9, 3, 0, 3728, 11, 0, 0, 6, 4
11, 3, 0, 3735, 12, 0, 0, 0, 4
13, 2, 0, 3744, 10, 0, 4, 6, 4
