1, 0, 0, 1004, 35, 0, 0, 0, 2
2, 0, 0, 936, 33, 0, -8, 6, 2
5, 0, 0, 475, 29, 0, 0, 0, 2
7, 0, 0, 488, 27, 0, 4, 6, 2
9, 0, 0, 640, 23, 0, 4, 6, 6
11, 0, 0, 676, 24, 0, 0, 0, 6
13, 0, 0, 848, 22, 0, 4, 6, 4
15, 0, 0, 903, 23, 0, 0, 0, 6
