0, 3, 0, 3970, 8, 0, -10, 6, 4
2, 5, 0, 3917, 8, 0, -4, 6, 4
5, 3, 0, 3838, 7, 0, 0, 0, 4
7, 3, 0, 3824, 9, 0, 0, 6, 4
9, 3, 0, 3816, 10, 0, 0, 6, 4
11, 3, 0, 3814, 10, 0, 0, 0, 4
13, 3, 0, 3816, 10, 0, 0, 6, 4
15, 3, 0, 3790, 10, 0, 0, 0, 4
