0, 4, 0, 4886, 22, 0, -3, 4, 4
1, 6, 0, 4875, 26, 0, 0, 0, 6
2, 6, 0, 4867, 23, 0, 0, 6, 4
5, 3, 0, 4789, 24, 0, 0, 0, 6
7, 3, 0, 4784, 24, 0, 0, 6, 6
9, 3, 0, 4776, 24, 0, 0, 6, 6
11, 3, 0, 4777, 24, 0, 0, 0, 6
13, 3, 0, 4784, 24, 0, 0, 6, 6
15, 3, 0, 4797, 24, 0, 0, 0, 6
