1, 4, 0, 3568, 51, 0, 0, 0, 2
2, 4, 0, 3504, 50, 0, -12, 6, 2
3, 4, 0, 3236, 49, 0, -12, 6, 2
4, 4, 0, 3222, 56, 0, 0, 0, 3
5, 2, 0, 3072, 45, 0, 0, 0, 2
7, 2, 0, 3056, 45, 0, -4, 6, 2
12, 3, 0, 3101, 41, 0, 0, 0, 2
12, 4, 0, 3148, 41, 0, 0, 0, 2
14, 4, 0, 3184, 39, 0, 4, 6, 2
16, 4, 0, 3204, 44, 0, 0, 0, 2
