5, 0, 0, 528, 7, 0, 0, 0, 4
7, 0, 0, 552, 8, 0, 0, 6, 4
9, 0, 0, 592, 9, 0, 0, 6, 4
11, 0, 0, 594, 9, 0, 0, 0, 4
13, 0, 0, 592, 8, 10, -4, 6, 4
13, 0, 1, 592, 8, 10, -4, 6, 4
15, 0, 0, 588, 9, 0, 0, 0, 4
