0, 2, 0, 2291, 5, 0, -12, 6, 4
5, 1, 0, 2161, 7, 0, 0, 0, 4
9, 1, 0, 2136, 6, 0, 0, 6, 4
9, 1, 1, 2264, 6, 0, 8, 6, 4
11, 1, 0, 2462, 4, 0, 0, 0, 4
11, 1, 1, 2370, 7, 0, 0, 0, 4
15, 1, 0, 2152, 5, 0, 0, 0, 4
