0, 3, 0, 3623, 23, 0, -1, 6, 4
1, 4, 0, 3622, 21, 0, 0, 0, 4
2, 4, 0, 3620, 19, 0, 0, 6, 4
5, 2, 0, 3605, 19, 0, 0, 0, 4
7, 2, 0, 3600, 21, 0, 0, 6, 4
9, 2, 0, 3600, 21, 0, 0, 6, 4
11, 2, 0, 3600, 21, 0, 0, 0, 4
13, 2, 0, 3600, 21, 0, -4, 6, 4
15, 2, 0, 3584, 21, 0, 0, 0, 4
