0, 2, 0, 2193, 23, 0, -13, 6, 4
1, 2, 0, 2172, 25, 0, 0, 0, 6
1, 2, 1, 2172, 21, 0, 0, 0, 4
2, 2, 0, 2158, 22, 20, 0, 6, 4
2, 2, 1, 2158, 22, 20, 0, 6, 4
5, 1, 0, 2007, 23, 0, 0, 0, 6
7, 1, 0, 1992, 24, 0, 0, 6, 6
9, 1, 0, 1984, 24, 0, 0, 6, 6
13, 1, 0, 1984, 24, 0, 0, 6, 6
15, 1, 0, 1945, 25, 0, 0, 0, 6
15, 1, 1, 1989, 25, 0, 0, 0, 6
