3, 4, 0, 3156, 81, 0, 0, 6, 1
4, 4, 0, 3157, 83, 0, 0, 0, 1
6, 4, 0, 3139, 78, 0, 0, 0, 1
8, 3, 0, 3116, 82, 0, 0, 6, 1
8, 4, 0, 3116, 81, 0, -4, 6, 1
10, 3, 0, 3116, 81, 0, 4, 6, 1
10, 4, 0, 3116, 81, 0, 0, 6, 1
12, 3, 0, 3101, 82, 0, 0, 0, 1
14, 3, 0, 3120, 82, 0, 0, 6, 1
14, 4, 0, 3120, 82, 0, 0, 6, 1
16, 3, 0, 3101, 83, 0, 0, 0, 1
