0, 0, 0, 835, 13, 0, 27, 6, 4
2, 0, 0, 910, 10, 0, 4, 6, 4
5, 0, 0, 1131, 7, 0, 0, 0, 4
7, 0, 0, 1144, 9, 0, 0, 6, 4
9, 0, 0, 1192, 8, 0, 0, 6, 4
11, 0, 0, 1194, 9, 0, 0, 0, 4
13, 0, 0, 1192, 8, 0, 0, 6, 4
15, 0, 0, 1194, 8, 0, 0, 0, 4
