3, 2, 0, 2248, 52, 0, 12, 6, 3
4, 2, 0, 2267, 56, 0, 0, 0, 3
6, 2, 0, 2417, 55, 0, 0, 0, 1
10, 2, 0, 2412, 46, 0, -4, 6, 2
12, 2, 0, 2398, 50, 0, 0, 0, 3
14, 2, 0, 2364, 45, 0, -12, 6, 2
16, 2, 0, 2417, 44, 0, 0, 0, 2
16, 2, 1, 2361, 44, 0, 0, 0, 2
