1, 3, 0, 2917, 32, 0, 0, 0, 2
2, 3, 0, 2980, 32, 0, 4, 6, 2
5, 2, 0, 3202, 34, 0, 0, 0, 2
7, 2, 0, 3216, 32, 0, 0, 6, 2
9, 2, 0, 3256, 31, 0, 0, 6, 2
11, 2, 0, 3265, 32, 0, 0, 0, 2
13, 2, 0, 3280, 31, 0, -4, 6, 2
16, 4, 0, 3279, 35, 0, 0, 0, 2
