1, 4, 0, 3247, 40, 0, 0, 0, 2
2, 4, 0, 3286, 37, 0, 4, 6, 2
5, 2, 0, 3582, 40, 0, 0, 0, 2
7, 2, 0, 3608, 38, 0, 0, 6, 2
9, 2, 0, 3616, 39, 0, 0, 6, 2
12, 4, 0, 3608, 41, 0, 0, 0, 2
14, 4, 0, 3584, 39, 0, 0, 6, 2
16, 4, 0, 3580, 44, 0, 0, 0, 2
