0, 1, 0, 1860, 12, 0, -29, 6, 4
2, 1, 0, 1690, 12, 0, -4, 6, 4
5, 1, 0, 1387, 13, 0, 0, 0, 4
7, 1, 0, 1376, 13, 0, 0, 6, 4
9, 0, 0, 1320, 12, 0, 0, 6, 4
9, 1, 0, 1320, 13, 0, -4, 6, 4
13, 0, 0, 1320, 13, 0, 0, 6, 4
13, 1, 0, 1320, 13, 0, 0, 6, 4
