1, 1, 0, 1701, 32, 0, 0, 0, 2
2, 1, 0, 1744, 31, 0, 0, 6, 2
5, 1, 0, 1892, 34, 0, 0, 0, 2
5, 1, 1, 1877, 34, 0, 0, 0, 2
7, 1, 0, 1912, 32, 0, 4, 6, 2
9, 1, 0, 1944, 32, 0, 0, 6, 2
11, 1, 0, 1945, 33, 0, 0, 0, 2
13, 1, 0, 1960, 32, 0, 0, 6, 2
16, 2, 0, 1976, 35, 0, 0, 0, 2
