0, 2, 0, 2145, 18, 0, -21, 6, 4
1, 2, 0, 2110, 18, 0, 0, 0, 4
2, 2, 0, 2083, 16, 0, 0, 6, 4
5, 1, 0, 1895, 18, 0, 0, 0, 4
7, 1, 0, 1872, 17, 0, 0, 6, 4
11, 1, 0, 1826, 17, 0, 0, 0, 4
13, 1, 0, 1816, 17, 0, 0, 6, 4
15, 1, 0, 1813, 18, 0, 0, 0, 4
