1, 2, 0, 2415, 35, 0, 0, 0, 2
5, 1, 0, 2444, 35, 0, 0, 0, 2
7, 1, 0, 2448, 34, 0, 0, 6, 2
9, 1, 0, 2448, 35, 0, 0, 6, 2
11, 1, 0, 2458, 35, 0, 0, 0, 2
15, 1, 0, 2428, 29, 0, 0, 0, 2
16, 2, 0, 2445, 35, 0, 0, 0, 2
