1, 2, 0, 1979, 35, 0, 0, 0, 2
2, 1, 0, 1907, 33, 0, -4, 6, 2
2, 2, 0, 1948, 33, 0, -4, 6, 2
5, 1, 0, 1689, 34, 0, 0, 0, 2
7, 1, 0, 1656, 33, 0, 0, 6, 2
9, 1, 0, 1616, 33, 0, -4, 6, 2
11, 1, 0, 1612, 33, 0, 0, 0, 2
13, 1, 0, 1600, 33, 0, 0, 6, 2
16, 1, 0, 1592, 35, 0, 0, 0, 2
