0, 3, 0, 3910, 22, 0, 1, 5, 4
1, 5, 0, 3912, 21, 0, 0, 0, 4
2, 5, 0, 3917, 20, 0, 0, 6, 4
5, 3, 0, 3927, 19, 0, 0, 0, 4
7, 3, 0, 3920, 20, 0, 0, 6, 4
9, 3, 0, 3928, 20, 0, -4, 6, 4
13, 3, 0, 3936, 20, 0, -4, 6, 4
15, 3, 0, 3943, 20, 0, 0, 0, 4
