1, 0, 0, 796, 35, 0, 0, 0, 2
2, 0, 0, 855, 33, 0, 8, 6, 2
5, 0, 0, 1309, 30, 0, 0, 0, 2
5, 1, 0, 1308, 30, 0, 0, 0, 2
7, 0, 0, 1312, 30, 0, 4, 6, 2
7, 1, 0, 1312, 30, 0, 0, 6, 2
9, 0, 0, 1208, 28, 0, -8, 6, 2
11, 0, 0, 1078, 26, 0, 0, 0, 2
15, 0, 0, 827, 26, 0, 0, 0, 2
