0, 2, 0, 2218, 23, 0, -10, 4, 4
1, 2, 0, 2203, 21, 0, 0, 0, 4
2, 2, 0, 2193, 21, 0, -4, 6, 4
5, 1, 0, 2107, 23, 0, 0, 0, 6
7, 1, 0, 2104, 22, 0, 0, 6, 4
9, 1, 0, 2104, 22, 0, 0, 6, 4
11, 1, 0, 2103, 23, 0, 0, 0, 6
13, 1, 0, 2112, 23, 0, 0, 6, 6
15, 1, 0, 2115, 23, 0, 0, 0, 6
