3, 3, 0, 2520, 76, 0, -4, 6, 1
6, 2, 0, 2483, 78, 0, 0, 0, 1
8, 2, 0, 2468, 76, 0, 0, 6, 1
10, 2, 0, 2468, 77, 0, 0, 6, 1
12, 2, 0, 2473, 82, 0, 0, 0, 1
14, 2, 0, 2504, 78, 0, 4, 6, 1
16, 2, 0, 2511, 74, 0, 0, 0, 1
