0, 3, 0, 3906, 22, 0, 3, 6, 4
2, 5, 0, 3916, 18, 0, 4, 6, 4
5, 3, 0, 3942, 19, 0, 0, 0, 4
7, 3, 0, 3944, 18, 0, 0, 6, 4
9, 3, 0, 3936, 18, 0, 0, 6, 4
11, 3, 0, 3945, 18, 0, 0, 0, 4
13, 3, 0, 3944, 18, 0, 4, 6, 4
15, 3, 0, 3943, 19, 0, 0, 0, 4
