3, 1, 0, 1428, 65, 0, 8, 6, 1
4, 1, 0, 1451, 68, 0, 0, 0, 1
6, 1, 0, 1470, 66, 0, 0, 0, 1
10, 0, 0, 1288, 60, 0, -12, 6, 1
12, 0, 0, 1245, 60, 0, 0, 0, 1
14, 0, 0, 1096, 61, 0, -8, 6, 1
16, 0, 0, 1048, 64, 0, 0, 0, 1
