0, 2, 0, 2649, 12, 0, -23, 6, 4
2, 3, 0, 2544, 9, 0, -4, 6, 4
5, 1, 0, 2326, 13, 0, 0, 0, 4
7, 1, 0, 2304, 10, 0, 0, 6, 4
9, 1, 0, 2224, 11, 0, 0, 6, 4
11, 1, 0, 2215, 12, 0, 0, 0, 4
13, 1, 0, 2200, 12, 0, 0, 6, 4
15, 1, 0, 2202, 12, 0, 0, 0, 4
