3, 5, 0, 3968, 67, 0, 8, 6, 1
4, 5, 0, 3982, 68, 0, 0, 0, 1
6, 5, 0, 4020, 66, 0, 0, 0, 1
8, 5, 0, 4020, 63, 0, -4, 6, 1
10, 5, 0, 3956, 61, 0, -8, 6, 1
12, 5, 0, 3898, 60, 0, 0, 0, 1
14, 5, 0, 3840, 60, 0, -4, 6, 1
16, 5, 0, 3767, 64, 0, 0, 0, 1
