1, 0, 0, 968, 30, 0, 0, 0, 2
2, 0, 0, 1013, 30, 0, 4, 6, 2
5, 0, 0, 1335, 30, 0, 0, 0, 2
5, 1, 0, 1336, 30, 0, 0, 0, 2
7, 0, 0, 1336, 30, 0, 0, 6, 2
7, 1, 0, 1336, 29, 0, 0, 6, 2
9, 0, 0, 1256, 29, 0, -4, 6, 2
11, 0, 0, 1233, 30, 0, 0, 0, 2
13, 0, 0, 1160, 29, 0, -4, 6, 2
15, 0, 0, 1141, 30, 0, 0, 0, 2
