3, 5, 0, 3800, 57, 0, -12, 6, 1
4, 5, 0, 3776, 53, 0, 0, 0, 3
6, 4, 0, 3683, 56, 0, 0, 0, 1
8, 4, 0, 3656, 55, 0, -4, 6, 1
10, 4, 0, 3608, 53, 0, 0, 6, 3
12, 4, 0, 3617, 50, 0, 0, 0, 3
14, 4, 0, 3624, 51, 0, 0, 6, 3
16, 4, 0, 3645, 54, 0, 0, 0, 3
