0, 1, 0, 2077, 17, 0, -7, 6, 4
1, 2, 0, 2064, 18, 0, 0, 0, 4
2, 2, 0, 2057, 15, 0, -4, 6, 4
5, 1, 0, 1982, 18, 0, 0, 0, 4
7, 1, 0, 1976, 15, 0, 0, 6, 4
9, 1, 0, 1968, 16, 0, 0, 6, 4
11, 1, 0, 1964, 16, 0, 0, 0, 4
13, 1, 0, 1968, 16, 0, 0, 6, 4
15, 1, 0, 1970, 16, 0, 0, 0, 4
