3, 2, 0, 2248, 67, 0, -4, 6, 1
4, 2, 0, 2229, 71, 0, 0, 0, 1
6, 2, 0, 2182, 66, 0, 0, 0, 1
8, 2, 0, 2172, 66, 0, 0, 6, 1
10, 2, 0, 2164, 66, 0, 0, 6, 1
12, 2, 0, 2173, 71, 0, 0, 0, 1
14, 2, 0, 2168, 66, 0, 0, 6, 1
16, 2, 0, 2173, 64, 0, 0, 0, 1
