1, 0, 0, 1299, 30, 0, 0, 0, 2
2, 1, 0, 1419, 29, 0, 8, 6, 2
5, 1, 0, 1643, 24, 0, 0, 0, 6
9, 0, 0, 1256, 23, 0, -12, 6, 6
11, 0, 0, 1090, 24, 0, 0, 0, 6
13, 0, 0, 912, 24, 0, -12, 6, 6
15, 0, 0, 701, 24, 0, 0, 0, 6
