1, 4, 0, 3339, 40, 0, 0, 0, 2
2, 4, 0, 3377, 39, 0, 4, 6, 2
5, 2, 0, 3701, 41, 0, 0, 0, 2
5, 3, 0, 3701, 41, 0, 0, 0, 2
7, 2, 0, 3720, 38, 0, 0, 6, 2
7, 3, 0, 3712, 38, 0, 0, 6, 2
9, 2, 0, 3721, 37, 0, 0, 6, 2
9, 3, 0, 3704, 37, 0, 0, 6, 2
12, 4, 0, 3692, 41, 0, 0, 0, 2
16, 4, 0, 3655, 35, 0, 0, 0, 2
