1, 1, 0, 1415, 33, 0, 0, 0, 2
2, 1, 0, 1419, 30, 0, 0, 6, 2
5, 1, 0, 1435, 30, 0, 0, 0, 2
7, 1, 0, 1440, 30, 0, 0, 6, 2
9, 1, 0, 1440, 30, 0, 0, 6, 2
11, 1, 0, 1438, 31, 0, 0, 0, 2
13, 1, 0, 1440, 30, 0, 0, 6, 2
