1, 6, 0, 4561, 51, 0, 0, 0, 2
2, 6, 0, 4582, 48, 0, 4, 6, 2
4, 6, 0, 4686, 56, 0, 0, 0, 3
5, 3, 0, 4731, 45, 0, 0, 0, 2
10, 6, 0, 4712, 46, 0, 0, 6, 2
14, 6, 0, 4692, 46, 0, 0, 6, 2
16, 6, 0, 4695, 44, 0, 0, 0, 2
