1, 5, 0, 4033, 42, 0, 0, 0, 2
2, 5, 0, 4093, 42, 0, 4, 6, 2
4, 5, 0, 4029, 53, 0, 0, 0, 3
5, 3, 0, 4285, 45, 0, 0, 0, 2
7, 3, 0, 4288, 43, 0, -4, 6, 2
12, 5, 0, 4273, 41, 0, 0, 0, 2
14, 5, 0, 4276, 44, 0, 0, 6, 2
16, 5, 0, 4273, 44, 0, 0, 0, 2
