3, 4, 0, 3568, 53, 0, -4, 6, 3
4, 4, 0, 3561, 56, 0, 0, 0, 3
6, 4, 0, 3476, 55, 0, 0, 0, 1
10, 4, 0, 3420, 52, 0, -4, 6, 3
12, 4, 0, 3411, 50, 0, 0, 0, 3
14, 4, 0, 3408, 53, 0, 4, 6, 3
16, 4, 0, 3411, 53, 0, 0, 0, 3
