5, 0, 0, 564, 7, 0, 0, 0, 4
7, 0, 0, 552, 7, 0, 0, 6, 4
9, 0, 0, 504, 7, 0, 0, 6, 4
11, 0, 0, 501, 8, 0, 0, 0, 4
11, 0, 1, 289, 7, 0, 0, 0, 4
13, 0, 0, 480, 7, 0, 0, 6, 4
15, 0, 0, 482, 7, 0, 0, 0, 4
