3, 0, 0, 1032, 52, 0, 12, 6, 3
4, 0, 0, 1048, 56, 0, 0, 0, 3
6, 0, 0, 1217, 55, 0, 0, 0, 1
10, 0, 0, 1208, 47, 0, 0, 6, 2
12, 0, 0, 1198, 50, 0, 0, 0, 3
14, 0, 0, 1192, 45, 0, 0, 6, 2
16, 0, 0, 1189, 44, 0, 0, 0, 2
