0, 1, 0, 1525, 12, 0, -7, 6, 4
5, 1, 0, 1443, 13, 0, 0, 0, 4
5, 1, 1, 1429, 13, 0, 0, 0, 4
7, 1, 0, 1424, 12, 10, 0, 6, 4
7, 1, 1, 1424, 12, 10, 0, 6, 4
9, 1, 0, 1400, 12, 0, 0, 6, 4
11, 1, 0, 1390, 12, 0, 0, 0, 4
13, 1, 0, 1392, 12, 0, 0, 6, 4
15, 1, 0, 1390, 12, 0, 0, 0, 4
