2, 4, 0, 3199, 50, 0, 15, 6, 2
4, 4, 0, 3599, 56, 0, 0, 0, 3
5, 3, 0, 3764, 46, 0, 0, 0, 2
7, 2, 0, 3744, 42, 0, 0, 6, 2
7, 3, 0, 3760, 43, 0, 0, 6, 2
9, 2, 0, 3592, 40, 0, -12, 6, 2
12, 4, 0, 3411, 41, 0, 0, 0, 2
16, 3, 0, 2998, 35, 0, 0, 0, 2
