1, 3, 0, 2647, 47, 0, 0, 0, 2
2, 3, 0, 2639, 46, 0, 0, 6, 2
3, 3, 0, 2624, 47, 0, 0, 6, 2
4, 3, 0, 2632, 53, 0, 0, 0, 3
10, 3, 0, 2612, 47, 0, 0, 6, 2
12, 3, 0, 2604, 50, 0, 0, 0, 3
14, 3, 0, 2612, 47, 0, 0, 6, 2
16, 3, 0, 2604, 44, 0, 0, 0, 2
