3, 5, 0, 4108, 61, 0, -4, 6, 1
4, 5, 0, 4086, 53, 0, 0, 0, 3
6, 5, 0, 4039, 66, 0, 0, 0, 1
8, 5, 0, 4028, 60, 0, -4, 6, 1
10, 5, 0, 4020, 59, 0, 0, 6, 1
12, 5, 0, 4020, 60, 0, 0, 0, 1
14, 5, 0, 4040, 59, 0, 4, 6, 1
16, 5, 0, 4058, 63, 0, 0, 0, 1
