0, 3, 0, 4481, 23, 0, 1, 6, 4
1, 6, 0, 4483, 21, 0, 0, 0, 4
2, 6, 0, 4486, 20, 0, 0, 6, 4
5, 3, 0, 4501, 23, 0, 0, 0, 6
5, 3, 1, 4488, 23, 0, 0, 0, 6
9, 3, 0, 4496, 21, 21, 0, 6, 4
9, 3, 1, 4496, 21, 21, 0, 6, 4
13, 3, 0, 4504, 21, 0, 0, 6, 4
15, 3, 0, 4503, 21, 0, 0, 0, 4
