3, 5, 0, 4223, 84, 82, 0, 6, 1
3, 5, 1, 4167, 84, 82, -12, 6, 1
4, 5, 0, 4124, 79, 0, 0, 0, 1
8, 5, 0, 4223, 83, 0, 0, 6, 1
10, 5, 0, 4223, 84, 0, 0, 6, 1
14, 5, 0, 4224, 83, 0, 4, 6, 1
16, 5, 0, 4217, 83, 0, 0, 0, 1
