1, 2, 0, 2152, 40, 0, 0, 0, 2
2, 2, 0, 2197, 37, 0, 8, 6, 2
7, 1, 0, 2520, 37, 0, 4, 6, 2
7, 2, 0, 2528, 37, 0, 0, 6, 2
9, 1, 0, 2536, 37, 0, 0, 6, 2
9, 2, 0, 2536, 37, 0, 0, 6, 2
12, 3, 0, 2529, 41, 0, 0, 0, 2
16, 2, 0, 2501, 35, 0, 0, 0, 2
