5, 0, 0, 502, 18, 0, 0, 0, 4
7, 0, 0, 512, 18, 0, 4, 6, 4
9, 0, 0, 536, 18, 0, 0, 6, 4
11, 0, 0, 532, 19, 0, 0, 0, 4
13, 0, 0, 520, 18, 19, 0, 6, 4
13, 0, 1, 520, 18, 19, 0, 6, 4
15, 0, 0, 512, 18, 0, 0, 0, 4
