0, 3, 0, 4471, 8, 0, -2, 6, 4
0, 3, 1, 4470, 8, 0, 36, 4, 4
2, 6, 0, 4470, 4, 0, -4, 6, 4
5, 3, 0, 4453, 7, 0, 0, 0, 4
7, 3, 0, 4448, 7, 0, 0, 6, 4
9, 3, 0, 4448, 7, 0, 0, 6, 4
11, 3, 0, 4452, 7, 0, 0, 0, 4
15, 3, 0, 4445, 7, 0, 0, 0, 4
