1, 0, 0, 850, 30, 0, 0, 0, 2
2, 0, 0, 824, 30, 0, -4, 6, 2
5, 0, 0, 636, 29, 0, 0, 0, 2
7, 0, 0, 632, 29, 0, 0, 6, 2
9, 0, 0, 648, 29, 0, 4, 6, 2
11, 0, 0, 663, 28, 0, 0, 0, 2
13, 0, 0, 680, 29, 0, 0, 6, 2
15, 0, 0, 669, 29, 0, 0, 0, 2
