0, 3, 0, 4414, 8, 0, 2, 6, 4
2, 6, 0, 4424, 5, 0, 0, 6, 4
5, 3, 0, 4447, 7, 0, 0, 0, 4
7, 3, 0, 4448, 7, 0, 0, 6, 4
9, 3, 0, 4456, 7, 0, 0, 6, 4
11, 3, 0, 4458, 8, 0, 0, 0, 4
13, 3, 0, 4456, 6, 7, 4, 6, 4
13, 3, 1, 4520, 6, 7, 12, 6, 4
15, 3, 0, 4608, 6, 0, 0, 0, 4
15, 3, 1, 4445, 8, 0, 0, 0, 4
