0, 1, 0, 1791, 22, 0, -12, 6, 4
1, 1, 0, 1795, 17, 0, 0, 0, 4
1, 1, 1, 1771, 17, 0, 0, 0, 4
2, 1, 0, 1739, 18, 0, 0, 6, 4
5, 1, 0, 1630, 19, 0, 0, 0, 4
5, 1, 1, 1641, 19, 0, 0, 0, 4
7, 1, 0, 1616, 17, 0, 0, 6, 4
9, 1, 0, 1568, 17, 0, 0, 6, 4
11, 0, 0, 1213, 5, 0, 0, 0, 4
11, 1, 0, 1570, 17, 0, 0, 0, 4
13, 1, 0, 1544, 17, 0, 0, 6, 4
15, 1, 0, 1543, 17, 0, 0, 0, 4
