1, 0, 0, 1223, 35, 0, 0, 0, 2
2, 0, 0, 1262, 31, 0, 8, 6, 2
2, 0, 1, 1307, 32, 0, 12, 6, 2
2, 1, 0, 1322, 32, 29, 4, 6, 2
2, 1, 1, 1368, 33, 29, -4, 6, 2
5, 1, 0, 1610, 30, 0, 0, 0, 2
7, 1, 0, 1624, 31, 0, -4, 6, 2
9, 1, 0, 1616, 30, 0, -4, 6, 2
11, 1, 0, 1618, 30, 0, 0, 0, 2
15, 1, 0, 1543, 30, 0, 0, 0, 2
