0, 2, 0, 2258, 23, 0, -19, 6, 4
1, 2, 0, 2226, 18, 0, 0, 0, 4
2, 2, 0, 2203, 19, 0, -4, 6, 4
5, 1, 0, 1997, 18, 0, 0, 0, 4
7, 1, 0, 1992, 18, 0, 0, 6, 4
9, 1, 0, 2024, 17, 0, 0, 6, 4
11, 1, 0, 2039, 17, 0, 0, 0, 4
13, 1, 0, 2064, 16, 0, 4, 6, 4
15, 1, 0, 2090, 16, 0, 0, 0, 4
