1, 5, 0, 4039, 37, 0, 0, 0, 2
1, 5, 1, 4006, 37, 0, 0, 0, 2
2, 5, 0, 4089, 35, 0, 4, 6, 2
5, 3, 0, 4317, 34, 0, 0, 0, 2
5, 3, 1, 4302, 34, 0, 0, 0, 2
9, 3, 0, 4320, 33, 0, 0, 6, 2
11, 3, 0, 4307, 33, 0, 0, 0, 2
13, 3, 0, 4296, 32, 0, 0, 6, 2
16, 5, 0, 4264, 35, 0, 0, 0, 2
