0, 1, 0, 1013, 23, 0, -40, 4, 4
1, 0, 0, 947, 21, 0, 0, 0, 4
2, 0, 0, 895, 20, 0, -4, 6, 4
5, 0, 0, 410, 19, 0, 0, 0, 4
7, 0, 0, 376, 20, 0, -4, 6, 4
11, 0, 0, 227, 20, 0, 0, 0, 4
13, 0, 0, 200, 19, 0, -4, 6, 4
15, 0, 0, 201, 19, 0, 0, 0, 4
