3, 6, 0, 4568, 74, 0, 4, 6, 1
4, 6, 0, 4573, 71, 0, 0, 0, 1
6, 6, 0, 4639, 78, 0, 0, 0, 1
8, 6, 0, 4636, 72, 0, 0, 6, 1
10, 6, 0, 4620, 71, 0, -4, 6, 1
12, 6, 0, 4611, 71, 0, 0, 0, 1
14, 6, 0, 4584, 71, 0, 0, 6, 1
16, 6, 0, 4582, 74, 0, 0, 0, 1
