1, 0, 0, 1136, 51, 0, 0, 0, 2
2, 0, 0, 1144, 50, 0, 4, 6, 2
3, 0, 0, 1192, 51, 0, 0, 6, 2
4, 0, 0, 1199, 56, 0, 0, 0, 3
6, 0, 0, 1217, 55, 0, 0, 0, 1
10, 0, 0, 1236, 51, 0, 0, 6, 3
12, 0, 0, 1245, 50, 0, 0, 0, 3
