1, 1, 0, 1701, 47, 0, 0, 0, 2
1, 1, 1, 1731, 42, 0, 0, 0, 2
2, 1, 0, 1765, 44, 0, 4, 6, 2
5, 1, 0, 1935, 45, 0, 0, 0, 2
7, 1, 0, 1944, 44, 0, 0, 6, 2
10, 2, 0, 1956, 44, 0, 0, 6, 2
12, 2, 0, 1967, 41, 0, 0, 0, 2
14, 2, 0, 1932, 45, 0, -4, 6, 2
