0, 1, 0, 2081, 13, 0, -13, 6, 4
2, 2, 0, 2043, 10, 0, -4, 6, 4
5, 1, 0, 1895, 12, 0, 0, 0, 4
7, 1, 0, 1888, 11, 0, 0, 6, 4
9, 1, 0, 1872, 10, 0, 0, 6, 4
11, 1, 0, 1876, 11, 0, 0, 0, 4
13, 1, 0, 1888, 10, 0, 0, 6, 4
15, 1, 0, 1895, 11, 0, 0, 0, 4
