0, 3, 0, 3885, 8, 0, 7, 6, 4
2, 5, 0, 3930, 6, 0, 0, 6, 4
5, 3, 0, 3982, 7, 0, 0, 0, 4
7, 3, 0, 3984, 7, 0, 0, 6, 4
9, 3, 0, 4000, 7, 0, 0, 6, 4
11, 3, 0, 3994, 7, 0, 0, 0, 4
13, 3, 0, 4008, 7, 0, 0, 6, 4
15, 3, 0, 4013, 7, 0, 0, 0, 4
