0, 1, 0, 1768, 8, 0, -19, 6, 4
2, 1, 0, 1670, 8, 0, 0, 6, 4
5, 1, 0, 1485, 7, 0, 0, 0, 4
7, 1, 0, 1480, 8, 0, -4, 6, 4
9, 1, 0, 1432, 7, 0, 0, 6, 4
11, 1, 0, 1427, 7, 0, 0, 0, 4
13, 1, 0, 1400, 6, 0, 0, 6, 4
15, 1, 0, 1403, 7, 0, 0, 0, 4
