0, 1, 0, 1498, 12, 0, -2, 6, 4
2, 1, 0, 1483, 12, 0, 0, 6, 4
5, 1, 0, 1464, 13, 0, 0, 0, 4
7, 1, 0, 1464, 13, 0, 0, 6, 4
9, 1, 0, 1448, 13, 0, 0, 6, 4
11, 1, 0, 1451, 13, 0, 0, 0, 4
13, 1, 0, 1448, 13, 0, 0, 6, 4
15, 1, 0, 1451, 13, 0, 0, 0, 4
