0, 2, 0, 2370, 23, 0, -2, 6, 4
1, 2, 0, 2369, 21, 0, 0, 0, 4
2, 2, 0, 2372, 20, 0, 0, 6, 4
5, 1, 0, 2358, 19, 0, 0, 0, 4
9, 1, 0, 2352, 20, 0, 0, 6, 4
11, 1, 0, 2357, 20, 0, 0, 0, 4
13, 1, 0, 2352, 21, 0, 0, 6, 4
15, 1, 0, 2353, 20, 0, 0, 0, 4
