1, 2, 0, 2053, 40, 0, 0, 0, 2
2, 2, 0, 2070, 36, 0, 4, 6, 2
5, 1, 0, 2231, 40, 0, 0, 0, 2
7, 1, 0, 2240, 38, 0, 0, 6, 2
9, 1, 0, 2248, 37, 0, 0, 6, 2
12, 2, 0, 2248, 41, 0, 0, 0, 2
16, 2, 0, 2248, 35, 0, 0, 0, 2
