0, 3, 0, 4367, 8, 0, 19, 6, 4
2, 6, 0, 4430, 4, 0, 0, 6, 4
5, 3, 0, 4614, 7, 0, 0, 0, 4
7, 3, 0, 4624, 6, 0, 0, 6, 4
11, 3, 0, 4664, 5, 0, 0, 0, 4
11, 3, 1, 4395, 4, 0, 0, 0, 4
15, 3, 0, 4645, 5, 0, 0, 0, 4
