1, 1, 0, 1642, 32, 0, 0, 0, 2
2, 1, 0, 1562, 31, 0, -4, 6, 2
5, 0, 0, 1336, 30, 0, 0, 0, 2
5, 1, 0, 1336, 30, 0, 0, 0, 2
7, 0, 0, 1328, 31, 0, 0, 6, 2
7, 1, 0, 1328, 31, 0, 0, 6, 2
9, 1, 0, 1368, 31, 0, 0, 6, 2
11, 1, 0, 1376, 32, 0, 0, 0, 2
13, 1, 0, 1432, 31, 0, 0, 6, 2
16, 1, 0, 1442, 35, 0, 0, 0, 2
