1, 0, 0, 1045, 30, 0, 0, 0, 2
2, 0, 0, 1028, 27, 0, -4, 6, 2
5, 0, 0, 869, 29, 0, 0, 0, 2
7, 0, 0, 856, 27, 0, 0, 6, 2
9, 0, 0, 856, 28, 0, 0, 6, 2
11, 0, 0, 865, 28, 0, 0, 0, 2
13, 0, 0, 880, 28, 0, 0, 6, 2
15, 0, 0, 897, 28, 0, 0, 0, 2
