0, 2, 0, 2440, 17, 0, 9, 6, 4
2, 2, 0, 2470, 12, 0, 0, 6, 4
5, 2, 0, 2582, 13, 0, 0, 0, 4
7, 2, 0, 2584, 13, 11, 0, 6, 4
7, 2, 1, 2584, 13, 11, 0, 6, 4
9, 2, 0, 2616, 13, 0, 0, 6, 4
11, 2, 0, 2614, 14, 0, 0, 0, 4
13, 2, 0, 2624, 13, 0, 0, 6, 4
15, 2, 0, 2627, 13, 0, 0, 0, 4
