1, 0, 0, 861, 40, 0, 0, 0, 2
2, 0, 0, 804, 37, 0, -8, 6, 2
5, 0, 0, 438, 34, 0, 0, 0, 2
7, 0, 0, 440, 32, 0, 0, 6, 2
9, 0, 0, 480, 29, 0, 4, 6, 2
11, 0, 0, 531, 28, 0, 0, 0, 2
13, 0, 0, 624, 27, 0, 4, 6, 2
15, 0, 0, 701, 27, 0, 0, 0, 2
