2, 4, 0, 3331, 49, 0, -4, 6, 2
3, 3, 0, 3120, 49, 0, -8, 6, 2
3, 4, 0, 3160, 49, 0, -8, 6, 2
4, 3, 0, 3083, 53, 0, 0, 0, 3
4, 4, 0, 3157, 56, 0, 0, 0, 3
10, 3, 0, 3016, 48, 0, 0, 6, 2
12, 3, 0, 3017, 50, 0, 0, 0, 3
14, 3, 0, 3024, 47, 0, 0, 6, 2
16, 3, 0, 3027, 44, 0, 0, 0, 2
