0, 3, 0, 3876, 17, 0, 2, 6, 4
2, 5, 0, 3883, 14, 0, 0, 6, 4
7, 3, 0, 3888, 15, 0, 0, 6, 4
9, 3, 0, 3888, 15, 0, 0, 6, 4
11, 3, 0, 3888, 16, 0, 0, 0, 4
13, 3, 0, 3888, 15, 0, 0, 6, 4
15, 3, 0, 3887, 15, 0, 0, 0, 4
