0, 3, 0, 4353, 12, 0, 32, 6, 4
2, 6, 0, 4437, 9, 0, 4, 6, 4
5, 3, 0, 4685, 7, 0, 0, 0, 4
7, 3, 0, 4688, 9, 0, 0, 6, 4
9, 3, 0, 4704, 8, 0, 0, 6, 4
11, 3, 0, 4701, 8, 0, 0, 0, 4
13, 3, 0, 4696, 8, 0, -4, 6, 4
15, 3, 0, 4701, 8, 0, 0, 0, 4
