1, 3, 0, 2612, 33, 0, 0, 0, 2
2, 3, 0, 2614, 30, 0, 0, 6, 2
5, 2, 0, 2625, 30, 0, 0, 0, 2
7, 2, 0, 2624, 30, 0, 0, 6, 2
9, 2, 0, 2624, 30, 0, -4, 6, 2
11, 2, 0, 2625, 30, 0, 0, 0, 2
13, 2, 0, 2632, 30, 0, 0, 6, 2
