0, 0, 0, 840, 8, 0, 29, 6, 4
2, 0, 0, 923, 8, 0, 4, 6, 4
5, 0, 0, 1250, 8, 0, 0, 0, 4
7, 0, 0, 1280, 10, 0, 0, 6, 4
7, 1, 0, 1313, 10, 0, 4, 6, 4
9, 1, 0, 1392, 10, 0, 0, 6, 4
11, 1, 0, 1439, 11, 0, 0, 0, 4
13, 1, 0, 1480, 10, 0, 0, 6, 4
15, 1, 0, 1513, 11, 0, 0, 0, 4
