3, 0, 0, 1156, 63, 0, 8, 6, 1
4, 0, 0, 1180, 56, 0, 0, 0, 3
6, 0, 0, 1273, 66, 0, 0, 0, 1
8, 0, 0, 1288, 61, 0, 4, 6, 1
10, 0, 0, 1308, 61, 0, 0, 6, 1
10, 1, 0, 1316, 61, 0, 0, 6, 1
12, 0, 0, 1301, 60, 0, 0, 0, 1
12, 0, 1, 1208, 60, 0, 0, 0, 1
14, 0, 0, 1284, 61, 0, 0, 6, 1
16, 1, 0, 1423, 64, 0, 0, 0, 1
