0, 1, 0, 2065, 17, 0, -5, 6, 4
1, 2, 0, 2056, 18, 0, 0, 0, 4
2, 2, 0, 2050, 17, 0, 0, 6, 4
5, 1, 0, 1996, 18, 0, 0, 0, 4
7, 1, 0, 1992, 17, 0, 0, 6, 4
9, 1, 0, 1992, 17, 0, 0, 6, 4
11, 1, 0, 1989, 17, 0, 0, 0, 4
13, 1, 0, 1992, 17, 0, 0, 6, 4
15, 1, 0, 1989, 18, 0, 0, 0, 4
