0, 3, 0, 3984, 8, 0, 15, 5, 4
2, 5, 0, 4057, 5, 0, 0, 6, 4
5, 3, 0, 4197, 7, 0, 0, 0, 4
7, 3, 0, 4224, 5, 0, 0, 6, 4
11, 3, 0, 4477, 5, 0, 0, 0, 4
11, 3, 1, 4339, 5, 0, 0, 0, 4
15, 3, 0, 4289, 5, 0, 0, 0, 4
