0, 3, 0, 3978, 22, 0, 2, 6, 4
1, 5, 0, 3980, 21, 0, 0, 0, 4
2, 5, 0, 3988, 18, 0, 0, 6, 4
5, 3, 0, 4004, 18, 0, 0, 0, 4
7, 3, 0, 4008, 19, 0, 0, 6, 4
9, 3, 0, 4008, 19, 0, 0, 6, 4
11, 3, 0, 4013, 19, 0, 0, 0, 4
13, 3, 0, 4008, 19, 0, -4, 6, 4
15, 3, 0, 4012, 20, 0, 0, 0, 4
