1, 6, 0, 4784, 51, 0, 0, 0, 2
2, 6, 0, 4765, 49, 0, -4, 6, 2
3, 6, 0, 4696, 49, 51, 0, 6, 2
3, 6, 1, 4696, 49, 51, 0, 6, 2
4, 6, 0, 4686, 56, 0, 0, 0, 3
10, 6, 0, 4644, 49, 0, 0, 6, 2
12, 6, 0, 4648, 50, 0, 0, 0, 3
14, 6, 0, 4652, 49, 0, 4, 6, 2
16, 6, 0, 4648, 53, 0, 0, 0, 3
