0, 1, 0, 1678, 8, 0, 26, 6, 4
2, 1, 0, 1797, 8, 0, 4, 6, 4
5, 1, 0, 1997, 7, 0, 0, 0, 4
7, 1, 0, 2024, 7, 0, 0, 6, 4
9, 1, 0, 2056, 7, 0, 0, 6, 4
11, 1, 0, 2071, 7, 0, 0, 0, 4
13, 1, 0, 2064, 7, 0, 0, 6, 4
15, 1, 0, 2064, 7, 0, 0, 0, 4
