0, 2, 0, 3243, 17, 0, 1, 5, 4
1, 4, 0, 3239, 18, 0, 0, 0, 4
2, 4, 0, 3243, 17, 0, -4, 6, 4
5, 2, 0, 3235, 18, 0, 0, 0, 4
5, 2, 1, 3209, 18, 0, 0, 0, 4
7, 2, 0, 3232, 17, 0, -4, 6, 4
9, 2, 0, 3232, 17, 0, 4, 6, 4
13, 2, 0, 3232, 18, 0, 0, 6, 4
