1, 3, 0, 2830, 28, 0, 0, 0, 2
2, 3, 0, 2756, 27, 0, -4, 6, 2
5, 1, 0, 2543, 24, 0, 0, 0, 6
5, 2, 0, 2545, 24, 0, 0, 0, 6
7, 1, 0, 2512, 26, 0, 0, 6, 2
7, 2, 0, 2528, 26, 0, 0, 6, 2
9, 1, 0, 2504, 25, 0, 4, 6, 6
9, 2, 0, 2504, 25, 0, 0, 6, 6
11, 1, 0, 2512, 25, 0, 0, 0, 6
13, 1, 0, 2528, 25, 0, 0, 6, 6
