0, 4, 0, 4886, 17, 0, -21, 6, 4
2, 6, 0, 4823, 13, 0, 0, 6, 4
7, 3, 0, 4576, 12, 0, -4, 6, 4
9, 3, 0, 4560, 12, 0, 0, 6, 4
11, 3, 0, 4559, 11, 0, 0, 0, 4
13, 3, 0, 4560, 11, 12, 0, 6, 4
13, 3, 1, 4560, 11, 12, 0, 6, 4
15, 3, 0, 4577, 11, 0, 0, 0, 4
