22, 4624, 6, 0, -4, 6, 0, 4, 4, 0, 1,
40, 4408, 9, 0, -4, 6, 0, 4, 4, 0, 1,
58, 4384, 9, 0, 0, 6, 0, 4, 4, 0, 1,
76, 4424, 8, 0, 4, 6, 0, 4, 4, 0, 1,
148, 4445, 7, 0, 0, 0, 0, 4, 4, 0, 1,
166, 4402, 9, 0, 0, 0, 0, 4, 4, 0, 1,
184, 4458, 8, 0, 0, 0, 1, 4, 4, 0, 1,
226, 4671, 8, 0, -16, 6, 0, 4, 4, 0, 1