36, 1288, 40, 0, 0, 6, 0, 2, 4, 0, 1,
96, 1280, 39, 0, 0, 6, 0, 2, 4, 0, 1,
100, 1224, 36, 0, -4, 6, 0, 2, 4, 0, 1,
104, 1144, 33, 0, 0, 6, 0, 2, 4, 0, 1,
204, 1292, 41, 0, 0, 0, 0, 2, 4, 0, 1,
214, 1105, 35, 0, 0, 0, 1, 2, 4, 0, 1