36, 1432, 38, 0, 4, 6, 0, 2, 4, 0, 1,
54, 1440, 37, 0, -4, 6, 0, 2, 4, 0, 1,
90, 1002, 39, 0, 8, 6, 0, 2, 4, 0, 1,
144, 1414, 40, 0, 0, 0, 0, 2, 4, 0, 1,
168, 1404, 41, 0, 0, 0, 0, 2, 4, 0, 1,
198, 945, 40, 0, 0, 0, 0, 2, 4, 0, 1