18, 3656, 22, 0, -4, 6, 0, 4, 4, 0, 1,
38, 3536, 23, 0, 0, 6, 0, 6, 4, 0, 1,
56, 3544, 23, 0, 0, 6, 0, 6, 4, 0, 1,
74, 3568, 22, 0, 0, 6, 0, 4, 4, 0, 1,
126, 3674, 26, 0, 0, 0, 0, 6, 4, 0, 1,
146, 3518, 24, 0, 0, 0, 0, 6, 4, 0, 1,
147, 3531, 24, 0, 0, 0, 0, 6, 4, 0, 1,
164, 3552, 23, 0, 0, 0, 1, 6, 4, 0, 1,
166, 3777, 27, 0, 0, 0, 0, 2, 4, 0, 1,
182, 3566, 22, 0, 0, 0, 0, 4, 4, 0, 1,
222, 3697, 22, 0, -13, 5, 0, 4, 4, 0, 1