4, 2757, 16, 0, 4, 6, 0, 4, 4, 0, 1,
38, 2808, 17, 0, 0, 6, 0, 4, 4, 0, 1,
56, 2816, 17, 0, 0, 6, 0, 4, 4, 0, 1,
74, 2824, 17, 0, 0, 6, 0, 4, 4, 0, 1,
112, 2742, 17, 0, 0, 0, 0, 4, 4, 0, 1,
146, 2804, 19, 0, 0, 0, 0, 4, 4, 0, 1,
164, 2832, 18, 0, 0, 0, 1, 4, 4, 0, 1,
182, 2818, 17, 0, 0, 0, 1, 4, 4, 0, 1,
220, 2729, 17, 0, 6, 6, 0, 4, 4, 0, 1