4, 3083, 6, 0, 4, 6, 0, 4, 4, 0, 1,
38, 3200, 8, 0, 0, 6, 0, 4, 4, 0, 1,
56, 3224, 8, 0, 0, 6, 0, 4, 4, 0, 1,
74, 3216, 7, 0, -4, 6, 0, 4, 4, 0, 1,
146, 3181, 7, 0, 0, 0, 0, 4, 4, 0, 1,
164, 3214, 7, 0, 0, 0, -1, 4, 4, 0, 1,
182, 3202, 7, 0, 0, 0, 0, 4, 4, 0, 1,
220, 3034, 8, 0, 12, 6, 0, 4, 4, 0, 1