4, 2610, 6, 0, 4, 6, 0, 4, 4, 0, 1,
38, 2688, 6, 0, 0, 6, 0, 4, 4, 0, 1,
146, 2677, 7, 0, 0, 0, 0, 4, 4, 0, 1,
164, 2695, 7, 0, 0, 0, 0, 4, 4, 0, 1,
182, 2708, 7, 0, 0, 0, 0, 4, 4, 0, 1,
220, 2578, 8, 0, 7, 6, 0, 4, 4, 0, 1