20, 4137, 5, 0, 4, 6, 0, 4, 4, 0, 1,
40, 4144, 7, 0, 0, 6, 0, 4, 4, 0, 1,
41, 4240, 7, 0, -8, 6, 0, 4, 4, 0, 1,
58, 4136, 7, 0, 0, 6, 0, 4, 4, 0, 1,
76, 4120, 7, 0, 0, 6, 0, 4, 4, 0, 1,
148, 4148, 7, 0, 0, 0, 0, 4, 4, 0, 1,
149, 4133, 7, 0, 0, 0, 0, 4, 4, 0, 1,
166, 4119, 8, 0, 0, 0, -1, 4, 4, 0, 1,
184, 4113, 8, 0, 0, 0, 0, 4, 4, 0, 1,
224, 4119, 8, 0, 3, 6, 0, 4, 4, 0, 1