18, 3603, 18, 0, 0, 6, 0, 4, 4, 0, 1,
38, 3536, 19, 0, 0, 6, 0, 4, 4, 0, 1,
56, 3537, 19, 0, 0, 6, 0, 4, 4, 0, 1,
74, 3536, 19, 0, 4, 6, 0, 4, 4, 0, 1,
126, 3609, 21, 0, 0, 0, 0, 4, 4, 0, 1,
146, 3540, 19, 0, 0, 0, 0, 4, 4, 0, 1,
182, 3540, 19, 0, 0, 0, -1, 4, 4, 0, 1,
222, 3619, 23, 0, -6, 6, 0, 4, 4, 0, 1