2, 2350, 41, 0, 12, 6, 0, 2, 4, 0, 1,
38, 2768, 38, 0, 0, 6, 0, 2, 4, 0, 1,
56, 2752, 36, 0, 0, 6, 0, 2, 4, 0, 1,
110, 2292, 40, 0, 0, 0, 0, 2, 4, 0, 1,
146, 2755, 40, 0, 0, 0, 0, 2, 4, 0, 1,
190, 2688, 35, 0, 0, 0, 0, 2, 4, 0, 1