90, 1180, 31, 0, -12, 6, 0, 2, 4, 0, 1,
96, 760, 33, 0, -4, 6, 0, 2, 4, 0, 1,
100, 720, 33, 0, 0, 6, 0, 2, 4, 0, 1,
198, 1218, 35, 0, 0, 0, 0, 2, 4, 0, 1,
199, 1237, 35, 0, 0, 0, 0, 2, 4, 0, 1,
204, 778, 34, 0, 0, 0, 0, 2, 4, 0, 1,
208, 720, 34, 0, 0, 0, 0, 2, 4, 0, 1,
214, 795, 35, 0, 0, 0, -1, 2, 4, 0, 1