2, 1950, 10, 0, 0, 6, 0, 4, 4, 0, 1,
36, 1800, 10, 0, -4, 6, 0, 4, 4, 0, 1,
54, 1744, 9, 0, 0, 6, 0, 4, 4, 0, 1,
72, 1720, 10, 0, 0, 6, 0, 4, 4, 0, 1,
144, 1808, 12, 0, 0, 0, 0, 4, 4, 0, 1,
162, 1738, 10, 0, 0, 0, 1, 4, 4, 0, 1,
180, 1713, 10, 0, 0, 0, 1, 4, 4, 0, 1,
218, 1981, 12, 0, -9, 6, 0, 4, 4, 0, 1