20, 4190, 44, 0, -8, 6, 0, 2, 4, 0, 1,
40, 3784, 41, 0, 0, 6, 0, 2, 4, 0, 1,
58, 3840, 39, 0, 4, 6, 0, 2, 4, 0, 1,
128, 4315, 47, 0, 0, 0, 0, 2, 4, 0, 1,
130, 4322, 46, 0, 0, 0, 0, 2, 4, 0, 1,
134, 3898, 53, 0, 0, 0, 1, 3, 4, 0, 1,
148, 3806, 41, 0, 0, 0, 0, 2, 4, 0, 1,
176, 3926, 41, 0, 0, 0, 0, 2, 4, 0, 1,
194, 4067, 35, 0, 0, 0, -2, 2, 4, 0, 1