2, 2190, 14, 0, 4, 6, 0, 4, 4, 0, 1,
36, 2296, 15, 0, 0, 6, 0, 4, 4, 0, 1,
54, 2320, 15, 0, 0, 6, 0, 4, 4, 0, 1,
144, 2288, 13, 0, 0, 0, 0, 4, 4, 0, 1,
162, 2327, 15, 0, 0, 0, 0, 4, 4, 0, 1,
180, 2340, 15, 0, 0, 0, 0, 4, 4, 0, 1,
218, 2169, 18, 0, 7, 6, 0, 4, 4, 0, 1