24, 3568, 53, 0, -4, 6, 0, 3, 4, 0, 1,
66, 3420, 52, 0, -4, 6, 0, 3, 4, 0, 1,
84, 3408, 53, 0, 4, 6, 0, 3, 4, 0, 1,
132, 3561, 56, 0, 0, 0, 0, 3, 4, 0, 1,
156, 3476, 55, 0, 0, 0, -1, 1, 4, 0, 1,
174, 3411, 50, 0, 0, 0, 0, 3, 4, 0, 1,
192, 3411, 53, 0, 0, 0, 0, 3, 4, 0, 1