20, 4069, 13, 0, 0, 6, 0, 4, 4, 0, 1,
40, 4256, 14, 0, 0, 6, 0, 4, 4, 0, 1,
58, 4344, 14, 0, 4, 6, 0, 4, 4, 0, 1,
76, 4368, 14, 0, 0, 6, 0, 4, 4, 0, 1,
148, 4233, 12, 0, 0, 0, 0, 4, 4, 0, 1,
166, 4358, 15, 0, 0, 0, 0, 4, 4, 0, 1,
184, 4370, 15, 0, 0, 0, 0, 4, 4, 0, 1,
224, 3989, 17, 0, 17, 6, 0, 4, 4, 0, 1