0, 1765, 44, 0, 4, 6, 0, 2, 4, 0, 1,
36, 1944, 44, 0, 0, 6, 0, 2, 4, 0, 1,
62, 1956, 44, 0, 0, 6, 0, 2, 4, 0, 1,
80, 1932, 45, 0, -4, 6, 0, 2, 4, 0, 1,
108, 1701, 47, 0, 0, 0, 0, 2, 4, 0, 1,
109, 1731, 42, 0, 0, 0, 0, 2, 4, 0, 1,
144, 1935, 45, 0, 0, 0, 0, 2, 4, 0, 1,
170, 1967, 41, 0, 0, 0, -1, 2, 4, 0, 1