22, 4570, 13, 0, 0, 6, 0, 4, 4, 0, 1,
40, 4520, 15, 0, 0, 6, 0, 4, 4, 0, 1,
58, 4512, 15, 0, 0, 6, 0, 4, 4, 0, 1,
148, 4522, 12, 0, 0, 0, 0, 4, 4, 0, 1,
166, 4515, 15, 0, 0, 0, -2, 4, 4, 0, 1,
184, 4509, 15, 0, 0, 0, -1, 4, 4, 0, 1,
226, 4582, 18, 0, -5, 6, 0, 4, 4, 0, 1