4, 2697, 15, 0, 0, 6, 0, 4, 4, 0, 1,
38, 2720, 15, 13, 0, 6, 0, 4, 4, 0, 1,
39, 2720, 15, 13, 0, 6, 0, 4, 4, 0, 1,
56, 2728, 15, 0, 0, 6, 0, 4, 4, 0, 1,
74, 2728, 15, 0, 0, 6, 0, 4, 4, 0, 1,
112, 2693, 17, 0, 0, 0, 0, 4, 4, 0, 1,
164, 2719, 15, 0, 0, 0, 1, 4, 4, 0, 1,
182, 2725, 15, 0, 0, 0, 1, 4, 4, 0, 1,
220, 2688, 17, 0, 1, 6, 0, 4, 4, 0, 1