4, 2630, 19, 0, 0, 6, 0, 4, 4, 0, 1,
38, 2632, 20, 0, 0, 6, 0, 4, 4, 0, 1,
56, 2632, 20, 0, 0, 6, 0, 4, 4, 0, 1,
74, 2632, 20, 0, 4, 6, 0, 4, 4, 0, 1,
112, 2629, 21, 0, 0, 0, 0, 4, 4, 0, 1,
146, 2635, 19, 0, 0, 0, 0, 4, 4, 0, 1,
164, 2634, 20, 0, 0, 0, 0, 4, 4, 0, 1,
182, 2637, 20, 0, 0, 0, 1, 4, 4, 0, 1,
220, 2630, 22, 0, 0, 6, 0, 4, 4, 0, 1