0, 1485, 33, 0, 4, 6, 0, 2, 4, 0, 1,
36, 1640, 33, 0, 0, 6, 0, 2, 4, 0, 1,
54, 1624, 32, 0, 0, 6, 0, 2, 4, 0, 1,
108, 1433, 33, 0, 0, 0, 0, 2, 4, 0, 1,
144, 1635, 35, 0, 0, 0, 0, 2, 4, 0, 1,
162, 1612, 32, 0, 0, 0, 0, 2, 4, 0, 1