20, 4023, 25, 0, -4, 6, 0, 6, 4, 0, 1,
40, 3880, 26, 0, 0, 6, 0, 2, 4, 0, 1,
58, 3872, 26, 0, 4, 6, 0, 2, 4, 0, 1,
76, 3872, 26, 0, 0, 6, 0, 2, 4, 0, 1,
128, 4065, 28, 0, 0, 0, 0, 2, 4, 0, 1,
148, 3888, 24, 0, 0, 0, 0, 6, 4, 0, 1,
166, 3875, 26, 0, 0, 0, 0, 2, 4, 0, 1,
184, 3874, 26, 0, 0, 0, 1, 2, 4, 0, 1