24, 3116, 62, 0, -4, 6, 0, 1, 4, 0, 1,
46, 3068, 61, 0, 0, 6, 0, 1, 4, 0, 1,
64, 3064, 61, 0, 0, 6, 0, 1, 4, 0, 1,
82, 3068, 61, 0, 4, 6, 0, 1, 4, 0, 1,
154, 3073, 66, 0, 0, 0, 1, 1, 4, 0, 1,
172, 3064, 60, 0, 0, 0, 0, 1, 4, 0, 1,
190, 3073, 64, 0, 0, 0, -1, 1, 4, 0, 1