24, 3340, 57, 0, 4, 6, 0, 1, 4, 0, 1,
48, 3412, 56, 0, 0, 6, 0, 1, 4, 0, 1,
66, 3428, 55, 0, 4, 6, 0, 1, 4, 0, 1,
84, 3420, 55, 0, 0, 6, 0, 1, 4, 0, 1,
132, 3345, 56, 0, 0, 0, 0, 3, 4, 0, 1,
156, 3411, 55, 0, 0, 0, 0, 1, 4, 0, 1,
174, 3420, 60, 0, 0, 0, 1, 1, 4, 0, 1,
192, 3411, 53, 0, 0, 0, 0, 3, 4, 0, 1