10, 2704, 48, 0, -12, 6, 0, 2, 4, 0, 1,
36, 2520, 42, 0, -4, 6, 0, 2, 4, 0, 1,
38, 2504, 41, 0, 0, 6, 0, 2, 4, 0, 1,
74, 2904, 34, 0, 8, 6, 0, 2, 4, 0, 1,
144, 2527, 46, 0, 0, 0, 0, 2, 4, 0, 1,
190, 3073, 35, 0, 0, 0, 2, 2, 4, 0, 1