20, 4312, 33, 0, 0, 6, 0, 2, 4, 0, 1,
40, 4336, 33, 0, 0, 6, 0, 2, 4, 0, 1,
58, 4344, 33, 0, 0, 6, 0, 2, 4, 0, 1,
128, 4307, 33, 0, 0, 0, 0, 2, 4, 0, 1,
148, 4338, 34, 0, 0, 0, 0, 2, 4, 0, 1,
166, 4339, 33, 0, 0, 0, 0, 2, 4, 0, 1,
196, 4357, 35, 0, 0, 0, -1, 2, 4, 0, 1