18, 3169, 3, 0, 0, 6, 0, 0, 4, 0, 1,
38, 3120, 6, 0, 0, 6, 0, 4, 4, 0, 1,
56, 3104, 6, 0, 0, 6, 0, 4, 4, 0, 1,
146, 3125, 7, 0, 0, 0, 0, 4, 4, 0, 1,
164, 3107, 6, 0, 0, 0, 0, 4, 4, 0, 1,
182, 3101, 7, 0, 0, 0, 0, 4, 4, 0, 1,
222, 3187, 8, 0, -6, 6, 0, 4, 4, 0, 1