28, 4636, 62, 75, 4, 6, 0, 1, 4, 0, 1,
29, 4636, 62, 75, 4, 6, 0, 1, 4, 0, 1,
52, 4660, 55, 0, -12, 6, 0, 1, 4, 0, 1,
136, 4695, 82, 0, 0, 0, 2, 1, 4, 0, 1,
137, 4724, 56, 0, 0, 0, -1, 3, 4, 0, 1,
160, 4733, 55, 0, 0, 0, 0, 1, 4, 0, 1