22, 4581, 41, 0, -8, 6, 0, 2, 4, 0, 1,
40, 4168, 42, 0, 0, 6, 0, 2, 4, 0, 1,
88, 4572, 43, 0, 12, 6, 0, 2, 4, 0, 1,
130, 4630, 40, 0, 0, 0, 0, 2, 4, 0, 1,
148, 4171, 40, 0, 0, 0, 0, 2, 4, 0, 1,
178, 4385, 41, 0, 0, 0, 0, 2, 4, 0, 1,
196, 4648, 44, 0, 0, 0, 0, 2, 4, 0, 1