28, 4436, 57, 0, -8, 6, 0, 1, 4, 0, 1,
50, 4327, 55, 0, 0, 6, 0, 1, 4, 0, 1,
52, 4332, 55, 0, 0, 6, 0, 1, 4, 0, 1,
68, 4324, 57, 55, 0, 6, 0, 1, 4, 0, 1,
69, 4324, 57, 55, 0, 6, 0, 1, 4, 0, 1,
70, 4332, 54, 0, 0, 6, 0, 3, 4, 0, 1,
88, 4348, 55, 0, 0, 6, 0, 1, 4, 0, 1,
136, 4422, 56, 0, 0, 0, 0, 3, 4, 0, 1,
160, 4339, 56, 0, 0, 0, -1, 1, 4, 0, 1,
178, 4339, 60, 0, 0, 0, 1, 1, 4, 0, 1,
196, 4357, 54, 0, 0, 0, 0, 3, 4, 0, 1