90, 1094, 36, 0, 0, 6, 0, 2, 4, 0, 1,
96, 1048, 37, 0, -4, 6, 0, 2, 4, 0, 1,
100, 1040, 36, 0, 0, 6, 0, 2, 4, 0, 1,
198, 1099, 35, 0, 0, 0, 0, 2, 4, 0, 1,
210, 1039, 41, 0, 0, 0, 3, 2, 4, 0, 1,
214, 1039, 35, 0, 0, 0, -2, 2, 4, 0, 1