96, 672, 7, 0, 0, 6, 0, 4, 4, 0, 1,
100, 696, 7, 0, 0, 6, 0, 4, 4, 0, 1,
104, 712, 6, 0, 0, 6, 0, 4, 4, 0, 1,
204, 667, 7, 0, 0, 0, 0, 4, 4, 0, 1,
208, 701, 6, 0, 0, 0, 0, 4, 4, 0, 1,
212, 707, 7, 0, 0, 0, 0, 4, 4, 0, 1