18, 3290, 25, 0, -8, 6, 0, 6, 4, 0, 1,
19, 3325, 25, 0, -4, 6, 0, 6, 4, 0, 1,
38, 2720, 28, 0, -4, 6, 0, 2, 4, 0, 1,
56, 2752, 29, 0, 4, 6, 0, 2, 4, 0, 1,
74, 2904, 30, 0, 4, 6, 0, 2, 4, 0, 1,
126, 3336, 26, 0, 0, 0, 0, 6, 4, 0, 1,
146, 2774, 29, 0, 0, 0, 0, 2, 4, 0, 1,
164, 2824, 30, 0, 0, 0, 0, 2, 4, 0, 1