92, 1032, 52, 0, 12, 6, 0, 3, 4, 0, 1,
102, 1208, 47, 0, 0, 6, 0, 2, 4, 0, 1,
106, 1192, 45, 0, 0, 6, 0, 2, 4, 0, 1,
200, 1048, 56, 0, 0, 0, 2, 3, 4, 0, 1,
206, 1217, 55, 0, 0, 0, 0, 1, 4, 0, 1,
210, 1198, 50, 0, 0, 0, 3, 3, 4, 0, 1,
214, 1189, 44, 0, 0, 0, 0, 2, 4, 0, 1