72, 1320, 13, 0, 0, 6, 0, 4, 4, 0, 1,
90, 970, 11, 0, -4, 6, 0, 4, 4, 0, 1,
96, 1224, 14, 0, 4, 6, 0, 4, 4, 0, 1,
100, 1272, 14, 0, 0, 6, 0, 4, 4, 0, 1,
104, 1312, 14, 0, 4, 6, 0, 4, 4, 0, 1,
180, 1328, 14, 0, 0, 0, 0, 4, 4, 0, 1,
208, 1287, 14, 0, 0, 0, -1, 4, 4, 0, 1,
228, 949, 18, 0, 16, 6, 0, 4, 4, 0, 1