8, 2464, 60, 0, 4, 6, 0, 1, 4, 0, 1,
46, 2568, 59, 0, 0, 6, 0, 1, 4, 0, 1,
64, 2576, 59, 0, 0, 6, 0, 1, 4, 0, 1,
82, 2572, 59, 0, 0, 6, 0, 1, 4, 0, 1,
116, 2474, 56, 0, 0, 0, 0, 3, 4, 0, 1,
170, 2483, 60, 0, 0, 0, 1, 1, 4, 0, 1,
172, 2567, 60, 0, 0, 0, -2, 1, 4, 0, 1,
190, 2567, 64, 0, 0, 0, 2, 1, 4, 0, 1