18, 3130, 15, 0, 0, 6, 0, 4, 4, 0, 1,
38, 3240, 15, 0, 4, 6, 0, 4, 4, 0, 1,
56, 3248, 15, 0, 0, 6, 0, 4, 4, 0, 1,
74, 3224, 14, 0, 0, 6, 0, 4, 4, 0, 1,
112, 3115, 17, 0, 0, 0, 0, 4, 4, 0, 1,
164, 3246, 15, 0, 0, 0, -1, 4, 4, 0, 1,
182, 3208, 15, 0, 0, 0, 0, 4, 4, 0, 1,
220, 3096, 17, 0, 10, 6, 0, 4, 4, 0, 1