0, 1892, 47, 0, 0, 6, 0, 2, 4, 0, 1,
8, 1928, 50, 0, 0, 6, 0, 2, 4, 0, 1,
62, 1960, 49, 0, 0, 6, 0, 2, 4, 0, 1,
80, 1960, 50, 0, 0, 6, 0, 3, 4, 0, 1,
116, 1938, 56, 0, 0, 0, 3, 3, 4, 0, 1,
152, 1948, 56, 0, 0, 0, 2, 1, 4, 0, 1,
188, 1967, 54, 0, 0, 0, 1, 3, 4, 0, 1