4, 2817, 26, 0, -4, 6, 0, 6, 4, 0, 1,
38, 2712, 26, 0, 0, 6, 0, 2, 4, 0, 1,
56, 2680, 26, 0, 0, 6, 0, 2, 4, 0, 1,
74, 2672, 26, 0, 0, 6, 0, 2, 4, 0, 1,
112, 2850, 28, 0, 0, 0, 0, 2, 4, 0, 1,
164, 2675, 27, 0, 0, 0, 0, 2, 4, 0, 1,
182, 2668, 27, 0, 0, 0, 0, 2, 4, 0, 1