22, 4801, 24, 0, 0, 6, 0, 6, 4, 0, 1,
40, 4832, 25, 0, 0, 6, 0, 6, 4, 0, 1,
58, 4832, 25, 0, 0, 6, 0, 6, 4, 0, 1,
76, 4832, 25, 0, 0, 6, 0, 6, 4, 0, 1,
130, 4798, 26, 0, 0, 0, 0, 6, 4, 0, 1,
148, 4824, 24, 0, 0, 0, 0, 6, 4, 0, 1,
166, 4833, 25, 0, 0, 0, 0, 6, 4, 0, 1,
184, 4840, 25, 0, 0, 0, 1, 6, 4, 0, 1,
196, 4695, 35, 0, 0, 0, 1, 2, 4, 0, 1