24, 3652, 56, 0, -12, 6, 0, 1, 4, 0, 1,
66, 3424, 53, 0, 0, 6, 0, 3, 4, 0, 1,
84, 3416, 54, 0, 0, 6, 0, 3, 4, 0, 1,
132, 3627, 56, 0, 0, 0, 1, 3, 4, 0, 1,
156, 3495, 55, 0, 0, 0, 0, 1, 4, 0, 1,
174, 3411, 50, 0, 0, 0, -1, 3, 4, 0, 1,
192, 3411, 53, 0, 0, 0, 0, 3, 4, 0, 1