0, 1679, 35, 0, -12, 6, 0, 2, 4, 0, 1,
36, 1312, 34, 0, -4, 6, 0, 2, 4, 0, 1,
108, 1833, 37, 0, 0, 0, 0, 2, 4, 0, 1,
144, 1308, 35, 0, 0, 0, 0, 2, 4, 0, 1,
162, 1438, 35, 0, 0, 0, 0, 2, 4, 0, 1,
186, 1601, 35, 0, 0, 0, 0, 2, 4, 0, 1,
204, 1308, 35, 0, 0, 0, 0, 2, 4, 0, 1