18, 3463, 36, 0, 4, 6, 0, 2, 4, 0, 1,
38, 3680, 36, 0, 4, 6, 0, 2, 4, 0, 1,
56, 3688, 36, 36, 0, 6, 0, 2, 4, 0, 1,
57, 3728, 36, 36, 15, 6, 0, 2, 4, 0, 1,
58, 3696, 36, 0, 0, 6, 0, 2, 4, 0, 1,
126, 3437, 35, 0, 0, 0, 0, 2, 4, 0, 1,
146, 3658, 35, 0, 0, 0, 0, 2, 4, 0, 1,
174, 3664, 41, 0, 0, 0, 0, 2, 4, 0, 1