18, 3244, 4, 0, 0, 6, 0, 4, 4, 0, 1,
38, 3144, 6, 0, 0, 6, 0, 4, 4, 0, 1,
56, 3112, 6, 0, 0, 6, 0, 4, 4, 0, 1,
74, 3104, 6, 0, 0, 6, 0, 4, 4, 0, 1,
146, 3151, 7, 0, 0, 0, 0, 4, 4, 0, 1,
164, 3107, 7, 0, 0, 0, 0, 4, 4, 0, 1,
182, 3095, 6, 0, 0, 0, 0, 4, 4, 0, 1,
222, 3271, 8, 0, -9, 6, 0, 4, 4, 0, 1