36, 1320, 24, 0, 0, 6, 0, 6, 4, 0, 1,
54, 1320, 23, 0, 0, 6, 0, 6, 4, 0, 1,
90, 1022, 24, 0, 4, 6, 0, 6, 4, 0, 1,
96, 1304, 24, 0, 4, 6, 0, 6, 4, 0, 1,
100, 1304, 23, 0, -4, 6, 0, 6, 4, 0, 1,
104, 1264, 23, 0, 0, 6, 0, 6, 4, 0, 1,
144, 1297, 24, 0, 0, 0, 0, 6, 4, 0, 1,
198, 985, 25, 0, 0, 0, 0, 6, 4, 0, 1,
204, 1296, 24, 0, 0, 0, 0, 6, 4, 0, 1,
212, 1258, 24, 0, 0, 0, -1, 6, 4, 0, 1