38, 2832, 44, 0, 0, 6, 0, 2, 4, 0, 1,
82, 2828, 43, 0, 0, 6, 0, 2, 4, 0, 1,
112, 2963, 47, 0, 0, 0, 0, 2, 4, 0, 1,
118, 2867, 53, 0, 0, 0, 2, 3, 4, 0, 1,
146, 2840, 45, 0, 0, 0, 0, 2, 4, 0, 1,
190, 2829, 44, 0, 0, 0, 1, 2, 4, 0, 1