0, 1399, 40, 0, 4, 6, 0, 2, 4, 0, 1,
1, 1435, 40, 0, -4, 6, 0, 2, 4, 0, 1,
36, 1488, 41, 0, 0, 6, 0, 2, 4, 0, 1,
78, 1484, 40, 0, 0, 6, 0, 2, 4, 0, 1,
108, 1376, 42, 0, 0, 0, 0, 2, 4, 0, 1,
144, 1495, 40, 0, 0, 0, 0, 2, 4, 0, 1,
145, 1480, 40, 0, 0, 0, 0, 2, 4, 0, 1,
168, 1488, 41, 0, 0, 0, -1, 2, 4, 0, 1,
186, 1479, 44, 0, 0, 0, 0, 2, 4, 0, 1