18, 3372, 41, 0, 4, 6, 0, 2, 4, 0, 1,
38, 3512, 42, 0, 0, 6, 0, 2, 4, 0, 1,
84, 3508, 41, 0, -4, 6, 0, 2, 4, 0, 1,
126, 3358, 40, 0, 0, 0, 0, 2, 4, 0, 1,
146, 3500, 40, 0, 0, 0, 0, 2, 4, 0, 1,
174, 3505, 41, 0, 0, 0, 1, 2, 4, 0, 1