2, 2207, 21, 0, 4, 6, 0, 4, 4, 0, 1,
36, 2352, 20, 0, 0, 6, 0, 4, 4, 0, 1,
54, 2368, 20, 0, 0, 6, 0, 4, 4, 0, 1,
110, 2191, 21, 0, 0, 0, 0, 4, 4, 0, 1,
144, 2350, 19, 0, 0, 0, 0, 4, 4, 0, 1,
162, 2382, 20, 0, 0, 0, 0, 4, 4, 0, 1,
180, 2365, 19, 0, 0, 0, 0, 4, 4, 0, 1,
218, 2172, 23, 0, 11, 5, 0, 4, 4, 0, 1