92, 952, 56, 0, 4, 6, 0, 1, 4, 0, 1,
98, 1036, 55, 0, 0, 6, 0, 1, 4, 0, 1,
102, 1052, 55, 0, 0, 6, 0, 1, 4, 0, 1,
106, 1048, 54, 0, 0, 6, 0, 3, 4, 0, 1,
206, 1029, 55, 0, 0, 0, 0, 1, 4, 0, 1,
210, 1058, 60, 0, 0, 0, -1, 1, 4, 0, 1,
214, 1048, 53, 0, 0, 0, 0, 3, 4, 0, 1