38, 3344, 41, 0, 4, 6, 0, 2, 4, 0, 1,
86, 3784, 40, 0, 12, 6, 0, 2, 4, 0, 1,
128, 3853, 47, 0, 0, 0, 0, 2, 4, 0, 1,
146, 3329, 40, 0, 0, 0, 0, 2, 4, 0, 1,
174, 3673, 41, 0, 0, 0, 1, 2, 4, 0, 1,
194, 3926, 44, 0, 0, 0, 2, 2, 4, 0, 1