90, 1236, 47, 0, -12, 6, 0, 2, 4, 0, 1,
96, 792, 42, 0, 0, 6, 0, 2, 4, 0, 1,
100, 944, 40, 0, 8, 6, 0, 2, 4, 0, 1,
198, 1317, 52, 0, 0, 0, 0, 2, 4, 0, 1,
204, 771, 45, 0, 0, 0, 0, 2, 4, 0, 1,
210, 1076, 41, 0, 0, 0, 1, 2, 4, 0, 1