18, 3529, 38, 0, -4, 6, 0, 2, 4, 0, 1,
38, 3376, 38, 0, 0, 6, 0, 2, 4, 0, 1,
56, 3376, 38, 0, 0, 6, 0, 2, 4, 0, 1,
84, 3388, 38, 0, 0, 6, 0, 2, 4, 0, 1,
126, 3550, 40, 0, 0, 0, 0, 2, 4, 0, 1,
146, 3378, 40, 0, 0, 0, 0, 2, 4, 0, 1,
174, 3373, 41, 0, 0, 0, -1, 2, 4, 0, 1,
192, 3392, 35, 0, 0, 0, 0, 2, 4, 0, 1