52, 4584, 55, 0, 4, 6, 0, 1, 4, 0, 1,
70, 4560, 53, 0, 0, 6, 0, 3, 4, 0, 1,
88, 4516, 54, 0, -4, 6, 0, 3, 4, 0, 1,
160, 4573, 55, 0, 0, 0, 1, 1, 4, 0, 1,
178, 4545, 50, 0, 0, 0, -2, 3, 4, 0, 1,
196, 4498, 53, 0, 0, 0, -1, 3, 4, 0, 1