24, 3605, 61, 0, -4, 6, 0, 1, 4, 0, 1,
48, 3552, 60, 0, 0, 6, 0, 1, 4, 0, 1,
66, 3536, 60, 0, 0, 6, 0, 1, 4, 0, 1,
84, 3536, 60, 0, 0, 6, 0, 1, 4, 0, 1,
156, 3552, 66, 0, 0, 0, 0, 1, 4, 0, 1,
174, 3523, 60, 0, 0, 0, 0, 1, 4, 0, 1,
192, 3392, 53, 0, 0, 0, -1, 3, 4, 0, 1,
193, 3533, 64, 0, 0, 0, 1, 1, 4, 0, 1