2, 2268, 42, 0, 4, 6, 0, 2, 4, 0, 1,
38, 2752, 45, 43, 0, 6, 0, 2, 4, 0, 1,
39, 2656, 45, 43, 4, 6, 0, 2, 4, 0, 1,
110, 2218, 45, 0, 0, 0, 0, 2, 4, 0, 1,
146, 2638, 45, 0, 0, 0, 0, 2, 4, 0, 1,
172, 2679, 41, 0, 0, 0, -1, 2, 4, 0, 1,
190, 2651, 44, 0, 0, 0, -1, 2, 4, 0, 1