18, 3384, 14, 0, 4, 6, 0, 4, 4, 0, 1,
38, 3672, 14, 0, 4, 6, 0, 4, 4, 0, 1,
40, 3696, 14, 0, 0, 6, 0, 4, 4, 0, 1,
56, 3728, 14, 0, 0, 6, 0, 4, 4, 0, 1,
58, 3728, 14, 0, 0, 6, 0, 4, 4, 0, 1,
74, 3720, 14, 0, 0, 6, 0, 4, 4, 0, 1,
76, 3720, 14, 0, 0, 6, 0, 4, 4, 0, 1,
146, 3653, 13, 0, 0, 0, 0, 4, 4, 0, 1,
182, 3705, 14, 0, 0, 0, -1, 4, 4, 0, 1,
222, 3327, 17, 0, 22, 6, 0, 4, 4, 0, 1