90, 1024, 6, 0, -4, 6, 0, 4, 4, 0, 1,
96, 808, 9, 0, -4, 6, 0, 4, 4, 0, 1,
100, 784, 9, 0, 0, 6, 0, 4, 4, 0, 1,
104, 824, 8, 0, 4, 6, 0, 4, 4, 0, 1,
204, 845, 7, 0, 0, 0, 0, 4, 4, 0, 1,
208, 802, 9, 0, 0, 0, 0, 4, 4, 0, 1,
212, 858, 8, 0, 0, 0, 1, 4, 4, 0, 1,
228, 1071, 8, 0, -16, 6, 0, 4, 4, 0, 1