2, 2080, 22, 0, 0, 6, 0, 4, 4, 0, 1,
36, 1984, 22, 0, 0, 6, 0, 4, 4, 0, 1,
54, 1976, 22, 0, 0, 6, 0, 4, 4, 0, 1,
72, 2000, 22, 0, 0, 6, 0, 4, 4, 0, 1,
110, 2094, 21, 0, 0, 0, 0, 4, 4, 0, 1,
144, 1984, 23, 0, 0, 0, 0, 6, 4, 0, 1,
162, 1970, 22, 0, 0, 0, 1, 4, 4, 0, 1,
180, 2002, 21, 0, 0, 0, -1, 4, 4, 0, 1,
218, 2110, 23, 0, -9, 6, 0, 4, 4, 0, 1