10, 2708, 77, 0, -4, 6, 0, 1, 4, 0, 1,
46, 2648, 77, 0, -4, 6, 0, 1, 4, 0, 1,
64, 2652, 78, 0, 4, 6, 0, 1, 4, 0, 1,
82, 2680, 78, 0, 0, 6, 0, 1, 4, 0, 1,
118, 2698, 79, 0, 0, 0, 0, 1, 4, 0, 1,
154, 2651, 77, 0, 0, 0, 1, 1, 4, 0, 1,
172, 2670, 82, 0, 0, 0, 0, 1, 4, 0, 1,
190, 2698, 74, 0, 0, 0, 1, 1, 4, 0, 1