24, 3168, 53, 0, 15, 6, 0, 3, 4, 0, 1,
66, 3204, 44, 0, -16, 6, 0, 2, 4, 0, 1,
82, 3012, 43, 0, -16, 6, 0, 2, 4, 0, 1,
132, 3194, 56, 0, 0, 0, 0, 3, 4, 0, 1,
174, 3139, 41, 0, 0, 0, -1, 2, 4, 0, 1,
190, 2811, 44, 0, 0, 0, 1, 2, 4, 0, 1