8, 2248, 67, 0, -4, 6, 0, 1, 4, 0, 1,
44, 2172, 66, 0, 0, 6, 0, 1, 4, 0, 1,
62, 2164, 66, 0, 0, 6, 0, 1, 4, 0, 1,
80, 2168, 66, 0, 0, 6, 0, 1, 4, 0, 1,
116, 2229, 71, 0, 0, 0, -1, 1, 4, 0, 1,
152, 2182, 66, 0, 0, 0, 0, 1, 4, 0, 1,
170, 2173, 71, 0, 0, 0, 0, 1, 4, 0, 1,
188, 2173, 64, 0, 0, 0, 0, 1, 4, 0, 1