42, 1308, 75, 0, 0, 6, 0, 1, 4, 0, 1,
60, 1308, 75, 0, 0, 6, 0, 1, 4, 0, 1,
78, 1312, 76, 0, 0, 6, 0, 1, 4, 0, 1,
92, 1296, 75, 0, 0, 6, 0, 1, 4, 0, 1,
98, 1308, 75, 0, 0, 6, 0, 1, 4, 0, 1,
102, 1308, 75, 0, 0, 6, 0, 1, 4, 0, 1,
106, 1312, 75, 0, 0, 6, 0, 1, 4, 0, 1,
200, 1292, 71, 0, 0, 0, -1, 1, 4, 0, 1,
206, 1301, 78, 0, 0, 0, -1, 1, 4, 0, 1,
210, 1301, 71, 0, 0, 0, 1, 1, 4, 0, 1,
214, 1311, 74, 0, 0, 0, 0, 1, 4, 0, 1