18, 3697, 38, 0, -8, 6, 0, 2, 4, 0, 1,
38, 3368, 36, 0, 0, 6, 0, 2, 4, 0, 1,
56, 3456, 36, 0, 0, 6, 0, 2, 4, 0, 1,
128, 3727, 42, 0, 0, 0, 0, 2, 4, 0, 1,
174, 3476, 41, 0, 0, 0, 1, 2, 4, 0, 1,
192, 3617, 35, 0, 0, 0, 1, 2, 4, 0, 1