96, 408, 8, 0, 0, 6, 0, 4, 4, 0, 1,
100, 408, 8, 0, 0, 6, 0, 4, 4, 0, 1,
104, 456, 8, 0, 0, 6, 0, 4, 4, 0, 1,
204, 417, 7, 0, 0, 0, 0, 4, 4, 0, 1,
208, 419, 8, 0, 0, 0, 1, 4, 4, 0, 1,
212, 476, 9, 0, 0, 0, 1, 4, 4, 0, 1