22, 4780, 37, 0, -4, 6, 0, 2, 4, 0, 1,
40, 4536, 37, 0, 0, 6, 0, 2, 4, 0, 1,
58, 4528, 37, 0, 4, 6, 0, 2, 4, 0, 1,
130, 4806, 40, 0, 0, 0, 0, 2, 4, 0, 1,
148, 4551, 40, 0, 0, 0, 0, 2, 4, 0, 1,
178, 4535, 41, 0, 0, 0, 1, 2, 4, 0, 1,
179, 4432, 41, 0, 0, 0, 1, 2, 4, 0, 1,
196, 4564, 35, 0, 0, 0, 1, 2, 4, 0, 1