18, 3436, 15, 0, 0, 6, 0, 4, 4, 0, 1,
38, 3648, 16, 0, 4, 6, 0, 4, 4, 0, 1,
58, 3696, 16, 0, 0, 6, 0, 4, 4, 0, 1,
76, 3736, 16, 0, 4, 6, 0, 4, 4, 0, 1,
184, 3919, 16, 0, 0, 0, 2, 4, 4, 0, 1,
185, 3752, 16, 0, 0, 0, 1, 4, 4, 0, 1,
222, 3389, 18, 0, 17, 6, 0, 4, 4, 0, 1