92, 940, 54, 0, -8, 6, 0, 3, 4, 0, 1,
102, 768, 54, 0, 0, 6, 0, 3, 4, 0, 1,
106, 764, 53, 0, 0, 6, 0, 3, 4, 0, 1,
200, 916, 56, 0, 0, 0, 2, 3, 4, 0, 1,
206, 823, 55, 0, 0, 0, 1, 1, 4, 0, 1,
210, 767, 50, 0, 0, 0, -2, 3, 4, 0, 1,
214, 767, 54, 0, 0, 0, 0, 3, 4, 0, 1