96, 680, 10, 0, 4, 6, 0, 4, 4, 0, 1,
100, 808, 10, 0, 0, 6, 0, 4, 4, 0, 1,
104, 864, 10, 0, 0, 6, 0, 4, 4, 0, 1,
204, 653, 12, 0, 0, 0, 0, 4, 4, 0, 1,
208, 808, 11, 0, 0, 0, 0, 4, 4, 0, 1,
212, 877, 11, 0, 0, 0, -1, 4, 4, 0, 1