6, 1412, 54, 0, -12, 6, 0, 3, 4, 0, 1,
102, 1268, 49, 0, 0, 6, 0, 2, 4, 0, 1,
106, 1308, 48, 0, 4, 6, 0, 2, 4, 0, 1,
114, 1385, 53, 0, 0, 0, 1, 3, 4, 0, 1,
206, 1283, 56, 0, 0, 0, 0, 1, 4, 0, 1,
210, 1264, 50, 0, 0, 0, 0, 3, 4, 0, 1