2, 2066, 23, 0, 0, 6, 0, 4, 4, 0, 1,
36, 2128, 24, 0, -4, 6, 0, 6, 4, 0, 1,
54, 2144, 24, 0, 0, 6, 0, 6, 4, 0, 1,
72, 2144, 23, 0, 0, 6, 0, 6, 4, 0, 1,
110, 2058, 26, 0, 0, 0, 0, 6, 4, 0, 1,
144, 2122, 23, 0, 0, 0, 0, 6, 4, 0, 1,
162, 2140, 23, 0, 0, 0, 0, 6, 4, 0, 1,
180, 2159, 25, 0, 0, 0, 0, 6, 4, 0, 1,
218, 2049, 23, 0, 5, 6, 0, 4, 4, 0, 1