8, 2288, 61, 0, 0, 6, 0, 1, 4, 0, 1,
44, 2324, 61, 0, 0, 6, 0, 1, 4, 0, 1,
116, 2286, 56, 0, 0, 0, 0, 3, 4, 0, 1,
152, 2314, 66, 0, 0, 0, 0, 1, 4, 0, 1,
170, 2333, 60, 0, 0, 0, -2, 1, 4, 0, 1,
188, 2342, 64, 0, 0, 0, 0, 1, 4, 0, 1