4, 3021, 36, 0, 4, 6, 0, 2, 4, 0, 1,
38, 3248, 36, 0, 0, 6, 0, 2, 4, 0, 1,
56, 3248, 37, 0, -4, 6, 0, 2, 4, 0, 1,
112, 2941, 37, 0, 0, 0, 0, 2, 4, 0, 1,
174, 3232, 41, 0, 0, 0, 1, 2, 4, 0, 1,
192, 3204, 35, 0, 0, 0, 1, 2, 4, 0, 1