10, 2992, 50, 0, -12, 6, 0, 2, 4, 0, 1,
18, 3336, 51, 0, -4, 6, 0, 2, 4, 0, 1,
64, 2896, 48, 0, 4, 6, 0, 2, 4, 0, 1,
82, 2956, 48, 0, 4, 6, 0, 2, 4, 0, 1,
118, 2961, 53, 0, 0, 0, 1, 3, 4, 0, 1,
154, 2886, 55, 0, 0, 0, 1, 1, 4, 0, 1,
172, 2923, 50, 0, 0, 0, 1, 3, 4, 0, 1,
190, 2998, 44, 0, 0, 0, 1, 2, 4, 0, 1