38, 3352, 6, 0, 0, 6, 0, 4, 4, 0, 1,
56, 3320, 6, 0, 0, 6, 0, 4, 4, 0, 1,
74, 3320, 7, 0, -4, 6, 0, 4, 4, 0, 1,
146, 3366, 7, 0, 0, 0, 0, 4, 4, 0, 1,
164, 3333, 7, 0, 0, 0, -1, 4, 4, 0, 1,
182, 3327, 8, 0, 0, 0, 1, 4, 4, 0, 1,
183, 3227, 7, 0, 0, 0, 0, 4, 4, 0, 1,
222, 3522, 8, 0, -13, 6, 0, 4, 4, 0, 1