60, 1308, 52, 0, 0, 6, 0, 3, 4, 0, 1,
78, 1316, 52, 0, 0, 6, 0, 3, 4, 0, 1,
90, 1180, 51, 0, 0, 6, 0, 2, 4, 0, 1,
92, 1244, 52, 0, 0, 6, 0, 3, 4, 0, 1,
102, 1312, 52, 0, 0, 6, 0, 3, 4, 0, 1,
106, 1316, 52, 0, 0, 6, 0, 3, 4, 0, 1,
198, 1166, 51, 0, 0, 0, 0, 2, 4, 0, 1,
200, 1246, 56, 0, 0, 0, -1, 3, 4, 0, 1,
206, 1283, 56, 0, 0, 0, 1, 1, 4, 0, 1,
210, 1311, 50, 0, 0, 0, -1, 3, 4, 0, 1,
214, 1301, 54, 0, 0, 0, 0, 3, 4, 0, 1