90, 748, 22, 0, -8, 6, 0, 4, 4, 0, 1,
96, 304, 19, 0, 0, 6, 0, 4, 4, 0, 1,
100, 344, 19, 0, 4, 6, 0, 4, 4, 0, 1,
204, 324, 19, 0, 0, 0, 0, 4, 4, 0, 1,
208, 407, 19, 0, 0, 0, -1, 4, 4, 0, 1,
212, 537, 19, 0, 0, 0, 0, 4, 4, 0, 1,
228, 867, 23, 0, -42, 6, 0, 4, 4, 0, 1