4, 3112, 21, 0, 0, 6, 0, 4, 4, 0, 1,
18, 3137, 21, 0, -4, 6, 0, 4, 4, 0, 1,
38, 2992, 21, 0, 0, 6, 0, 4, 4, 0, 1,
56, 2976, 21, 0, 0, 6, 0, 4, 4, 0, 1,
74, 2984, 21, 0, 0, 6, 0, 4, 4, 0, 1,
126, 3153, 22, 0, 0, 0, 0, 4, 4, 0, 1,
146, 3003, 23, 0, 0, 0, 0, 6, 4, 0, 1,
164, 2976, 21, 0, 0, 0, -1, 4, 4, 0, 1,
182, 2988, 22, 0, 0, 0, 0, 4, 4, 0, 1,
222, 3175, 22, 0, -13, 6, 0, 4, 4, 0, 1