0, 1520, 28, 0, 0, 6, 0, 2, 4, 0, 1,
36, 1336, 29, 0, -4, 6, 0, 2, 4, 0, 1,
54, 1320, 30, 0, 0, 6, 0, 2, 4, 0, 1,
72, 1312, 29, 0, 0, 6, 0, 2, 4, 0, 1,
96, 1336, 29, 0, 4, 6, 0, 2, 4, 0, 1,
100, 1320, 29, 0, 0, 6, 0, 2, 4, 0, 1,
104, 1304, 29, 0, 0, 6, 0, 2, 4, 0, 1,
108, 1569, 28, 0, 0, 0, 0, 2, 4, 0, 1,
144, 1363, 30, 0, 0, 0, 0, 2, 4, 0, 1,
208, 1307, 30, 0, 0, 0, 1, 2, 4, 0, 1,
212, 1302, 30, 0, 0, 0, -2, 2, 4, 0, 1