4, 2730, 10, 0, 0, 6, 0, 4, 4, 0, 1,
38, 2712, 11, 0, 0, 6, 0, 4, 4, 0, 1,
56, 2712, 11, 0, 0, 6, 0, 4, 4, 0, 1,
74, 2713, 11, 0, 0, 6, 0, 4, 4, 0, 1,
146, 2716, 12, 0, 0, 0, 0, 4, 4, 0, 1,
164, 2713, 11, 0, 0, 0, 0, 4, 4, 0, 1,
182, 2713, 11, 0, 0, 0, 0, 4, 4, 0, 1,
220, 2736, 12, 0, 0, 6, 0, 4, 4, 0, 1