0, 1658, 29, 0, 0, 6, 0, 2, 4, 0, 1,
36, 1552, 30, 0, 0, 6, 0, 2, 4, 0, 1,
54, 1528, 30, 0, 0, 6, 0, 2, 4, 0, 1,
72, 1528, 30, 0, 0, 6, 0, 2, 4, 0, 1,
144, 1555, 30, 0, 0, 0, 0, 2, 4, 0, 1,
162, 1531, 30, 0, 0, 0, 2, 2, 4, 0, 1