42, 1328, 53, 0, 4, 6, 0, 1, 4, 0, 1,
92, 988, 60, 0, 12, 6, 0, 1, 4, 0, 1,
98, 1128, 57, 55, 0, 6, 0, 1, 4, 0, 1,
99, 1280, 57, 55, 12, 6, 0, 1, 4, 0, 1,
102, 1144, 55, 0, 0, 6, 0, 1, 4, 0, 1,
106, 1116, 55, 0, 0, 6, 0, 1, 4, 0, 1,
200, 1011, 56, 0, 0, 0, 2, 3, 4, 0, 1,
206, 1133, 55, 0, 0, 0, -1, 1, 4, 0, 1,
210, 1142, 60, 0, 0, 0, 0, 1, 4, 0, 1,
214, 1105, 53, 0, 0, 0, 0, 3, 4, 0, 1