20, 4308, 20, 0, 8, 6, 0, 4, 4, 0, 1,
40, 4528, 21, 0, 0, 6, 0, 4, 4, 0, 1,
58, 4528, 21, 0, -4, 6, 0, 4, 4, 0, 1,
76, 4480, 21, 0, 0, 6, 0, 4, 4, 0, 1,
128, 4225, 21, 0, 0, 0, 0, 4, 4, 0, 1,
148, 4522, 24, 0, 0, 0, 0, 6, 4, 0, 1,
166, 4514, 21, 0, 0, 0, 0, 4, 4, 0, 1,
184, 4465, 21, 0, 0, 0, 1, 4, 4, 0, 1,
224, 4177, 22, 0, 25, 6, 0, 4, 4, 0, 1