28, 4788, 71, 0, 0, 6, 0, 1, 4, 0, 1,
52, 4792, 70, 0, 0, 6, 0, 1, 4, 0, 1,
70, 4796, 70, 0, 0, 6, 0, 1, 4, 0, 1,
160, 4798, 66, 0, 0, 0, -2, 1, 4, 0, 1,
178, 4789, 71, 0, 0, 0, 0, 1, 4, 0, 1,
196, 4789, 74, 0, 0, 0, 0, 1, 4, 0, 1