24, 3335, 73, 0, 0, 6, 0, 1, 4, 0, 1,
48, 3363, 72, 0, 0, 6, 0, 1, 4, 0, 1,
66, 3359, 72, 0, 0, 6, 0, 1, 4, 0, 1,
84, 3348, 72, 0, -4, 6, 0, 1, 4, 0, 1,
132, 3335, 71, 0, 0, 0, -1, 1, 4, 0, 1,
156, 3364, 78, 0, 0, 0, 1, 1, 4, 0, 1,
174, 3354, 71, 0, 0, 0, -1, 1, 4, 0, 1,
192, 3345, 74, 0, 0, 0, 1, 1, 4, 0, 1