18, 3626, 43, 0, 15, 6, 0, 2, 4, 0, 1,
20, 3743, 43, 0, 15, 6, 0, 2, 4, 0, 1,
40, 4312, 35, 0, -4, 6, 0, 2, 4, 0, 1,
126, 3538, 45, 0, 0, 0, 0, 2, 4, 0, 1,
148, 4322, 34, 0, 0, 0, 0, 2, 4, 0, 1,
164, 3465, 27, 0, 0, 0, 0, 2, 4, 0, 1