28, 4776, 79, 0, 4, 6, 0, 1, 4, 0, 1,
52, 4816, 79, 0, 0, 6, 0, 1, 4, 0, 1,
70, 4827, 78, 0, 4, 6, 0, 1, 4, 0, 1,
88, 4828, 79, 0, 0, 6, 0, 1, 4, 0, 1,
136, 4780, 83, 0, 0, 0, 0, 1, 4, 0, 1,
160, 4817, 78, 0, 0, 0, 0, 1, 4, 0, 1,
196, 4827, 83, 0, 0, 0, 0, 1, 4, 0, 1