6, 1444, 48, 0, -8, 6, 0, 2, 4, 0, 1,
36, 1344, 47, 0, -4, 6, 0, 2, 4, 0, 1,
60, 1328, 46, 0, 0, 6, 0, 2, 4, 0, 1,
78, 1336, 45, 0, 0, 6, 0, 2, 4, 0, 1,
96, 1344, 47, 0, 0, 6, 0, 2, 4, 0, 1,
102, 1328, 45, 0, 0, 6, 0, 2, 4, 0, 1,
114, 1422, 53, 0, 0, 0, 1, 3, 4, 0, 1,
144, 1363, 45, 0, 0, 0, 0, 2, 4, 0, 1,
168, 1339, 50, 0, 0, 0, 1, 3, 4, 0, 1