2, 2472, 34, 0, 4, 6, 0, 2, 4, 0, 1,
4, 2523, 35, 0, 4, 6, 0, 2, 4, 0, 1,
38, 2584, 31, 0, -4, 6, 0, 2, 4, 0, 1,
54, 2312, 30, 0, -8, 6, 0, 2, 4, 0, 1,
72, 2072, 31, 0, -4, 6, 0, 2, 4, 0, 1,
110, 2437, 35, 0, 0, 0, 0, 2, 4, 0, 1,
146, 2651, 30, 0, 0, 0, 0, 2, 4, 0, 1,
162, 2253, 31, 0, 0, 0, -1, 2, 4, 0, 1