2, 2279, 44, 0, 0, 6, 0, 2, 4, 0, 1,
36, 2408, 45, 0, 0, 6, 0, 2, 4, 0, 1,
62, 2416, 44, 0, 0, 6, 0, 2, 4, 0, 1,
80, 2412, 44, 0, 0, 6, 0, 2, 4, 0, 1,
110, 2263, 45, 0, 0, 0, 0, 2, 4, 0, 1,
116, 2408, 56, 0, 0, 0, 0, 3, 4, 0, 1,
144, 2400, 45, 0, 0, 0, 0, 2, 4, 0, 1,
170, 2417, 50, 0, 0, 0, -1, 3, 4, 0, 1,
188, 2408, 44, 0, 0, 0, -1, 2, 4, 0, 1