66, 3248, 51, 0, -4, 6, 0, 3, 4, 0, 1,
84, 3196, 50, 0, 0, 6, 0, 3, 4, 0, 1,
132, 3129, 56, 0, 0, 0, -1, 3, 4, 0, 1,
156, 3260, 55, 0, 0, 0, 0, 1, 4, 0, 1,
174, 3232, 50, 0, 0, 0, 1, 3, 4, 0, 1,
192, 3185, 54, 0, 0, 0, 0, 3, 4, 0, 1