20, 4267, 33, 0, -4, 6, 0, 2, 4, 0, 1,
40, 4128, 32, 0, 0, 6, 0, 2, 4, 0, 1,
58, 4112, 32, 0, 4, 6, 0, 2, 4, 0, 1,
76, 4112, 32, 31, 4, 6, 0, 2, 4, 0, 1,
77, 4112, 32, 31, 4, 6, 0, 2, 4, 0, 1,
128, 4318, 33, 0, 0, 0, 0, 2, 4, 0, 1,
130, 4322, 35, 0, 0, 0, 0, 2, 4, 0, 1,
148, 4128, 34, 0, 0, 0, 0, 2, 4, 0, 1,
166, 4106, 33, 0, 0, 0, 1, 2, 4, 0, 1,
194, 4123, 35, 0, 0, 0, 1, 2, 4, 0, 1