18, 3610, 31, 0, -8, 6, 0, 2, 4, 0, 1,
38, 3336, 32, 0, -4, 6, 0, 2, 4, 0, 1,
56, 3344, 33, 0, 0, 6, 0, 2, 4, 0, 1,
74, 3392, 34, 0, 4, 6, 0, 2, 4, 0, 1,
126, 3647, 30, 0, 0, 0, 0, 2, 4, 0, 1,
146, 3340, 34, 0, 0, 0, 0, 2, 4, 0, 1,
164, 3365, 34, 0, 0, 0, 0, 2, 4, 0, 1,
192, 3429, 35, 0, 0, 0, 1, 2, 4, 0, 1