90, 1183, 6, 0, -4, 6, 0, 4, 4, 0, 1,
96, 1032, 6, 0, -4, 6, 0, 4, 4, 0, 1,
204, 1048, 7, 0, 0, 0, 0, 4, 4, 0, 1,
208, 983, 6, 0, 0, 0, 0, 4, 4, 0, 1,
212, 970, 6, 0, 0, 0, -1, 4, 4, 0, 1,
228, 1220, 8, 0, -11, 6, 0, 4, 4, 0, 1