40, 4696, 6, 5, 0, 6, 0, 4, 4, 0, 1,
41, 4696, 6, 5, 0, 6, 0, 4, 4, 0, 1,
148, 4701, 7, 0, 0, 0, 0, 4, 4, 0, 1,
166, 4689, 7, 0, 0, 0, 0, 4, 4, 0, 1,
184, 4676, 7, 0, 0, 0, 0, 4, 4, 0, 1,
226, 4742, 8, 0, -2, 6, 0, 4, 4, 0, 1