22, 4590, 14, 0, 4, 6, 0, 4, 4, 0, 1,
58, 4872, 12, 0, 0, 6, 0, 4, 4, 0, 1,
76, 4856, 12, 0, 4, 6, 0, 4, 4, 0, 1,
148, 4895, 13, 0, 0, 0, 0, 4, 4, 0, 1,
166, 4850, 13, 0, 0, 0, -1, 4, 4, 0, 1,
184, 4863, 12, 0, 0, 0, 0, 4, 4, 0, 1,
226, 4505, 17, 0, 33, 5, 0, 4, 4, 0, 1