96, 384, 6, 0, 0, 6, 0, 4, 4, 0, 1,
100, 400, 6, 0, 0, 6, 0, 4, 4, 0, 1,
104, 408, 6, 0, 0, 6, 0, 4, 4, 0, 1,
204, 378, 7, 0, 0, 0, 0, 4, 4, 0, 1,
208, 401, 6, 0, 0, 0, 0, 4, 4, 0, 1,
212, 420, 6, 0, 0, 0, 0, 4, 4, 0, 1