10, 2944, 69, 0, 4, 6, 0, 1, 4, 0, 1,
46, 2972, 69, 0, 0, 6, 0, 1, 4, 0, 1,
64, 2976, 69, 0, 0, 6, 0, 1, 4, 0, 1,
82, 2976, 69, 0, -4, 6, 0, 1, 4, 0, 1,
118, 2942, 68, 0, 0, 0, 2, 1, 4, 0, 1,
154, 2970, 66, 0, 0, 0, 0, 1, 4, 0, 1,
172, 2970, 71, 0, 0, 0, 0, 1, 4, 0, 1,
190, 2980, 74, 0, 0, 0, -1, 1, 4, 0, 1