6, 1768, 75, 0, 4, 6, 0, 1, 4, 0, 1,
8, 2036, 64, 0, 4, 6, 0, 1, 4, 0, 1,
44, 2160, 62, 0, 0, 6, 0, 1, 4, 0, 1,
62, 2168, 61, 0, 0, 6, 0, 1, 4, 0, 1,
80, 2148, 61, 0, -4, 6, 0, 1, 4, 0, 1,
116, 2051, 56, 0, 0, 0, 0, 3, 4, 0, 1,
152, 2145, 66, 0, 0, 0, 0, 1, 4, 0, 1,
170, 2173, 60, 0, 0, 0, 2, 1, 4, 0, 1,
188, 2135, 64, 0, 0, 0, 1, 1, 4, 0, 1