4, 2670, 6, 0, 4, 6, 0, 4, 4, 0, 1,
38, 2840, 7, 0, 4, 6, 0, 4, 4, 0, 1,
56, 2920, 8, 0, 4, 6, 0, 4, 4, 0, 1,
74, 2936, 8, 0, 0, 6, 0, 4, 4, 0, 1,
146, 2833, 7, 0, 0, 0, 0, 4, 4, 0, 1,
164, 2913, 8, 0, 0, 0, 0, 4, 4, 0, 1,
182, 2938, 8, 0, 0, 0, -1, 4, 4, 0, 1,
220, 2567, 8, 0, 22, 6, 0, 4, 4, 0, 1