90, 1210, 12, 0, 0, 6, 0, 4, 4, 0, 1,
96, 1000, 12, 0, -4, 6, 0, 4, 4, 0, 1,
104, 976, 11, 0, 0, 6, 0, 4, 4, 0, 1,
204, 1033, 12, 0, 0, 0, 0, 4, 4, 0, 1,
208, 971, 13, 0, 0, 0, 0, 4, 4, 0, 1,
212, 977, 11, 0, 0, 0, 0, 4, 4, 0, 1,
228, 1254, 12, 0, -15, 6, 0, 4, 4, 0, 1