22, 4610, 11, 0, 4, 6, 0, 4, 4, 0, 1,
40, 4824, 10, 0, -4, 6, 0, 4, 4, 0, 1,
58, 4856, 10, 0, 4, 6, 0, 4, 4, 0, 1,
76, 4848, 10, 0, 0, 6, 0, 4, 4, 0, 1,
148, 4790, 13, 0, 0, 0, 0, 4, 4, 0, 1,
166, 4844, 10, 0, 0, 0, 1, 4, 4, 0, 1,
226, 4553, 13, 0, 19, 6, 0, 4, 4, 0, 1