0, 1504, 17, 0, 0, 6, 0, 4, 4, 0, 1,
1, 1511, 17, 0, 0, 6, 0, 4, 4, 0, 1,
36, 1552, 18, 0, 0, 6, 0, 4, 4, 0, 1,
54, 1560, 18, 0, 0, 6, 0, 4, 4, 0, 1,
72, 1552, 18, 0, 0, 6, 0, 4, 4, 0, 1,
108, 1496, 17, 0, 0, 0, 0, 4, 4, 0, 1,
144, 1543, 19, 0, 0, 0, 0, 4, 4, 0, 1,
162, 1557, 19, 0, 0, 0, 0, 4, 4, 0, 1,
180, 1550, 18, 0, 0, 0, 0, 4, 4, 0, 1,
216, 1490, 22, 0, 3, 6, 0, 4, 4, 0, 1