22, 4910, 13, 0, -4, 6, 0, 4, 4, 0, 1,
40, 4664, 12, 0, 4, 6, 0, 4, 4, 0, 1,
58, 4728, 13, 0, 4, 6, 0, 4, 4, 0, 1,
76, 4864, 13, 0, 4, 6, 0, 4, 4, 0, 1,
148, 4641, 12, 0, 0, 0, 0, 4, 4, 0, 1,
166, 4795, 14, 0, 0, 0, 0, 4, 4, 0, 1