2, 1989, 50, 0, 0, 6, 0, 2, 4, 0, 1,
8, 1952, 55, 0, 0, 6, 0, 1, 4, 0, 1,
44, 1940, 55, 0, 0, 6, 0, 1, 4, 0, 1,
62, 1936, 54, 0, 0, 6, 0, 3, 4, 0, 1,
80, 1936, 54, 0, 0, 6, 0, 3, 4, 0, 1,
110, 1966, 51, 0, 0, 0, 0, 2, 4, 0, 1,
116, 1947, 56, 0, 0, 0, 0, 3, 4, 0, 1,
152, 1939, 56, 0, 0, 0, -1, 1, 4, 0, 1,
188, 1939, 54, 0, 0, 0, -2, 3, 4, 0, 1