20, 3839, 24, 0, -4, 6, 0, 6, 4, 0, 1,
38, 3624, 25, 0, 0, 6, 0, 6, 4, 0, 1,
56, 3584, 26, 0, 0, 6, 0, 2, 4, 0, 1,
128, 3906, 24, 0, 0, 0, 0, 6, 4, 0, 1,
146, 3634, 24, 0, 0, 0, 0, 6, 4, 0, 1,
164, 3577, 26, 0, 0, 0, 0, 2, 4, 0, 1,
182, 3566, 26, 0, 0, 0, 0, 2, 4, 0, 1