2, 2193, 21, 0, -4, 6, 0, 4, 4, 0, 1,
36, 2104, 22, 0, 0, 6, 0, 4, 4, 0, 1,
54, 2104, 22, 0, 0, 6, 0, 4, 4, 0, 1,
72, 2112, 23, 0, 0, 6, 0, 6, 4, 0, 1,
110, 2203, 21, 0, 0, 0, 0, 4, 4, 0, 1,
144, 2107, 23, 0, 0, 0, 0, 6, 4, 0, 1,
162, 2103, 23, 0, 0, 0, 0, 6, 4, 0, 1,
180, 2115, 23, 0, 0, 0, 0, 6, 4, 0, 1,
218, 2218, 23, 0, -10, 4, 0, 4, 4, 0, 1