0, 1460, 24, 0, -8, 6, 0, 6, 4, 0, 1,
100, 1144, 23, 0, 0, 6, 0, 6, 4, 0, 1,
104, 1160, 22, 0, 0, 6, 0, 4, 4, 0, 1,
108, 1550, 24, 0, 0, 0, 0, 6, 4, 0, 1,
204, 1187, 24, 0, 0, 0, 0, 6, 4, 0, 1,
208, 1140, 23, 0, 0, 0, 1, 6, 4, 0, 1,
212, 1172, 22, 0, 0, 0, 0, 4, 4, 0, 1,
216, 1608, 22, 0, -29, 4, 0, 4, 4, 0, 1