4, 2710, 14, 0, 0, 6, 0, 4, 4, 0, 1,
38, 2752, 15, 0, 0, 6, 0, 4, 4, 0, 1,
74, 2761, 15, 0, 0, 6, 0, 4, 4, 0, 1,
146, 2745, 12, 0, 0, 0, 0, 4, 4, 0, 1,
164, 2763, 15, 0, 0, 0, 0, 4, 4, 0, 1,
182, 2768, 15, 0, 0, 0, 0, 4, 4, 0, 1,
220, 2687, 17, 0, 4, 6, 0, 4, 4, 0, 1,
221, 2702, 17, 0, -25, 4, 0, 4, 4, 0, 1