18, 3170, 9, 0, 0, 6, 0, 4, 4, 0, 1,
38, 3192, 10, 0, 0, 6, 0, 4, 4, 0, 1,
56, 3192, 10, 0, 0, 6, 0, 4, 4, 0, 1,
74, 3184, 10, 0, 0, 6, 0, 4, 4, 0, 1,
146, 3194, 12, 0, 0, 0, 0, 4, 4, 0, 1,
164, 3189, 11, 0, 0, 0, 0, 4, 4, 0, 1,
182, 3189, 11, 0, 0, 0, -1, 4, 4, 0, 1,
222, 3161, 12, 0, 2, 6, 0, 4, 4, 0, 1