8, 2476, 74, 0, -4, 6, 0, 1, 4, 0, 1,
44, 2404, 72, 0, 0, 6, 0, 1, 4, 0, 1,
45, 2344, 72, 0, -12, 6, 0, 1, 4, 0, 1,
62, 2424, 72, 0, 0, 6, 0, 1, 4, 0, 1,
80, 2456, 71, 0, 4, 6, 0, 1, 4, 0, 1,
116, 2474, 71, 0, 0, 0, 1, 1, 4, 0, 1,
152, 2408, 78, 0, 0, 0, 1, 1, 4, 0, 1,
170, 2436, 71, 0, 0, 0, 1, 1, 4, 0, 1,
188, 2455, 74, 0, 0, 0, 0, 1, 4, 0, 1