18, 3687, 51, 0, -4, 6, 0, 2, 4, 0, 1,
24, 3572, 51, 0, -4, 6, 0, 2, 4, 0, 1,
66, 3472, 50, 0, 0, 6, 0, 3, 4, 0, 1,
84, 3476, 49, 0, -4, 6, 0, 2, 4, 0, 1,
126, 3715, 52, 0, 0, 0, 0, 2, 4, 0, 1,
132, 3552, 56, 0, 0, 0, 1, 3, 4, 0, 1,
156, 3495, 55, 0, 0, 0, 2, 1, 4, 0, 1,
174, 3467, 50, 0, 0, 0, 0, 3, 4, 0, 1