0, 1490, 40, 0, -12, 6, 0, 2, 4, 0, 1,
96, 1080, 39, 0, 0, 6, 0, 2, 4, 0, 1,
100, 1080, 39, 0, 0, 6, 0, 2, 4, 0, 1,
108, 1612, 42, 0, 0, 0, 0, 2, 4, 0, 1,
168, 1329, 41, 0, 0, 0, 1, 2, 4, 0, 1,
204, 1110, 40, 0, 0, 0, 0, 2, 4, 0, 1,
210, 1105, 41, 0, 0, 0, 1, 2, 4, 0, 1,
214, 1142, 44, 0, 0, 0, 1, 2, 4, 0, 1