18, 3610, 24, 0, -8, 6, 0, 6, 4, 0, 1,
38, 3248, 24, 0, -4, 6, 0, 6, 4, 0, 1,
56, 3280, 23, 0, 0, 6, 0, 6, 4, 0, 1,
74, 3368, 23, 0, 0, 6, 0, 6, 4, 0, 1,
126, 3658, 26, 0, 0, 0, 0, 6, 4, 0, 1,
146, 3260, 24, 0, 0, 0, 0, 6, 4, 0, 1,
164, 3303, 23, 0, 0, 0, 1, 6, 4, 0, 1,
182, 3397, 24, 0, 0, 0, 0, 6, 4, 0, 1