28, 4400, 72, 0, -8, 6, 0, 1, 4, 0, 1,
52, 4332, 70, 0, 4, 6, 0, 1, 4, 0, 1,
136, 4385, 71, 0, 0, 0, 1, 1, 4, 0, 1,
158, 4301, 77, 0, 0, 0, 3, 1, 4, 0, 1,
178, 4592, 71, 0, 0, 0, -1, 1, 4, 0, 1,
196, 4836, 64, 0, 0, 0, 0, 1, 4, 0, 1