18, 3697, 18, 0, 4, 6, 0, 4, 4, 0, 1,
20, 3744, 18, 0, 4, 6, 0, 4, 4, 0, 1,
40, 4128, 18, 0, 4, 6, 0, 4, 4, 0, 1,
58, 4200, 18, 0, -4, 6, 0, 4, 4, 0, 1,
76, 4208, 18, 0, 0, 6, 0, 4, 4, 0, 1,
126, 3663, 18, 0, 0, 0, 0, 4, 4, 0, 1,
148, 4061, 18, 0, 0, 0, 0, 4, 4, 0, 1,
166, 4213, 17, 0, 0, 0, 0, 4, 4, 0, 1,
184, 4200, 19, 0, 0, 0, -1, 4, 4, 0, 1,
222, 3617, 23, 0, 27, 6, 0, 4, 4, 0, 1