24, 3257, 55, 0, -4, 6, 0, 1, 4, 0, 1,
66, 3144, 54, 0, 0, 6, 0, 3, 4, 0, 1,
84, 3140, 53, 0, 0, 6, 0, 3, 4, 0, 1,
156, 3176, 56, 0, 0, 0, 1, 1, 4, 0, 1,
174, 3148, 50, 0, 0, 0, 0, 3, 4, 0, 1,
192, 3148, 54, 0, 0, 0, 0, 3, 4, 0, 1