20, 4033, 33, 0, -4, 6, 0, 2, 4, 0, 1,
40, 3920, 34, 0, 4, 6, 0, 2, 4, 0, 1,
58, 3904, 34, 0, -4, 6, 0, 2, 4, 0, 1,
128, 4063, 32, 0, 0, 0, 0, 2, 4, 0, 1,
148, 3929, 35, 0, 0, 0, 0, 2, 4, 0, 1,
166, 3900, 34, 0, 0, 0, 0, 2, 4, 0, 1,
194, 3898, 35, 0, 0, 0, 1, 2, 4, 0, 1