22, 4510, 25, 0, -8, 6, 0, 6, 4, 0, 1,
40, 4144, 24, 0, 0, 6, 0, 6, 4, 0, 1,
58, 4168, 23, 0, 0, 6, 0, 6, 4, 0, 1,
76, 4296, 23, 0, 4, 6, 0, 6, 4, 0, 1,
130, 4552, 25, 0, 0, 0, 0, 6, 4, 0, 1,
148, 4156, 24, 0, 0, 0, 0, 6, 4, 0, 1,
166, 4188, 24, 0, 0, 0, 0, 6, 4, 0, 1,
184, 4326, 24, 0, 0, 0, 0, 6, 4, 0, 1