4, 2950, 14, 0, 0, 6, 0, 4, 4, 0, 1,
38, 2736, 15, 0, -4, 6, 0, 4, 4, 0, 1,
56, 2664, 14, 0, 0, 6, 0, 4, 4, 0, 1,
74, 2640, 14, 0, 0, 6, 0, 4, 4, 0, 1,
146, 2756, 13, 0, 0, 0, 0, 4, 4, 0, 1,
164, 2645, 15, 0, 0, 0, -1, 4, 4, 0, 1,
182, 2633, 15, 0, 0, 0, -2, 4, 4, 0, 1,
220, 3054, 17, 0, -22, 6, 0, 4, 4, 0, 1