90, 870, 47, 46, -4, 6, 0, 2, 4, 0, 1,
91, 870, 47, 46, -4, 6, 0, 2, 4, 0, 1,
96, 840, 48, 0, 0, 6, 0, 2, 4, 0, 1,
102, 836, 47, 0, 0, 6, 0, 2, 4, 0, 1,
106, 836, 48, 0, 0, 6, 0, 2, 4, 0, 1,
198, 863, 51, 0, 0, 0, 0, 2, 4, 0, 1,
199, 858, 45, 0, 0, 0, 0, 2, 4, 0, 1,
200, 841, 56, 0, 0, 0, 2, 3, 4, 0, 1,
210, 832, 50, 0, 0, 0, 0, 3, 4, 0, 1,
214, 832, 44, 0, 0, 0, -1, 2, 4, 0, 1