26, 4292, 58, 0, 0, 6, 0, 1, 4, 0, 1,
52, 4340, 57, 0, 4, 6, 0, 1, 4, 0, 1,
70, 4360, 57, 0, 0, 6, 0, 1, 4, 0, 1,
88, 4360, 58, 0, 0, 6, 0, 1, 4, 0, 1,
134, 4293, 53, 0, 0, 0, 0, 3, 4, 0, 1,
160, 4329, 56, 0, 0, 0, -1, 1, 4, 0, 1,
178, 4367, 60, 0, 0, 0, 2, 1, 4, 0, 1