0, 1902, 46, 0, 4, 6, 0, 2, 4, 0, 1,
36, 2152, 46, 0, 0, 6, 0, 2, 4, 0, 1,
80, 2112, 45, 0, 0, 6, 0, 2, 4, 0, 1,
108, 1818, 47, 0, 0, 0, 0, 2, 4, 0, 1,
116, 2022, 56, 0, 0, 0, 1, 3, 4, 0, 1,
144, 2130, 45, 0, 0, 0, 0, 2, 4, 0, 1,
170, 2135, 50, 0, 0, 0, 0, 3, 4, 0, 1,
188, 2098, 44, 0, 0, 0, 0, 2, 4, 0, 1