40, 4640, 18, 17, -4, 6, 0, 4, 4, 0, 1,
41, 4720, 18, 17, 12, 6, 0, 4, 4, 0, 1,
58, 4592, 18, 0, 0, 6, 0, 4, 4, 0, 1,
76, 4576, 17, 0, 0, 6, 0, 4, 4, 0, 1,
148, 4667, 18, 0, 0, 0, 0, 4, 4, 0, 1,
166, 4577, 18, 0, 0, 0, 0, 4, 4, 0, 1,
167, 4521, 17, 0, 0, 0, 0, 4, 4, 0, 1,
184, 4572, 17, 0, 0, 0, 0, 4, 4, 0, 1