18, 3286, 37, 0, 4, 6, 0, 2, 4, 0, 1,
38, 3608, 38, 0, 0, 6, 0, 2, 4, 0, 1,
56, 3616, 39, 0, 0, 6, 0, 2, 4, 0, 1,
84, 3584, 39, 0, 0, 6, 0, 2, 4, 0, 1,
126, 3247, 40, 0, 0, 0, 0, 2, 4, 0, 1,
146, 3582, 40, 0, 0, 0, 0, 2, 4, 0, 1,
174, 3608, 41, 0, 0, 0, 0, 2, 4, 0, 1,
192, 3580, 44, 0, 0, 0, 2, 2, 4, 0, 1