2, 2234, 23, 0, 4, 6, 0, 4, 4, 0, 1,
38, 2592, 24, 0, 4, 6, 0, 6, 4, 0, 1,
56, 2664, 24, 0, 0, 6, 0, 6, 4, 0, 1,
74, 2664, 24, 0, -4, 6, 0, 6, 4, 0, 1,
110, 2195, 25, 0, 0, 0, 0, 6, 4, 0, 1,
146, 2577, 24, 0, 0, 0, 0, 6, 4, 0, 1,
182, 2662, 24, 0, 0, 0, -1, 6, 4, 0, 1