20, 4231, 39, 0, -4, 6, 0, 2, 4, 0, 1,
40, 4104, 39, 0, 0, 6, 0, 2, 4, 0, 1,
58, 4080, 39, 0, -12, 6, 0, 2, 4, 0, 1,
128, 4268, 42, 0, 0, 0, 0, 2, 4, 0, 1,
148, 4111, 40, 0, 0, 0, 0, 2, 4, 0, 1,
176, 4086, 41, 0, 0, 0, 2, 2, 4, 0, 1,
194, 4114, 35, 0, 0, 0, 0, 2, 4, 0, 1