96, 312, 11, 0, -4, 6, 0, 4, 4, 0, 1,
100, 296, 12, 0, 0, 6, 0, 4, 4, 0, 1,
104, 312, 12, 0, 4, 6, 0, 4, 4, 0, 1,
204, 327, 12, 0, 0, 0, 0, 4, 4, 0, 1,
208, 301, 13, 0, 0, 0, 0, 4, 4, 0, 1,
212, 313, 12, 0, 0, 0, 0, 4, 4, 0, 1