28, 4804, 74, 0, 0, 6, 0, 1, 4, 0, 1,
52, 4772, 73, 0, 0, 6, 0, 1, 4, 0, 1,
70, 4764, 73, 0, 0, 6, 0, 1, 4, 0, 1,
88, 4764, 74, 0, 4, 6, 0, 1, 4, 0, 1,
136, 4808, 71, 0, 0, 0, 0, 1, 4, 0, 1,
160, 4770, 78, 0, 0, 0, -1, 1, 4, 0, 1,
178, 4770, 71, 0, 0, 0, 1, 1, 4, 0, 1,
196, 4770, 74, 0, 0, 0, -1, 1, 4, 0, 1