38, 3312, 16, 0, 0, 6, 0, 4, 4, 0, 1,
56, 3304, 14, 0, -4, 6, 0, 4, 4, 0, 1,
74, 3128, 12, 0, -4, 6, 0, 4, 4, 0, 1,
112, 2898, 17, 0, 0, 0, 0, 4, 4, 0, 1,
146, 3296, 18, 0, 0, 0, 0, 4, 4, 0, 1,
164, 3277, 13, 0, 0, 0, -1, 4, 4, 0, 1,
182, 3082, 11, 0, 0, 0, -1, 4, 4, 0, 1,
220, 2837, 22, 0, 34, 6, 0, 4, 4, 0, 1