22, 4745, 21, 0, -4, 6, 0, 4, 4, 0, 1,
40, 4512, 19, 18, 4, 6, 0, 4, 4, 0, 1,
41, 4560, 19, 18, -12, 6, 0, 4, 4, 0, 1,
58, 4488, 19, 0, 4, 6, 0, 4, 4, 0, 1,
130, 4777, 21, 0, 0, 0, 0, 4, 4, 0, 1,
148, 4506, 23, 0, 0, 0, 0, 6, 4, 0, 1,
149, 4491, 23, 0, 0, 0, 0, 6, 4, 0, 1,
166, 4502, 19, 0, 0, 0, 1, 4, 4, 0, 1,
184, 4534, 19, 0, 0, 0, -1, 4, 4, 0, 1,
226, 4820, 23, 0, -26, 6, 0, 4, 4, 0, 1