0, 1602, 32, 0, 0, 6, 0, 2, 4, 0, 1,
36, 1504, 32, 0, 0, 6, 0, 2, 4, 0, 1,
54, 1488, 33, 0, 0, 6, 0, 2, 4, 0, 1,
72, 1488, 32, 0, 0, 6, 0, 2, 4, 0, 1,
108, 1631, 32, 0, 0, 0, 0, 2, 4, 0, 1,
144, 1509, 35, 0, 0, 0, 0, 2, 4, 0, 1,
162, 1481, 33, 0, 0, 0, -1, 2, 4, 0, 1,
186, 1488, 35, 0, 0, 0, 1, 2, 4, 0, 1