22, 4557, 12, 0, -4, 6, 0, 4, 4, 0, 1,
40, 4336, 12, 0, 0, 6, 0, 4, 4, 0, 1,
58, 4312, 12, 0, 0, 6, 0, 4, 4, 0, 1,
76, 4312, 12, 0, 0, 6, 0, 4, 4, 0, 1,
148, 4345, 12, 0, 0, 0, 0, 4, 4, 0, 1,
166, 4307, 12, 0, 0, 0, 1, 4, 4, 0, 1,
184, 4307, 12, 0, 0, 0, 0, 4, 4, 0, 1,
226, 4625, 13, 0, -26, 4, 0, 4, 4, 0, 1