20, 3814, 28, 0, 4, 6, 0, 2, 4, 0, 1,
40, 4232, 26, 0, 4, 6, 0, 2, 4, 0, 1,
58, 4208, 24, 0, -4, 6, 0, 6, 4, 0, 1,
126, 3701, 30, 0, 0, 0, 0, 2, 4, 0, 1,
166, 4169, 25, 0, 0, 0, 0, 6, 4, 0, 1,
184, 3937, 24, 0, 0, 0, 0, 6, 4, 0, 1