0, 1457, 11, 0, 4, 6, 0, 4, 4, 0, 1,
36, 1704, 9, 0, 0, 6, 0, 4, 4, 0, 1,
54, 1736, 7, 0, -4, 6, 0, 4, 4, 0, 1,
72, 1704, 6, 0, 0, 6, 0, 4, 4, 0, 1,
144, 1687, 7, 0, 0, 0, 0, 4, 4, 0, 1,
162, 1719, 7, 0, 0, 0, -1, 4, 4, 0, 1,
180, 1701, 6, 0, 0, 0, 1, 4, 4, 0, 1,
216, 1326, 12, 0, 29, 5, 0, 4, 4, 0, 1