10, 3092, 57, 0, 0, 6, 0, 1, 4, 0, 1,
46, 3076, 56, 0, 0, 6, 0, 1, 4, 0, 1,
64, 3076, 56, 0, 0, 6, 0, 1, 4, 0, 1,
82, 3072, 56, 0, 0, 6, 0, 1, 4, 0, 1,
118, 3102, 53, 0, 0, 0, -1, 3, 4, 0, 1,
154, 3083, 55, 0, 0, 0, -1, 1, 4, 0, 1,
172, 3073, 60, 0, 0, 0, -1, 1, 4, 0, 1,
190, 3073, 53, 0, 0, 0, -2, 3, 4, 0, 1