10, 2592, 62, 0, -4, 6, 0, 1, 4, 0, 1,
44, 2532, 60, 0, 0, 6, 0, 1, 4, 0, 1,
46, 2528, 61, 0, -4, 6, 0, 1, 4, 0, 1,
64, 2532, 61, 0, 0, 6, 0, 1, 4, 0, 1,
82, 2552, 61, 0, 0, 6, 0, 1, 4, 0, 1,
154, 2529, 66, 0, 0, 0, 0, 1, 4, 0, 1,
172, 2539, 60, 0, 0, 0, 0, 1, 4, 0, 1,
190, 2567, 64, 0, 0, 0, 0, 1, 4, 0, 1