0, 1770, 34, 0, 8, 6, 0, 2, 4, 0, 1,
36, 2040, 34, 0, 0, 6, 0, 2, 4, 0, 1,
54, 2040, 34, 0, -4, 6, 0, 2, 4, 0, 1,
108, 1677, 37, 0, 0, 0, 0, 2, 4, 0, 1,
144, 2035, 34, 0, 0, 0, 0, 2, 4, 0, 1,
162, 2040, 33, 0, 0, 0, 0, 2, 4, 0, 1,
188, 1985, 35, 0, 0, 0, 2, 2, 4, 0, 1