18, 3669, 12, 0, 4, 6, 0, 4, 4, 0, 1,
20, 3724, 12, 0, 4, 6, 0, 4, 4, 0, 1,
40, 4008, 13, 0, 0, 6, 0, 4, 4, 0, 1,
76, 3992, 16, 16, 4, 6, 0, 4, 4, 0, 1,
77, 3992, 16, 16, 4, 6, 0, 4, 4, 0, 1,
148, 3997, 13, 0, 0, 0, 0, 4, 4, 0, 1,
166, 3950, 15, 0, 0, 0, 0, 4, 4, 0, 1,
184, 4037, 17, 0, 0, 0, 0, 4, 4, 0, 1,
185, 3887, 16, 0, 0, 0, 1, 4, 4, 0, 1,
222, 3581, 13, 0, 32, 6, 0, 4, 4, 0, 1