2, 2457, 23, 0, -4, 6, 0, 4, 4, 0, 1,
36, 2152, 23, 0, 0, 6, 0, 6, 4, 0, 1,
54, 2144, 24, 0, 4, 6, 0, 6, 4, 0, 1,
110, 2493, 26, 0, 0, 0, 0, 6, 4, 0, 1,
144, 2158, 24, 0, 0, 0, 0, 6, 4, 0, 1,
162, 2146, 24, 0, 0, 0, 0, 6, 4, 0, 1,
180, 2172, 24, 0, 0, 0, 0, 6, 4, 0, 1,
220, 2537, 22, 0, -25, 5, 0, 4, 4, 0, 1