18, 3557, 17, 0, 0, 6, 0, 4, 4, 0, 1,
19, 3477, 16, 0, 15, 6, 0, 4, 4, 0, 1,
38, 3496, 18, 0, 0, 6, 0, 4, 4, 0, 1,
56, 3496, 18, 0, 0, 6, 0, 4, 4, 0, 1,
74, 3528, 17, 0, 0, 6, 0, 4, 4, 0, 1,
126, 3565, 18, 0, 0, 0, 0, 4, 4, 0, 1,
146, 3498, 19, 0, 0, 0, 0, 4, 4, 0, 1,
164, 3514, 19, 0, 0, 0, 0, 4, 4, 0, 1,
182, 3540, 18, 0, 0, 0, 0, 4, 4, 0, 1,
222, 3572, 17, 0, -6, 6, 0, 4, 4, 0, 1