40, 4576, 12, 0, 4, 6, 0, 4, 4, 0, 1,
58, 4608, 12, 0, 0, 6, 0, 4, 4, 0, 1,
76, 4616, 11, 0, 0, 6, 0, 4, 4, 0, 1,
148, 4545, 12, 0, 0, 0, 0, 4, 4, 0, 1,
166, 4627, 12, 0, 0, 0, 0, 4, 4, 0, 1,
184, 4609, 11, 0, 0, 0, 1, 4, 4, 0, 1,
224, 4210, 17, 0, 23, 6, 0, 4, 4, 0, 1