0, 1429, 21, 0, 4, 6, 0, 4, 4, 0, 1,
54, 1552, 22, 0, 0, 6, 0, 4, 4, 0, 1,
72, 1544, 22, 0, 0, 6, 0, 4, 4, 0, 1,
108, 1406, 21, 0, 0, 0, 0, 4, 4, 0, 1,
144, 1526, 24, 0, 0, 0, 0, 6, 4, 0, 1,
162, 1550, 22, 0, 0, 0, 0, 4, 4, 0, 1,
180, 1537, 22, 0, 0, 0, 1, 4, 4, 0, 1,
216, 1389, 22, 0, 10, 6, 0, 4, 4, 0, 1