18, 3423, 34, 0, 12, 6, 0, 2, 4, 0, 1,
40, 3888, 32, 0, 0, 6, 0, 2, 4, 0, 1,
56, 3729, 32, 0, -8, 6, 0, 2, 4, 0, 1,
74, 3496, 32, 0, -4, 6, 0, 2, 4, 0, 1,
126, 3356, 35, 0, 0, 0, 0, 2, 4, 0, 1,
164, 3615, 33, 0, 0, 0, 1, 2, 4, 0, 1,
192, 3401, 35, 0, 0, 0, 0, 2, 4, 0, 1