24, 3340, 52, 0, -4, 6, 0, 3, 4, 0, 1,
66, 3284, 52, 0, 0, 6, 0, 3, 4, 0, 1,
126, 3417, 51, 0, 0, 0, 0, 2, 4, 0, 1,
132, 3345, 56, 0, 0, 0, 1, 3, 4, 0, 1,
156, 3307, 55, 0, 0, 0, -1, 1, 4, 0, 1,
174, 3279, 50, 0, 0, 0, 1, 3, 4, 0, 1,
192, 3288, 53, 0, 0, 0, 0, 3, 4, 0, 1