96, 992, 27, 0, 4, 6, 0, 2, 4, 0, 1,
100, 1024, 26, 0, 0, 6, 0, 2, 4, 0, 1,
104, 1008, 26, 0, -4, 6, 0, 2, 4, 0, 1,
204, 961, 29, 0, 0, 0, 0, 2, 4, 0, 1,
208, 1022, 27, 0, 0, 0, -1, 2, 4, 0, 1,
212, 978, 26, 0, 0, 0, 0, 2, 4, 0, 1