2, 2197, 4, 0, -4, 6, 0, 4, 4, 0, 1,
36, 2072, 7, 0, 0, 6, 0, 4, 4, 0, 1,
54, 2064, 7, 0, 0, 6, 0, 4, 4, 0, 1,
144, 2078, 7, 0, 0, 0, 0, 4, 4, 0, 1,
162, 2064, 7, 0, 0, 0, 0, 4, 4, 0, 1,
180, 2077, 6, 0, 0, 0, -1, 4, 4, 0, 1,
218, 2244, 9, 0, -16, 6, 0, 4, 4, 0, 1