24, 3256, 58, 0, -8, 6, 0, 1, 4, 0, 1,
64, 3052, 54, 0, 0, 6, 0, 3, 4, 0, 1,
82, 3096, 51, 0, 4, 6, 0, 3, 4, 0, 1,
84, 3112, 51, 0, 0, 6, 0, 3, 4, 0, 1,
154, 3092, 55, 0, 0, 0, -1, 1, 4, 0, 1,
172, 3073, 50, 0, 0, 0, -2, 3, 4, 0, 1,
192, 3129, 54, 0, 0, 0, 2, 3, 4, 0, 1