20, 4099, 28, 0, -4, 6, 0, 2, 4, 0, 1,
40, 4008, 28, 0, 0, 6, 0, 2, 4, 0, 1,
76, 3976, 28, 0, 0, 6, 0, 2, 4, 0, 1,
128, 4119, 28, 0, 0, 0, 0, 2, 4, 0, 1,
148, 4010, 30, 0, 0, 0, 0, 2, 4, 0, 1,
166, 3968, 28, 0, 0, 0, -2, 2, 4, 0, 1,
184, 3974, 28, 0, 0, 0, 0, 2, 4, 0, 1