18, 3646, 38, 36, 4, 6, 0, 2, 4, 0, 1,
19, 3611, 38, 36, -12, 6, 0, 2, 4, 0, 1,
40, 3848, 37, 0, 4, 6, 0, 2, 4, 0, 1,
58, 3856, 37, 0, 0, 6, 0, 2, 4, 0, 1,
126, 3623, 40, 0, 0, 0, 0, 2, 4, 0, 1,
148, 3838, 40, 0, 0, 0, 0, 2, 4, 0, 1,
176, 3860, 41, 0, 0, 0, 1, 2, 4, 0, 1,
194, 3823, 35, 0, 0, 0, 1, 2, 4, 0, 1