2, 2297, 9, 0, 0, 6, 0, 4, 4, 0, 1,
36, 1984, 10, 0, 0, 6, 0, 4, 4, 0, 1,
54, 1976, 10, 0, 0, 6, 0, 4, 4, 0, 1,
72, 2016, 10, 0, 0, 6, 0, 4, 4, 0, 1,
162, 1995, 10, 0, 0, 0, 1, 4, 4, 0, 1,
180, 2039, 11, 0, 0, 0, 1, 4, 4, 0, 1,
218, 2344, 13, 0, -24, 6, 0, 4, 4, 0, 1