96, 680, 6, 0, 0, 6, 0, 4, 4, 0, 1,
100, 680, 6, 0, 0, 6, 0, 4, 4, 0, 1,
204, 685, 7, 0, 0, 0, 0, 4, 4, 0, 1,
208, 676, 6, 0, 0, 0, 0, 4, 4, 0, 1,
212, 676, 6, 0, 0, 0, 0, 4, 4, 0, 1,
228, 759, 8, 0, -6, 6, 0, 4, 4, 0, 1