22, 4744, 50, 0, 4, 6, 0, 2, 4, 0, 1,
28, 4792, 51, 0, 0, 6, 0, 2, 4, 0, 1,
70, 4836, 51, 0, 0, 6, 0, 3, 4, 0, 1,
130, 4736, 51, 0, 0, 0, 0, 2, 4, 0, 1,
136, 4799, 56, 0, 0, 0, 1, 3, 4, 0, 1,
160, 4817, 55, 0, 0, 0, 2, 1, 4, 0, 1,
178, 4845, 50, 0, 0, 0, -1, 3, 4, 0, 1