90, 1124, 50, 0, 8, 6, 0, 2, 4, 0, 1,
91, 1074, 50, 0, 4, 6, 0, 2, 4, 0, 1,
92, 1000, 53, 50, 0, 6, 0, 3, 4, 0, 1,
93, 1052, 53, 50, -4, 6, 0, 3, 4, 0, 1,
102, 1064, 52, 0, 0, 6, 0, 3, 4, 0, 1,
106, 1064, 53, 0, 0, 6, 0, 3, 4, 0, 1,
198, 1036, 51, 0, 0, 0, 0, 2, 4, 0, 1,
199, 1044, 51, 0, 0, 0, 0, 2, 4, 0, 1,
200, 1001, 56, 0, 0, 0, 1, 3, 4, 0, 1,
201, 1048, 56, 0, 0, 0, 0, 3, 4, 0, 1,
206, 1067, 55, 0, 0, 0, 2, 1, 4, 0, 1,
210, 1067, 50, 0, 0, 0, 0, 3, 4, 0, 1,
214, 1067, 53, 0, 0, 0, 0, 3, 4, 0, 1