4, 2741, 41, 0, 12, 6, 0, 2, 4, 0, 1,
38, 3160, 37, 0, 0, 6, 0, 2, 4, 0, 1,
56, 3040, 32, 0, 0, 6, 0, 2, 4, 0, 1,
74, 2888, 29, 0, -4, 6, 0, 2, 4, 0, 1,
112, 2591, 42, 0, 0, 0, 0, 2, 4, 0, 1,
146, 3163, 40, 0, 0, 0, 0, 2, 4, 0, 1,
164, 3013, 31, 0, 0, 0, 0, 2, 4, 0, 1,
182, 2862, 29, 0, 0, 0, 1, 2, 4, 0, 1