20, 4283, 25, 0, 0, 6, 0, 6, 4, 0, 1,
40, 4328, 26, 0, 0, 6, 0, 2, 4, 0, 1,
58, 4336, 25, 0, -4, 6, 0, 6, 4, 0, 1,
128, 4268, 24, 0, 0, 0, 0, 6, 4, 0, 1,
166, 4339, 26, 0, 0, 0, 0, 2, 4, 0, 1,
184, 4339, 25, 0, 0, 0, 1, 6, 4, 0, 1