24, 3219, 56, 0, -8, 6, 0, 1, 4, 0, 1,
64, 3072, 54, 0, 0, 6, 0, 3, 4, 0, 1,
82, 3068, 54, 0, 0, 6, 0, 3, 4, 0, 1,
132, 3204, 56, 0, 0, 0, 1, 3, 4, 0, 1,
154, 3111, 55, 0, 0, 0, -1, 1, 4, 0, 1,
172, 3083, 50, 0, 0, 0, -1, 3, 4, 0, 1,
190, 3073, 53, 0, 0, 0, -1, 3, 4, 0, 1