2, 2375, 49, 47, 0, 6, 0, 2, 4, 0, 1,
3, 2375, 49, 47, 0, 6, 0, 2, 4, 0, 1,
8, 2376, 49, 0, 0, 6, 0, 2, 4, 0, 1,
62, 2372, 49, 0, 0, 6, 0, 2, 4, 0, 1,
80, 2372, 49, 0, 0, 6, 0, 2, 4, 0, 1,
110, 2374, 51, 0, 0, 0, 0, 2, 4, 0, 1,
116, 2380, 56, 0, 0, 0, 1, 3, 4, 0, 1,
170, 2380, 50, 0, 0, 0, 0, 3, 4, 0, 1,
188, 2370, 53, 0, 0, 0, 1, 3, 4, 0, 1