0, 1760, 29, 0, -4, 6, 0, 2, 4, 0, 1,
36, 1608, 30, 0, 0, 6, 0, 2, 4, 0, 1,
54, 1568, 30, 0, 0, 6, 0, 2, 4, 0, 1,
72, 1560, 30, 0, 0, 6, 0, 2, 4, 0, 1,
108, 1809, 33, 0, 0, 0, 0, 2, 4, 0, 1,
144, 1617, 30, 0, 0, 0, 0, 2, 4, 0, 1,
162, 1581, 31, 0, 0, 0, 0, 2, 4, 0, 1