20, 3911, 44, 0, 8, 6, 0, 2, 4, 0, 1,
40, 4240, 43, 0, 0, 6, 0, 2, 4, 0, 1,
86, 4196, 42, 0, 0, 6, 0, 2, 4, 0, 1,
128, 3806, 47, 0, 0, 0, 0, 2, 4, 0, 1,
134, 4142, 53, 0, 0, 0, 1, 3, 4, 0, 1,
148, 4221, 45, 0, 0, 0, 0, 2, 4, 0, 1,
176, 4227, 41, 0, 0, 0, -1, 2, 4, 0, 1,
194, 4170, 44, 0, 0, 0, 0, 2, 4, 0, 1