8, 2304, 54, 0, 4, 6, 0, 3, 4, 0, 1,
62, 2356, 53, 0, 0, 6, 0, 3, 4, 0, 1,
80, 2356, 54, 0, 0, 6, 0, 3, 4, 0, 1,
116, 2305, 56, 0, 0, 0, 0, 3, 4, 0, 1,
152, 2342, 55, 0, 0, 0, -1, 1, 4, 0, 1,
170, 2361, 50, 0, 0, 0, -1, 3, 4, 0, 1,
188, 2361, 53, 0, 0, 0, 0, 3, 4, 0, 1