4, 2792, 29, 0, 0, 6, 0, 2, 4, 0, 1,
38, 2824, 30, 0, 0, 6, 0, 2, 4, 0, 1,
56, 2824, 30, 0, 0, 6, 0, 2, 4, 0, 1,
74, 2832, 30, 0, 0, 6, 0, 2, 4, 0, 1,
112, 2785, 28, 0, 0, 0, 0, 2, 4, 0, 1,
146, 2817, 29, 0, 0, 0, 0, 2, 4, 0, 1,
164, 2824, 30, 0, 0, 0, 0, 2, 4, 0, 1