0, 1470, 29, 0, -4, 6, 0, 2, 4, 0, 1,
36, 1320, 28, 0, 0, 6, 0, 2, 4, 0, 1,
54, 1296, 27, 0, 0, 6, 0, 2, 4, 0, 1,
96, 1312, 28, 0, 0, 6, 0, 2, 4, 0, 1,
100, 1288, 27, 0, 0, 6, 0, 2, 4, 0, 1,
104, 1288, 27, 28, 4, 6, 0, 2, 4, 0, 1,
105, 1288, 27, 28, 4, 6, 0, 2, 4, 0, 1,
108, 1514, 28, 0, 0, 0, 0, 2, 4, 0, 1,
144, 1334, 30, 0, 0, 0, 0, 2, 4, 0, 1,
204, 1333, 30, 0, 0, 0, 0, 2, 4, 0, 1,
208, 1288, 28, 0, 0, 0, 0, 2, 4, 0, 1,
212, 1277, 26, 0, 0, 0, 2, 2, 4, 0, 1