90, 1057, 5, 0, 0, 6, 0, 4, 4, 0, 1,
96, 912, 8, 0, 0, 6, 0, 4, 4, 0, 1,
100, 888, 8, 0, 0, 6, 0, 4, 4, 0, 1,
104, 864, 8, 0, 0, 6, 0, 4, 4, 0, 1,
204, 925, 7, 0, 0, 0, 0, 4, 4, 0, 1,
208, 877, 8, 0, 0, 0, -1, 4, 4, 0, 1,
212, 864, 8, 0, 0, 0, 0, 4, 4, 0, 1,
228, 1096, 8, 0, -13, 6, 0, 4, 4, 0, 1