40, 4592, 20, 0, 0, 6, 0, 4, 4, 0, 1,
58, 4328, 21, 0, -12, 6, 0, 4, 4, 0, 1,
128, 4252, 24, 0, 0, 0, 0, 6, 4, 0, 1,
148, 4615, 19, 0, 0, 0, 0, 4, 4, 0, 1,
166, 4263, 22, 0, 0, 0, 0, 4, 4, 0, 1,
184, 3968, 22, 0, 0, 0, -1, 4, 4, 0, 1,
224, 4175, 22, 0, 41, 6, 0, 4, 4, 0, 1