6, 1516, 70, 0, 0, 6, 0, 1, 4, 0, 1,
42, 1556, 69, 0, 0, 6, 0, 1, 4, 0, 1,
60, 1564, 69, 0, 0, 6, 0, 1, 4, 0, 1,
78, 1560, 70, 0, 0, 6, 0, 1, 4, 0, 1,
114, 1516, 68, 0, 0, 0, 0, 1, 4, 0, 1,
168, 1554, 71, 0, 0, 0, 1, 1, 4, 0, 1,
186, 1554, 74, 0, 0, 0, 1, 1, 4, 0, 1