28, 4620, 49, 0, -16, 6, 0, 2, 4, 0, 1,
40, 4440, 47, 0, 0, 6, 0, 2, 4, 0, 1,
70, 4524, 45, 0, 4, 6, 0, 2, 4, 0, 1,
88, 4648, 45, 0, 4, 6, 0, 2, 4, 0, 1,
136, 4601, 56, 0, 0, 0, 1, 3, 4, 0, 1,
196, 4686, 44, 0, 0, 0, 0, 2, 4, 0, 1