28, 4584, 87, 0, 0, 6, 0, 1, 4, 0, 1,
52, 4612, 86, 0, 0, 6, 0, 1, 4, 0, 1,
70, 4672, 83, 86, 15, 6, 0, 1, 4, 0, 1,
71, 4672, 83, 86, 15, 6, 0, 1, 4, 0, 1,
88, 4612, 87, 0, 0, 6, 0, 1, 4, 0, 1,
136, 4592, 82, 0, 0, 0, 0, 1, 4, 0, 1,
178, 4761, 82, 0, 0, 0, 1, 1, 4, 0, 1,
179, 4611, 82, 0, 0, 0, -1, 1, 4, 0, 1