97, 0, 8, -8, 0, 0, 0, -4, 0, 0, 14, 118, 1, 0, 2, 2, 0, 0, 0, 3, 0, 0, 0, 5, -4, 0, 0, 4, 0, -7, 6, 0, 6, 6, 0, 6, -544, 12, 56, 0, 
145, 0, 0, 40, 0, 0, 0, 7, 0, 0, 62, 166, 1, 0, 0, 2, 0, 0, 0, 2, 0, 0, 0, 5, -4, 0, 0, 4, 0, -7, 6, 0, 0, 6, 0, 6, -592, 12, 48, 0, 
225, 0, 0, 0, 0, 0, 0, 87, 0, 0, 0, 246, -1, 0, 0, 0, 0, 0, 0, 0, 0, 0, 0, 3, -4, 0, 0, 0, 0, -7, 6, 0, 0, 0, 0, 6, -672, 14, 39, 0, 
449, 0, 0, 0, 0, 0, 0, 0, 0, 0, 0, 470, 0, 0, 0, 0, 0, 0, 0, 0, 0, 0, 0, 4, -4, 0, 0, 0, 0, -7, 6, 0, 0, 0, 0, 6, -896, 13, 28, 0