0, -116, 8, 32, 40, 0, -6, 41, 41, 0, 0, 0, 0, 4, 2, 0, 0, 0, 5, -1, 3, 0, 0, 0, 0, 8, 0, -4, 0, 0, 0, 6, 6, 6, 6, 0, 1920, 61, 63, 0, 
0, 0, 0, 64, 72, 0, 26, 73, 73, 0, 0, 0, 0, 0, 0, 0, 0, 0, 5, -1, 3, 0, 0, 0, 0, 0, 0, -4, 0, 0, 0, 0, 0, 6, 6, 0, 1888, 61, 46, 0, 
0, 76, 0, 0, 232, 0, 0, 233, 233, 0, 0, 0, 0, 5, 0, 0, 1, 0, 0, 0, 4, 0, 0, 0, 0, 8, 0, 0, 0, 0, 0, 6, 0, 0, 6, 0, 1728, 60, 28, 0, 
0, 0, 0, 112, 120, 0, 0, 121, 121, 0, 0, 0, 0, 0, 0, 1, 1, 0, 0, 0, 4, 0, 0, 0, 0, 0, 0, -4, 0, 0, 0, 0, 0, 6, 6, 0, 1840, 60, 22, 0