0, 204, 0, 188, 188, 207, 0, 198, 0, 0, 0, 0, 0, 4, 0, 3, 4, 6, 0, 0, 0, 0, 0, 0, 0, 0, 0, 0, 0, 0, 0, 6, 0, 6, 6, 0, -656, 50, 61, 0, 
0, 44, 0, 28, 28, 47, 38, 38, 0, 0, 0, 0, 0, 4, 0, 3, 4, 6, 5, 0, 0, 0, 0, 0, 0, 0, 0, 0, 0, 0, 0, 6, 0, 6, 6, 0, -496, 50, 58, 0, 
0, 252, 0, 0, 236, 255, 0, 246, 0, 0, 0, 0, 0, 4, 0, 0, 4, 6, 0, 0, 0, 0, 0, 0, 0, 0, 0, 0, 0, 0, 0, 6, 0, 0, 6, 0, -704, 50, 53, 0, 
0, 156, 0, 140, 140, 159, 0, 150, 0, 0, 0, 0, 0, 4, 0, 3, 4, 6, 0, 0, 0, 0, 0, 0, 0, 0, 0, 0, 0, 0, 0, 6, 0, 6, 6, 0, -608, 50, 47, 0