203, 0, 8, -8, -8, 0, 0, -30, 0, 229, 23, 0, -1, 0, 0, 0, 1, 0, 0, 1, 0, 1, 1, 0, -4, 0, 0, 0, 0, 0, 6, 0, 6, 6, 6, 0, 720, 29, 63, 0, 
235, 0, 0, 24, 24, 0, 0, 2, 0, 261, 55, 0, -1, 0, 0, 0, 1, 0, 0, 1, 0, 1, 1, 0, -4, 0, 0, 0, 0, 0, 6, 0, 0, 6, 6, 0, 688, 29, 60, 0, 
395, 0, 0, 184, 184, 0, 0, 162, 0, 421, 0, 0, -1, 0, 0, 0, 1, 0, 0, 1, 0, 1, 0, 0, -4, 0, 0, 0, 0, 0, 6, 0, 0, 6, 6, 0, 528, 29, 49, 0, 
0, 0, 0, -88, -88, 0, 0, -110, 0, 0, 0, 0, 0, 0, 0, 0, 1, 0, 0, 1, 0, 0, 0, 0, 0, 0, 0, 0, 0, 0, 0, 0, 0, 6, 6, 0, 800, 29, 47, 0