-119, 0, 8, 0, 0, 0, 0, 0, 0, -167, 0, 0, 4, 0, 0, 0, 0, 0, 0, 0, 0, 3, 0, 0, 8, 0, -4, 0, 0, 0, 6, 0, 6, 0, 0, 0, 1072, 37, 36, 0, 
-139, 0, 0, 0, 0, 0, 0, 0, 0, -263, 22, 0, 5, 0, 0, 0, 0, 0, 0, 0, 0, 5, 0, 0, 12, 0, 0, 0, 0, 0, 6, 0, 0, 0, 0, 0, 1168, 35, 27, 0, 
57, 0, 0, 0, 0, 0, 0, 0, 0, 9, 0, 0, 1, 0, 0, 0, 0, 0, 0, 0, 0, 0, 0, 0, 8, 0, 0, 0, 0, 0, 6, 0, 0, 0, 0, 0, 896, 40, 10, 0, 
569, 0, 0, 0, 0, 0, 0, 0, 0, 521, 0, 0, 1, 0, 0, 0, 0, 0, 0, 0, 0, 0, 0, 0, 8, 0, 0, 0, 0, 0, 6, 0, 0, 0, 0, 0, 384, 40, 10, 0