-4, 0, 8, 8, 8, 0, 0, 8, 8, -3, -1, -5, -1, 0, 0, -1, 0, 0, 0, 0, 0, 3, 0, 0, 0, 0, -4, 0, 0, 2, 6, 0, 6, 6, 6, 6, 1776, 23, 63, 0, 
0, 0, 8, 0, 8, 0, 0, 8, 8, -3, -1, 0, 0, 0, 0, 0, 0, 0, 0, 0, 0, 3, 0, 0, 0, 0, -4, 0, 0, 0, 0, 0, 6, 0, 6, 0, 1776, 23, 53, 0, 
0, 0, -8, 56, 56, 0, 0, 56, 56, 0, 47, 0, 0, 0, 0, -1, 0, 0, 0, 0, 0, 0, 0, 0, 0, 0, -4, 0, 0, 0, 0, 0, 6, 6, 6, 0, 1728, 23, 50, 0, 
0, 0, -8, 0, 56, 0, 0, 56, 56, 0, 47, 0, 0, 0, 0, 0, 0, 0, 0, 0, 0, 0, 0, 0, 0, 0, -4, 0, 0, 0, 0, 0, 6, 0, 6, 0, 1728, 23, 44, 0