-147, 0, 8, 32, 24, 0, 0, 37, 24, 0, 6, -197, 0, 0, 0, 0, 0, 0, 0, 0, 1, 0, 3, 3, 0, 0, 0, 0, 0, 17, 6, 0, 6, 6, 6, 6, -240, 10, 63, 0, 
0, 0, 0, 112, 104, 0, 0, 117, 104, 0, 0, 0, 0, 0, 0, 0, 0, 0, 0, 0, 1, 0, 0, 0, 0, 0, 0, 0, 0, 0, 0, 0, 0, 6, 6, 0, -320, 10, 40, 0, 
45, 0, 0, 0, 0, 0, 0, 0, 0, 0, 0, -5, 0, 0, 0, 0, 0, 0, 0, 0, 0, 0, 0, 3, 0, 0, 0, 0, 0, 17, 6, 0, 0, 0, 0, 6, -432, 10, 28, 0, 
-371, 0, 0, 0, 0, 0, 0, 0, 0, 0, 0, -421, 0, 0, 0, 0, 0, 0, 0, 0, 0, 0, 0, 3, 0, 0, 0, 0, 0, 17, 6, 0, 0, 0, 0, 6, -16, 10, 28, 0