348, 0, 16, 0, 40, 0, 0, 34, 58, 452, 35, 0, 2, 0, 0, 0, 0, 0, 0, 0, 1, 3, -1, 0, -8, 0, -4, 0, 4, 0, 6, 0, 6, 6, 6, 0, -1408, 25, 63, 0, 
0, 0, 16, 0, 40, 0, 0, 34, 0, 0, 35, 0, 0, 0, 1, 1, 1, 0, 0, 1, 0, 0, 0, 0, 0, 0, -4, 0, 4, 0, 0, 0, 6, 6, 6, 0, -1408, 24, 50, 0, 
476, 0, 0, 128, 168, 0, 0, 162, 186, 580, 0, 0, 2, 0, 0, 0, 0, 0, 0, 0, 1, 3, 0, 0, -8, 0, 0, 0, 4, 0, 6, 0, 0, 6, 6, 0, -1536, 25, 49, 0, 
0, 0, 0, -96, -56, 0, 0, -62, -38, 0, 0, 0, 0, 0, 0, 0, 0, 0, 0, 0, 1, 0, 0, 0, 0, 0, 0, 0, 4, 0, 0, 0, 0, 6, 6, 0, -1312, 25, 47, 0