0, 8, 20, 28, 28, 0, 27, 27, 27, 0, 0, 0, 0, 1, 0, 1, 1, 0, 4, -3, 0, 0, 0, 0, 0, 0, 0, -4, 0, 0, 0, 6, 6, 6, 6, 0, -832, 74, 62, 0, 
0, 112, 0, 140, 140, 0, 0, 139, 139, 0, 0, 0, 0, 4, 0, 4, 4, 0, 0, 0, 3, 0, 0, 0, 0, 4, 0, -4, 0, 0, 0, 6, 0, 6, 6, 0, -944, 71, 37, 0, 
0, 192, 0, 0, 220, 0, 0, 219, 219, 0, 0, 0, 0, 4, 0, 0, 4, 0, 0, 0, 3, 0, 0, 0, 0, 4, 0, 0, 0, 0, 0, 6, 0, 0, 6, 0, -1024, 71, 14, 0, 
0, 0, 0, 0, 284, 0, 0, 0, 283, 0, 0, 0, 0, 0, 0, 0, 1, 0, 0, 0, 0, 0, 0, 0, 0, 0, 0, 0, 0, 0, 0, 0, 0, 0, 6, 0, -1088, 74, 2, 0