-98, 0, 16, 48, 56, 0, 0, 46, 59, 0, 14, -128, -1, 0, 0, 0, 0, 0, 0, 1, 0, 0, 0, 4, 0, 0, 0, 0, 0, 9, 6, 0, 6, 6, 6, 6, -176, 13, 63, 0, 
0, 0, 0, 112, 120, 0, 0, 110, 123, 0, 0, 0, 0, 0, 0, 0, 0, 0, 0, 1, 0, 0, 0, 0, 0, 0, 0, 0, 0, 0, 0, 0, 0, 6, 6, 0, -240, 13, 40, 0, 
-354, 0, 0, 0, 0, 0, 0, 0, 0, 0, 0, -384, 0, 0, 0, 0, 0, 0, 0, 0, 0, 0, 0, 5, 0, 0, 0, 0, 0, 9, 6, 0, 0, 0, 0, 6, 80, 12, 28, 0, 
446, 0, 0, 0, 0, 0, 0, 0, 0, 0, 0, 416, 0, 0, 0, 0, 0, 0, 0, 0, 0, 0, 0, 5, 0, 0, 0, 0, 0, 9, 6, 0, 0, 0, 0, 6, -720, 12, 28, 0