169, 0, 16, 24, 56, 0, 0, 41, 66, 0, 42, 248, 0, 0, 0, 0, 0, 0, 0, 0, 0, 0, 1, 1, 0, 0, 0, 4, 0, -17, 6, 0, 6, 6, 6, 6, -256, 7, 63, 0, 
0, 0, 0, 0, -72, 0, 0, -87, -62, 0, 0, 120, 0, 0, 0, 0, 0, 0, 0, 0, 0, 0, 0, 1, 0, 0, 0, 0, 0, -17, 0, 0, 0, 0, 6, 6, -128, 7, 54, 0, 
0, 0, 0, 104, 136, 0, 0, 121, 146, 0, 0, 0, 0, 0, 0, 0, 0, 0, 0, 0, 0, 0, 0, 0, 0, 0, 0, 4, 0, 0, 0, 0, 0, 6, 6, 0, -336, 7, 40, 0, 
-183, 0, 0, 0, 0, 0, 0, 0, 0, 0, 0, -104, 0, 0, 0, 0, 0, 0, 0, 0, 0, 0, 0, 1, 0, 0, 0, 0, 0, -17, 6, 0, 0, 0, 0, 6, 96, 7, 28, 0