0, -124, 16, 32, 4, -101, 21, 30, -7, 0, 0, 0, 0, 5, 0, 0, 0, 1, 0, 5, -2, 0, 0, 0, 0, 12, 0, 0, 0, 0, 0, 6, 6, 6, 6, 0, -1632, 55, 63, 0, 
0, 0, 8, -128, -156, 0, 0, -130, -167, 0, 0, 0, 0, 0, 0, 0, 0, 0, 0, 5, -2, 0, 0, 0, 0, 0, 12, 0, 0, 0, 0, 0, 6, 6, 6, 0, -1472, 55, 60, 0, 
0, 0, 0, 0, 0, 251, 0, 0, 345, 0, 0, 0, 0, 0, 0, 0, 0, 3, 0, 0, 0, 0, 0, 0, 0, 0, 0, 0, 0, 0, 0, 0, 0, 0, 0, 0, -1984, 53, 37, 0, 
0, 0, 0, 0, 0, -37, 0, 0, 57, 0, 0, 0, 0, 0, 0, 0, 0, 3, 0, 0, 0, 0, 0, 0, 0, 0, 0, 0, 0, 0, 0, 0, 0, 0, 0, 0, -1696, 53, 37, 0