131, 0, 8, -32, -48, 0, 0, 0, -43, 144, 14, 161, -2, 0, -1, 0, 0, 0, 0, 0, 0, -2, 0, 0, -4, 0, 0, 0, -4, -11, 6, 0, 6, 6, 6, 6, 1600, 23, 63, 0, 
179, 0, 0, 16, 0, 0, 0, 0, 5, 192, 62, 209, -2, 0, 0, 0, 0, 0, 0, 0, 0, -2, 0, 0, -4, 0, 0, 0, -4, -11, 6, 0, 0, 6, 6, 6, 1552, 23, 60, 0, 
227, 0, 0, 64, 48, 0, 0, 0, 53, 240, 0, 257, -2, 0, 0, 0, 0, 0, 0, 0, 0, -2, 0, 0, -4, 0, 0, 0, -4, -11, 6, 0, 0, 6, 6, 6, 1504, 23, 47, 0, 
0, 0, 0, -112, -128, 0, 0, 0, -123, 0, 0, 0, 0, 0, 0, 0, 0, 0, 0, 0, 0, 0, 0, 0, 0, 0, 0, 0, -4, 0, 0, 0, 0, 6, 6, 0, 1680, 23, 35, 0