0, -20, 0, 44, 40, -17, 20, 29, 29, 0, 0, 0, 0, 1, 0, 0, 0, -2, 5, -2, 1, 0, 0, 0, 0, 4, 0, -4, 0, 0, 0, 6, 0, 6, 6, 0, -272, 73, 61, 0, 
0, 76, 0, 140, 136, 79, 0, 125, 125, 0, 0, 0, 0, 3, 0, 2, 2, 0, 0, 0, 3, 0, 0, 0, 0, 4, 0, -4, 0, 0, 0, 6, 0, 6, 6, 0, -368, 71, 51, 0, 
0, 172, 0, 0, 232, 175, 0, 221, 221, 0, 0, 0, 0, 3, 0, 0, 2, 0, 0, 0, 3, 0, 0, 0, 0, 4, 0, 0, 0, 0, 0, 6, 0, 0, 6, 0, -464, 71, 28, 0, 
0, 0, 0, 0, 280, 0, 0, 0, 269, 0, 0, 0, 0, 0, 0, 0, 0, 0, 0, 0, 1, 0, 0, 0, 0, 0, 0, 0, 0, 0, 0, 0, 0, 0, 6, 0, -512, 73, 2, 0