-223, 0, 8, 41, 56, 0, 0, 0, 64, 0, -12, -288, 0, 0, 0, 0, 0, 0, 0, 0, 0, 0, 0, 2, 4, 0, 0, 0, 0, 26, 6, 0, 6, 6, 6, 6, 928, 7, 63, 0, 
-191, 0, 0, 73, 88, 0, 0, 0, 96, 0, 20, -256, 0, 0, 0, 0, 0, 0, 0, 0, 0, 0, 0, 2, 4, 0, 0, 0, 0, 26, 6, 0, 0, 6, 6, 6, 896, 7, 56, 0, 
-159, 0, 0, 105, 120, 0, 0, 0, 128, 0, 0, -224, 0, 0, 0, 0, 0, 0, 0, 0, 0, 0, 0, 2, 4, 0, 0, 0, 0, 26, 6, 0, 0, 6, 6, 6, 864, 7, 40, 0, 
0, 0, 0, 0, -184, 0, 0, 0, -176, 0, 0, -528, 0, 0, 0, 0, 0, 0, 0, 0, 0, 0, 0, 2, 0, 0, 0, 0, 0, 26, 0, 0, 0, 0, 6, 6, 1168, 7, 38, 0