-186, 0, 8, 8, -16, 0, 0, 2, 0, -244, -4, 0, 1, 0, 1, 0, 0, 0, 0, 0, 0, 1, 0, 0, 4, 0, 0, 0, 4, 0, 6, 0, 6, 6, 6, 0, -864, 23, 63, 0, 
-186, 0, 8, 8, -16, 0, 0, 2, -29, -244, -4, 0, 1, 0, 1, 0, 0, 0, 0, 0, 0, 1, 0, 0, 4, 0, 0, 0, 4, 0, 6, 0, 6, 6, 6, 0, -864, 23, 62, 0, 
0, 0, 0, 184, 160, 0, 0, 178, 147, 0, 0, 0, 0, 0, 0, 0, 0, 0, 0, 0, 0, 0, 0, 0, 0, 0, 0, 0, 4, 0, 0, 0, 0, 6, 6, 0, -1040, 23, 47, 0, 
0, 0, 0, 56, 32, 0, 0, 50, 19, 0, 44, 0, 0, 0, 0, 0, 0, 0, 0, 0, 0, 0, 0, 0, 0, 0, 0, 0, 4, 0, 0, 0, 0, 6, 6, 0, -912, 23, 40, 0