206, 0, 16, -32, -64, 0, 0, -37, -61, 0, 21, 304, 1, 0, 1, 0, -1, 0, 0, 0, 0, 0, 0, 1, 0, 0, -4, 0, 0, -19, 6, 0, 6, 6, 6, 6, -1280, 7, 63, 0, 
254, 0, 0, 16, -16, 0, 0, 11, -13, 0, 69, 352, 2, 0, 0, 1, 0, 0, 0, 1, 1, 0, 1, 2, 0, 0, 0, 0, 0, -19, 6, 0, 0, 6, 6, 6, -1328, 6, 60, 0, 
302, 0, 0, 64, 32, 0, 0, 59, 35, 0, 0, 400, 2, 0, 0, 1, 0, 0, 0, 1, 1, 0, 0, 2, 0, 0, 0, 0, 0, -19, 6, 0, 0, 6, 6, 6, -1376, 6, 50, 0, 
0, 0, 0, 112, 80, 0, 0, 107, 83, 0, 0, 0, 0, 0, 0, 1, 0, 0, 0, 1, 1, 0, 0, 0, 0, 0, 0, 0, 0, 0, 0, 0, 0, 6, 6, 0, -1424, 6, 40, 0