-88, 0, 8, 24, 32, 0, 0, 0, 34, -68, 9, 0, -2, 0, 0, 0, 0, 0, 0, 0, 0, 0, 0, 0, 12, 0, 0, 0, 0, 0, 6, 0, 6, 6, 6, 0, -240, 30, 63, 0, 
-280, 0, 0, -160, -160, 0, 0, -150, -158, -260, 0, 0, -2, 0, 0, 0, 0, 0, 0, 1, 0, 0, 0, 0, 12, 0, 0, 0, 0, 0, 6, 0, 0, 6, 6, 0, -48, 30, 49, 0, 
0, 0, 0, 184, 200, 0, 0, 202, 194, 0, 0, 0, 0, 0, 0, 0, 0, 0, 0, 1, 0, 0, 0, 0, 0, 0, 0, 0, 4, 0, 0, 0, 0, 6, 6, 0, -400, 30, 47, 0, 
0, 0, 0, 0, 256, 0, 0, 266, 258, 0, 0, 0, 0, 0, 0, 0, 0, 0, 0, 1, 0, 0, 0, 0, 0, 0, 0, 0, 0, 0, 0, 0, 0, 0, 6, 0, -464, 30, 34, 0