-187, 0, 8, -32, 0, 0, 0, 0, 0, -278, 6, 0, 3, 0, 1, 0, 0, 0, 0, 0, 0, 5, 0, 0, 4, 0, 0, -4, 0, 0, 6, 0, 6, 6, 0, 0, 352, 23, 57, 0, 
-187, 0, 8, -32, -120, 0, 0, -58, -140, 0, 6, 0, 4, 0, 2, 1, 0, 0, 0, 0, 0, 0, 1, 0, 4, 0, 0, -4, -4, 0, 6, 0, 6, 6, 6, 0, 352, 22, 53, 0, 
0, 0, 0, -24, 72, 0, 0, 134, 52, 0, 0, 0, 0, 0, 0, 1, 0, 0, 0, 0, 0, 0, 0, 0, 0, 0, 0, 12, -4, 0, 0, 0, 0, 6, 6, 0, 160, 22, 40, 0, 
0, 0, 0, 88, 0, 0, 0, 0, 164, 0, 0, 0, 0, 0, 0, 1, 0, 0, 0, 0, 0, 0, 0, 0, 0, 0, 0, 12, 0, 0, 0, 0, 0, 6, 0, 0, 48, 22, 25, 0