176, 0, 16, 8, 32, 0, 0, 0, 0, 0, 29, 285, 0, 0, 1, 2, 2, 0, 0, 0, 0, 0, 0, 4, 0, 0, 0, 0, 4, -25, 6, 0, 6, 6, 6, 5, 896, 13, 63, 0, 
208, 0, 0, 40, 64, 0, 0, 61, 97, 0, 61, 317, -2, 0, 0, 0, 0, 0, 0, 0, 0, 0, -2, 2, 0, 0, 0, 0, 4, -25, 6, 0, 0, 6, 6, 5, 864, 15, 60, 0, 
0, 0, 0, 104, 128, 0, 0, 125, 161, 0, 0, 0, 0, 0, 0, 0, 0, 0, 0, 0, 0, 0, 0, 0, 0, 0, 0, 0, 4, 0, 0, 0, 0, 6, 6, 0, 800, 15, 40, 0, 
-144, 0, 0, 0, 0, 0, 0, 0, 0, 0, 0, -35, 0, 0, 0, 0, 0, 0, 0, 0, 0, 0, 0, 4, 0, 0, 0, 0, 0, -25, 6, 0, 0, 0, 0, 5, 1216, 13, 28, 0