0, 16, 12, 12, 12, 16, 16, 16, 6, 0, 0, 0, 0, 0, -1, 0, 0, -4, 5, -1, 2, 0, 0, 0, 0, 4, 0, 0, 0, 0, 0, 6, 6, 6, 6, 0, 1232, 72, 63, 0, 
0, 144, 0, 140, 140, 144, -25, 144, 134, 0, 0, 0, 0, 0, 0, 0, 0, -4, 5, -1, 2, 0, 0, 0, 0, 4, 0, 0, 0, 0, 0, 6, 0, 6, 6, 0, 1104, 72, 61, 0, 
0, 176, 0, 0, 172, 176, 7, 176, 166, 0, 0, 0, 0, 0, 0, 0, 0, -4, 5, -1, 2, 0, 0, 0, 0, 4, 0, 0, 0, 0, 0, 6, 0, 0, 6, 0, 1072, 72, 50, 0, 
0, 0, 0, 0, 236, 0, 0, 240, 230, 0, 0, 0, 0, 0, 0, 0, 1, 0, 0, 0, 3, 0, 0, 0, 0, 0, 0, 0, 0, 0, 0, 0, 0, 0, 6, 0, 1008, 71, 7, 0