-128, 0, 8, 0, 0, 0, 0, 0, -15, -167, 1, 0, 2, 0, 2, 0, 1, 0, 0, 0, 4, 2, 0, 0, 4, 0, 0, 0, 0, 0, 6, 0, 6, 0, 6, 0, 288, 40, 61, 0, 
-80, 0, 0, 0, 0, 0, 0, 0, 33, -119, 0, 0, -2, 0, 0, 0, 0, 0, 0, 0, 0, -2, 0, 0, 4, 0, 0, 0, 0, 0, 6, 0, 0, 0, 0, 0, 240, 44, 13, 0, 
320, 0, 0, 0, 0, 0, 0, 0, 433, 281, 0, 0, -2, 0, 0, 0, 0, 0, 0, 0, 0, -2, 0, 0, 4, 0, 0, 0, 0, 0, 6, 0, 0, 0, 0, 0, -160, 44, 13, 0, 
576, 0, 0, 0, 0, 0, 0, 0, 0, 537, 0, 0, 0, 0, 0, 0, 0, 0, 0, 0, 0, 0, 0, 0, 4, 0, 0, 0, 0, 0, 6, 0, 0, 0, 0, 0, -416, 42, 10, 0