0, 0, 0, -40, 168, 0, 0, 66, 0, 0, 0, 0, 0, 0, 0, 0, 0, 0, 0, 0, 0, 0, 0, 0, 0, 0, 0, 4, 4, 0, 0, 0, 0, 6, 6, 0, 1328, 21, 40, 0, 
0, 0, 0, 24, 0, 0, 0, 130, 0, 0, -34, 0, 0, 0, 0, 0, 0, 0, 0, 0, 0, 0, 3, 0, 0, 0, 0, 4, 0, 0, 0, 0, 0, 6, 0, 0, 1264, 21, 27, 0, 
0, 0, -16, 72, 0, 0, 0, 0, 0, 0, 14, 0, 0, 0, 1, 0, 0, 0, 0, 0, 0, 0, 3, 0, 0, 0, 0, 4, 0, 0, 0, 0, 6, 6, 0, 0, 1216, 21, 19, 0, 
0, 0, 16, 0, 0, 0, 0, 0, 0, 0, 46, 0, 0, 0, 0, 0, 0, 0, 0, 0, 0, 0, 2, 0, 0, 0, 0, 0, 0, 0, 0, 0, 6, 0, 0, 0, 1184, 22, 16, 0