17, 0, 16, 16, 16, 0, 0, 21, 15, 0, 16, 22, 0, 0, 0, 0, 0, 0, 0, 1, 1, 0, -1, 3, 0, 0, 0, 0, 4, 0, 6, 0, 6, 6, 6, 6, -64, 14, 63, 0, 
0, 0, 8, -64, -64, 0, 0, -59, -65, 0, -64, 0, 0, 0, 0, 0, 0, 0, 0, 1, 1, 0, -1, 0, 0, 0, 12, 0, 4, 0, 0, 0, 6, 6, 6, 0, 16, 14, 50, 0, 
0, 0, 0, 112, 112, 0, 0, 117, 111, 0, 0, 0, 0, 0, 0, 0, 0, 0, 0, 1, 1, 0, 0, 0, 0, 0, 0, 0, 4, 0, 0, 0, 0, 6, 6, 0, -160, 14, 40, 0, 
449, 0, 0, 0, 0, 0, 0, 0, 0, 0, 0, 454, 0, 0, 0, 0, 0, 0, 0, 0, 0, 0, 0, 3, 0, 0, 0, 0, 0, 0, 6, 0, 0, 0, 0, 6, -496, 14, 28, 0