-127, 0, 8, 0, 0, 0, 0, 8, -2, -175, 3, 0, -1, 0, 0, 0, 0, 0, 0, 2, 5, 3, 1, 0, 4, 0, 0, 0, 0, 0, 6, 0, 6, 0, 0, 0, 256, 39, 63, 0, 
0, 0, 0, 0, 0, 0, 0, 264, 254, 0, 0, 0, 0, 0, 0, 0, 0, 0, 0, 0, 3, 0, 0, 0, 0, 0, 0, 0, 0, 0, 0, 0, 0, 0, 0, 0, 0, 41, 34, 0, 
305, 0, 0, 0, 0, 0, 0, 0, 430, 257, 0, 0, -6, 0, 0, 0, 0, 0, 0, 0, 0, -2, 0, 0, 4, 0, 0, 0, 0, 0, 6, 0, 0, 0, 0, 0, -176, 44, 13, 0, 
577, 0, 0, 0, 0, 0, 0, 0, 0, 529, 0, 0, 0, 0, 0, 0, 0, 0, 0, 0, 0, 4, 0, 0, 4, 0, 0, 0, 0, 0, 6, 0, 0, 0, 0, 0, -448, 38, 10, 0