0, -12, 16, -32, -108, -7, 30, -82, -148, 0, 0, 0, 0, 5, 3, 1, 1, 5, 3, -3, 0, 0, 0, 0, 0, 4, 0, -4, -4, 0, 0, 6, 6, 6, 6, 0, 1424, 63, 63, 0, 
0, 0, 0, 144, 68, 0, 0, 94, 28, 0, 0, 0, 0, 0, 0, 4, 4, 0, 0, 0, 3, 0, 0, 0, 0, 0, 0, -4, -4, 0, 0, 0, 0, 6, 6, 0, 1248, 60, 51, 0, 
0, 0, 0, 0, 100, 0, 0, 126, 60, 0, 0, 0, 0, 0, 0, 0, 4, 0, 0, 0, 3, 0, 0, 0, 0, 0, 0, 0, -4, 0, 0, 0, 0, 0, 6, 0, 1216, 60, 14, 0, 
0, 0, 0, 0, 212, 0, 0, 238, 172, 0, 0, 0, 0, 0, 0, 0, 4, 0, 0, 0, 3, 0, 0, 0, 0, 0, 0, 0, -4, 0, 0, 0, 0, 0, 6, 0, 1104, 60, 7, 0