0, 0, 0, 0, 0, 0, 0, -88, 0, 0, 0, 95, 0, 0, 0, 0, 0, 0, 0, 0, 0, 0, 0, 3, 0, 0, 0, 0, 0, -9, 0, 0, 0, 0, 0, 6, 320, 5, 55, 0, 
148, 0, 0, 0, 0, 0, 0, 8, 0, 0, 63, 191, 0, 0, 0, 0, 0, 0, 0, 0, 0, 0, 2, 3, 0, 0, 0, 0, 0, -9, 6, 0, 0, 0, 0, 6, 224, 5, 52, 0, 
212, 0, 0, 0, 0, 0, 0, 72, 0, 0, 0, 255, 0, 0, 0, 0, 0, 0, 0, 0, 0, 0, 0, 3, 0, 0, 0, 0, 0, -9, 6, 0, 0, 0, 0, 6, 160, 5, 39, 0, 
-76, 0, 0, 0, 0, 0, 0, 0, 0, 0, 0, -33, 0, 0, 0, 0, 0, 0, 0, 0, 0, 0, 0, 3, 0, 0, 0, 0, 0, -9, 6, 0, 0, 0, 0, 6, 448, 5, 28, 0