15, 0, 8, 8, 8, 0, 0, 6, 6, 0, 9, 12, -1, 0, 0, 0, 0, 0, 0, 1, 0, 0, -2, 3, 0, 0, 0, 0, 0, 0, 6, 0, 6, 6, 6, 6, 1664, 14, 63, 0, 
0, 0, 0, 104, 104, 0, 0, 102, 102, 0, 0, 0, 0, 0, 0, 0, 0, 0, 0, 1, 0, 0, 0, 0, 0, 0, 0, 0, 0, 0, 0, 0, 0, 6, 6, 0, 1568, 14, 40, 0, 
447, 0, 0, 0, 0, 0, 0, 0, 0, 0, 0, 444, 0, 0, 0, 0, 0, 0, 0, 0, 0, 0, 0, 4, 0, 0, 0, 0, 0, 0, 6, 0, 0, 0, 0, 6, 1232, 13, 28, 0, 
0, 0, 0, 0, 0, 0, 0, 0, 0, 0, 0, 0, 0, 0, 0, 0, 0, 0, 0, 0, 0, 0, 0, 0, 0, 0, 0, 0, 0, 0, 0, 0, 0, 0, 0, 0, 0, 0, 0, 0