160, 0, 8, 8, 0, 0, 0, 29, 29, 219, 16, 0, 0, 0, 0, 0, 0, 0, 0, 2, -3, -1, 2, 0, -4, 0, 0, 0, 0, 0, 6, 0, 6, 6, 0, 0, 1200, 38, 63, 0, 
336, 0, 0, 184, 0, 0, 0, 205, 205, 395, 0, 0, 3, 0, 0, 3, 0, 0, 0, 5, 0, 2, 0, 0, -4, 0, 0, 0, 0, 0, 6, 0, 0, 6, 0, 0, 1024, 35, 49, 0, 
400, 0, 0, 0, 0, 0, 0, 269, 269, 459, 0, 0, 3, 0, 0, 0, 0, 0, 0, 5, 0, 2, 0, 0, -4, 0, 0, 0, 0, 0, 6, 0, 0, 0, 0, 0, 960, 35, 25, 0, 
512, 0, 0, 0, 0, 0, 0, 0, 381, 571, 0, 0, 3, 0, 0, 0, 0, 0, 0, 0, 0, 2, 0, 0, -4, 0, 0, 0, 0, 0, 6, 0, 0, 0, 0, 0, 848, 35, 13, 0