-176, 0, 8, 8, 0, 0, 0, 14, -14, -200, 6, 0, 0, 0, 0, 0, 0, 0, 0, 3, -3, 2, 2, 0, 4, 0, 0, 0, 0, 0, 6, 0, 6, 6, 0, 0, -416, 38, 63, 0, 
0, 0, 0, 184, 0, 0, 0, 190, 162, 0, 0, 0, 0, 0, 0, 3, 0, 0, 0, 6, 0, 0, 0, 0, 0, 0, 0, 0, 0, 0, 0, 0, 0, 6, 0, 0, -592, 35, 47, 0, 
0, 0, 0, 0, 0, 0, 0, 270, 242, 0, 0, 0, 0, 0, 0, 0, 0, 0, 0, 6, 0, 0, 0, 0, 0, 0, 0, 0, 0, 0, 0, 0, 0, 0, 0, 0, -672, 35, 34, 0, 
272, 0, 0, 0, 0, 0, 0, 0, 434, 248, 0, 0, 1, 0, 0, 0, 0, 0, 0, 0, 0, 5, 0, 0, 4, 0, 0, 0, 0, 0, 6, 0, 0, 0, 0, 0, -864, 35, 13, 0