-444, 0, 16, 0, -268, 0, 0, -164, -295, -515, 19, 0, 3, 0, 1, 0, 0, 0, 0, -1, 2, 3, 3, 0, 12, 0, 0, 0, -4, 0, 6, 0, 6, 0, 6, 0, -1344, 42, 62, 0, 
-412, 0, 0, 0, -236, 0, 0, -132, -263, -483, 0, 0, 4, 0, 0, 0, 1, 0, 0, 0, 3, 4, 0, 0, 12, 0, 0, 0, -4, 0, 6, 0, 0, 0, 6, 0, -1376, 41, 56, 0, 
0, 0, 0, 0, 36, 0, 0, 140, 9, 0, 0, 0, 0, 0, 0, 0, 1, 0, 0, 0, 3, 0, 0, 0, 0, 0, 0, 0, -4, 0, 0, 0, 0, 0, 6, 0, -1648, 41, 53, 0, 
0, 0, 0, 0, -412, 0, 0, 0, -439, 0, 0, 0, 0, 0, 0, 0, 0, 0, 0, 0, 2, 0, 0, 0, 0, 0, 0, 0, -4, 0, 0, 0, 0, 0, 6, 0, -1200, 42, 37, 0