189, 0, 8, -32, -32, 0, 0, -29, -41, 209, 18, 240, 1, 0, 1, 0, 0, 0, 0, 0, 0, 1, 4, 3, 0, 0, 0, -4, 0, -17, 6, 0, 6, 6, 6, 6, -1920, 20, 63, 0, 
237, 0, 0, -32, 16, 0, 0, -50, 7, 257, 66, 288, 1, 0, 0, 0, 0, 0, 0, 1, 0, 1, 4, 3, 0, 0, 0, -4, 0, -17, 6, 0, 0, 6, 6, 6, -1968, 20, 62, 0, 
333, 0, 0, 64, 112, 0, 0, 46, 103, 353, 0, 384, 1, 0, 0, 0, 0, 0, 0, 1, 0, 1, 0, 3, 0, 0, 0, -4, 0, -17, 6, 0, 0, 6, 6, 6, -2064, 20, 51, 0, 
0, 0, 0, 112, 160, 0, 0, 94, 151, 0, 0, 0, 0, 0, 0, 0, 0, 0, 0, 1, 0, 0, 0, 0, 0, 0, 0, -4, 0, 0, 0, 0, 0, 6, 6, 0, -2112, 20, 40, 0