-15, 0, 8, -16, 0, 0, 0, -22, 0, -29, 8, -36, 0, 0, 0, 1, 0, 0, 0, 1, 0, -1, 1, 4, 0, 0, 0, 0, 0, 4, 6, 0, 6, 6, 0, 6, -1152, 18, 53, 0, 
17, 0, 0, 16, -16, 0, 0, 10, -23, 3, 0, -4, -1, 0, 0, 0, 0, 0, 0, 0, 1, -2, 0, 3, 0, 0, 0, 0, 0, 4, 6, 0, 0, 6, 6, 6, -1184, 19, 51, 0, 
0, 0, 0, 112, 80, 0, 0, 106, 73, 0, 0, 0, 0, 0, 0, 0, 0, 0, 0, 0, 1, 0, 0, 0, 0, 0, 0, 0, 0, 0, 0, 0, 0, 6, 6, 0, -1280, 19, 40, 0, 
-159, 0, 0, 0, 0, 0, 0, 0, 0, 0, 0, -180, 0, 0, 0, 0, 0, 0, 0, 0, 0, 0, 0, 4, 0, 0, 0, 0, 0, 4, 6, 0, 0, 0, 0, 6, -1008, 18, 28, 0