0, 0, 8, -32, 0, 0, 0, -16, 0, 337, 22, 0, 0, 0, 2, 0, -1, 0, 0, 0, 0, 4, 1, 0, 0, 0, 0, -8, 0, 0, 0, 0, 6, 6, 6, 0, 688, 29, 56, 0, 
0, 0, 0, 32, 64, 0, 0, 48, 0, 0, 0, 0, 0, 0, 0, 1, 0, 0, 0, 1, 0, 0, 0, 0, 0, 0, 0, -8, 0, 0, 0, 0, 0, 6, 6, 0, 624, 28, 47, 0, 
0, 0, 0, -112, -80, 0, 0, -96, 0, 0, 0, 0, 0, 0, 0, 1, 0, 0, 0, 1, 0, 0, 0, 0, 0, 0, 0, -8, 0, 0, 0, 0, 0, 6, 6, 0, 768, 28, 47, 0, 
0, 0, 0, 0, 288, 0, 0, 272, 0, 0, 0, 0, 0, 0, 0, 0, 0, 0, 0, 1, 0, 0, 0, 0, 0, 0, 0, 0, 0, 0, 0, 0, 0, 0, 6, 0, 400, 28, 34, 0