159, 0, 16, 8, 8, 0, 0, 11, 10, 201, 24, 0, -1, 0, 0, 0, 0, 0, 0, 0, 0, 2, -2, 0, -4, 0, 0, 4, 0, 0, 6, 0, 6, 6, 6, 0, 1120, 26, 63, 0, 
191, 0, 0, 40, 40, 0, 0, 43, 42, 233, 0, 0, -1, 0, 0, 0, 0, 0, 0, 0, 0, 2, 0, 0, -4, 0, 0, 4, 0, 0, 6, 0, 0, 6, 6, 0, 1088, 26, 49, 0, 
335, 0, 0, 184, 184, 0, 0, 187, 186, 377, 0, 0, -1, 0, 0, 0, 0, 0, 0, 0, 0, 2, 0, 0, -4, 0, 0, 4, 0, 0, 6, 0, 0, 6, 6, 0, 944, 26, 49, 0, 
0, 0, 0, -88, -88, 0, 0, -85, -86, 0, 0, 0, 0, 0, 0, 0, 0, 0, 0, 0, 0, 0, 0, 0, 0, 0, 0, 4, 0, 0, 0, 0, 0, 6, 6, 0, 1216, 26, 47, 0