21, 0, 16, 8, 8, 0, 0, 13, 13, 0, 13, 27, 0, 0, 1, 0, 0, 0, 0, 0, 1, 0, 2, 2, 0, 0, 0, 0, 0, -2, 6, 0, 6, 6, 6, 6, -368, 11, 63, 0, 
0, 0, 0, 104, 104, 0, 0, 109, 109, 0, 0, 0, 0, 0, 0, 0, 0, 0, 0, 0, 1, 0, 0, 0, 0, 0, 0, 0, 0, 0, 0, 0, 0, 6, 6, 0, -464, 11, 40, 0, 
453, 0, 0, 0, 0, 0, 0, 0, 0, 0, 0, 459, 0, 0, 0, 0, 0, 0, 0, 0, 0, 0, 0, 2, 0, 0, 0, 0, 0, -2, 6, 0, 0, 0, 0, 6, -800, 11, 28, 0, 
0, 0, 0, 0, 0, 0, 0, 0, 0, 0, 0, 0, 0, 0, 0, 0, 0, 0, 0, 0, 0, 0, 0, 0, 0, 0, 0, 0, 0, 0, 0, 0, 0, 0, 0, 0, 0, 0, 0, 0