374, 0, 0, 0, 0, 0, 0, 0, 0, 456, 0, 0, 0, 0, 0, 0, 0, 0, 0, 0, 0, 1, 0, 0, -12, 0, 0, 0, 0, 0, 6, 0, 0, 0, 0, 0, -2304, 39, 10, 0, 
-10, 0, 0, 0, 0, 0, 0, 0, 0, 72, 0, 0, 0, 0, 0, 0, 0, 0, 0, 0, 0, 1, 0, 0, -12, 0, 0, 0, 0, 0, 6, 0, 0, 0, 0, 0, -1920, 39, 10, 0, 
-154, 0, 0, 0, 0, 0, 0, 0, 0, -72, 0, 0, 0, 0, 0, 0, 0, 0, 0, 0, 0, 1, 0, 0, -12, 0, 0, 0, 0, 0, 6, 0, 0, 0, 0, 0, -1776, 39, 10, 0, 
-282, 0, 0, 0, 0, 0, 0, 0, 0, -200, 0, 0, 0, 0, 0, 0, 0, 0, 0, 0, 0, 1, 0, 0, -12, 0, 0, 0, 0, 0, 6, 0, 0, 0, 0, 0, -1648, 39, 10, 0