0, 0, 0, 8, 0, 0, 0, 8, -17, 0, 0, -19, 0, 0, 0, 0, 0, 0, 0, 1, 1, 0, 0, 3, 0, 0, 0, 0, 0, 13, 0, 0, 0, 6, 0, 5, 1712, 5, 46, 0, 
0, 0, 0, 0, 0, 0, 0, 0, 0, 0, 10, -67, 0, 0, 0, 0, 0, 0, 0, 0, 0, 0, 0, 1, 0, 0, 0, 0, 0, 13, 0, 0, 0, 0, 0, 5, 1760, 7, 42, 0, 
0, 0, 0, 104, 0, 0, 0, 104, 79, 0, 0, 0, 0, 0, 0, 0, 0, 0, 0, 1, 1, 0, 0, 0, 0, 0, 0, 0, 0, 0, 0, 0, 0, 6, 0, 0, 1616, 5, 40, 0, 
0, 0, 0, 0, 0, 0, 0, 0, 175, 0, 0, 173, 0, 0, 0, 0, 0, 0, 0, 0, 0, 0, 0, 2, 0, 0, 0, 0, 0, 13, 0, 0, 0, 0, 0, 5, 1520, 6, 38, 0