0, 0, 0, 0, 0, 0, 0, 86, 0, 0, 0, -116, 0, 0, 0, 0, 0, 0, 0, 0, 0, 0, 0, 3, 0, 0, 0, 0, 0, 25, 0, 0, 0, 0, 0, 6, -816, 14, 55, 0, 
0, 0, 0, 0, 0, 0, 0, 0, 0, 0, 0, -36, 0, 0, 0, 0, 0, 0, 0, 0, 0, 0, 0, 3, 0, 0, 0, 0, -4, 25, 0, 0, 0, 0, 6, 6, -896, 14, 38, 0, 
0, 0, 0, 0, 0, 0, 0, 0, 23, 0, 0, 28, 0, 0, 0, 0, 0, 0, 0, 0, 0, 0, 0, 2, 0, 0, 0, 0, 0, 25, 0, 0, 0, 0, 0, 6, -960, 15, 38, 0, 
0, 0, 16, -72, 0, 0, 0, -106, 0, 0, 0, 0, 0, 0, 1, 0, 0, 0, 0, 0, 0, 0, 0, 0, 0, 0, 0, -4, 0, 0, 0, 0, 6, 6, 0, 0, -624, 14, 30, 0