-186, 0, 0, -28, -36, 0, 0, -35, -44, -233, 0, 0, 2, 0, 0, 2, 1, 0, 0, 6, 0, 3, 0, 0, 4, 0, 0, 0, 0, 0, 6, 0, 0, 6, 6, 0, 336, 44, 63, 0, 
0, 0, 0, 196, 188, 0, 0, 189, 180, 0, 0, 0, 0, 0, 0, 2, 1, 0, 0, 6, 0, 0, 0, 0, 0, 0, 0, 0, 0, 0, 0, 0, 0, 6, 6, 0, 112, 44, 61, 0, 
-122, 0, 0, 36, 28, 0, 0, 29, 20, -169, 17, 0, 1, 0, 0, 1, 0, 0, 0, 5, -1, 2, 0, 0, 4, 0, 0, 0, 0, 0, 6, 0, 0, 6, 6, 0, 272, 45, 58, 0, 
0, 0, 0, 0, 268, 0, 0, 269, 260, 0, 0, 0, 0, 0, 0, 0, 1, 0, 0, 6, 0, 0, 0, 0, 0, 0, 0, 0, 0, 0, 0, 0, 0, 0, 6, 0, 32, 44, 53, 0