248, 0, 16, 0, 32, 0, 0, 17, 42, 273, 44, 306, -1, 0, 0, 0, 0, 0, 0, 0, 1, -1, 1, 1, -4, 0, -4, 0, 0, -17, 6, 0, 6, 0, 6, 6, -1024, 22, 61, 0, 
152, 0, 0, 0, -64, 0, 0, -79, -54, 0, 0, 210, -1, 0, 0, 0, 0, 0, 0, 0, 1, 0, 0, 1, -4, 0, 0, 0, 0, -17, 6, 0, 0, 0, 6, 6, -928, 22, 43, 0, 
312, 0, 0, 0, 96, 0, 0, 81, 106, 337, 0, 370, -1, 0, 0, 0, 0, 0, 0, 0, 1, -1, 0, 1, -4, 0, 0, 0, 0, -17, 6, 0, 0, 0, 6, 6, -1088, 22, 37, 0, 
72, 0, 0, 0, 0, 0, 0, 0, 0, 0, 0, 130, 0, 0, 0, 0, 0, 0, 0, 0, 0, 0, 0, 2, -4, 0, 0, 0, 0, -17, 6, 0, 0, 0, 0, 6, -848, 21, 28, 0