-10, 0, -8, 0, 0, 0, 0, 8, 0, -13, -7, 0, 0, 0, 0, 0, 0, 0, 0, 2, 0, 3, 2, 0, 0, 0, 0, 0, 0, 0, 6, 0, 6, 0, 0, 0, -176, 39, 54, 0, 
-250, 0, 0, 0, 0, 0, 0, -232, 0, -253, 0, 0, -2, 0, 0, 0, 0, 0, 0, 0, 0, 1, 0, 0, 0, 0, 0, 0, 0, 0, 6, 0, 0, 0, 0, 0, 64, 41, 13, 0, 
0, 0, 0, 0, 0, 0, 0, 56, 0, 0, 41, 0, 0, 0, 0, 0, 0, 0, 0, 0, 0, 0, 0, 0, 0, 0, 0, 0, 0, 0, 0, 0, 0, 0, 0, 0, -224, 41, 12, 0, 
582, 0, 0, 0, 0, 0, 0, 0, 0, 579, 0, 0, 0, 0, 0, 0, 0, 0, 0, 0, 0, 3, 0, 0, 0, 0, 0, 0, 0, 0, 6, 0, 0, 0, 0, 0, -768, 39, 10, 0