274, 0, 8, -24, -56, 0, 0, -48, -61, 0, 38, 324, 0, 0, 1, 0, 0, 0, 0, 0, 0, 0, 2, 3, -4, 0, -4, 0, 0, -16, 6, 0, 6, 6, 6, 6, 1712, 10, 63, 0, 
306, 0, 0, 8, -24, 0, 0, -16, -29, 0, 70, 356, 0, 0, 0, 0, 0, 0, 0, 0, 0, 0, 2, 3, -4, 0, 0, 0, 0, -16, 6, 0, 0, 6, 6, 6, 1680, 10, 60, 0, 
0, 0, 0, 0, 168, 0, 0, 57, 163, 0, 0, 548, 0, 0, 0, 0, 0, 0, 0, 1, 0, 0, 0, 3, 0, 0, 0, 0, 0, -16, 0, 0, 0, 0, 6, 6, 1488, 10, 54, 0, 
354, 0, 0, 56, 24, 0, 0, 32, 19, 0, 0, 404, 0, 0, 0, 0, 0, 0, 0, 0, 0, 0, 0, 3, -4, 0, 0, 0, 0, -16, 6, 0, 0, 6, 6, 6, 1632, 10, 50, 0