28, 0, 8, 8, 8, 0, 0, 8, -8, 30, 13, 31, -2, 0, 0, 0, 0, 0, 0, 0, 0, 0, -2, 2, 0, 0, 0, 0, -4, -1, 6, 0, 6, 6, 6, 6, 848, 21, 63, 0, 
0, 0, 0, 104, 104, 0, 0, 104, 88, 0, 0, 0, 0, 0, 0, 0, 0, 0, 0, 0, 0, 0, 0, 0, 0, 0, 0, 0, -4, 0, 0, 0, 0, 6, 6, 0, 752, 21, 40, 0, 
-180, 0, 0, 0, 0, 0, 0, 0, 0, 0, 0, -177, 0, 0, 0, 0, 0, 0, 0, 0, 0, 0, 0, 4, 0, 0, 0, 0, 0, -1, 6, 0, 0, 0, 0, 6, 1056, 19, 28, 0, 
204, 0, 0, 0, 0, 0, 0, 0, 168, 206, 0, 207, -2, 0, 0, 0, 0, 0, 0, 0, 0, 0, 0, 2, 0, 0, 0, 0, 0, -1, 6, 0, 0, 0, 0, 6, 672, 21, 23, 0