0, 0, 0, 116, 104, 257, 0, 107, 107, 0, 0, 0, 0, 0, 0, 2, 3, 6, 0, 0, 3, 0, 0, 0, 0, 0, 0, -4, 4, 0, 0, 0, 0, 6, 6, 0, 560, 50, 61, 0, 
0, 0, 0, -156, -168, -15, 0, -165, -165, 0, 0, 0, 0, 0, 0, 2, 3, 6, 0, 0, 3, 0, 0, 0, 0, 0, 0, -4, 4, 0, 0, 0, 0, 6, 6, 0, 832, 50, 61, 0, 
0, 120, 0, -28, -40, 113, 28, -37, -37, 0, 0, 0, 0, 1, 0, 0, 1, 4, 3, -2, 1, 0, 0, 0, 0, -4, 0, -4, 4, 0, 0, 6, 0, 6, 6, 0, 704, 52, 61, 0, 
0, 184, 0, 36, 24, 177, 0, 27, 27, 0, 0, 0, 0, 3, 0, 2, 3, 6, 0, 0, 3, 0, 0, 0, 0, -4, 0, -4, 4, 0, 0, 6, 0, 6, 6, 0, 640, 50, 51, 0