52, 0, 16, 16, 0, 0, 0, 0, 15, 62, 19, 0, 2, 0, 2, 2, 0, 0, 0, 0, 0, 2, 5, 0, 0, 0, -4, 0, 0, 0, 6, 0, 6, 6, 0, 0, -80, 35, 63, 0, 
0, 0, 0, 176, 0, 0, 0, 184, 175, 0, 0, 0, 0, 0, 0, 2, 0, 0, 0, 6, 0, 0, 0, 0, 0, 0, 0, 0, 0, 0, 0, 0, 0, 6, 0, 0, -240, 35, 47, 0, 
0, 0, 0, -160, 0, 0, 0, -152, -161, 0, 0, 0, 0, 0, 0, 2, 0, 0, 0, 6, 0, 0, 0, 0, 0, 0, 0, 0, 0, 0, 0, 0, 0, 6, 0, 0, 96, 35, 47, 0, 
292, 0, 0, 0, 0, 0, 0, 264, 255, 302, 0, 0, 2, 0, 0, 0, 0, 0, 0, 6, 0, 2, 0, 0, 0, 0, 0, 0, 0, 0, 6, 0, 0, 0, 0, 0, -320, 35, 25, 0