153, 0, 8, 0, 0, 0, 0, -43, -67, 0, 36, 211, -1, 0, 0, 0, 0, 0, 0, 0, 1, 0, 2, 3, 0, 0, -4, 0, 0, -12, 6, 0, 6, 0, 0, 6, -1088, 5, 61, 0, 
185, 0, 0, 0, 0, 0, 0, -11, -35, 0, 68, 243, -2, 0, 0, 0, 0, 0, 0, -1, 0, 0, 1, 2, 0, 0, 0, 0, 0, -12, 6, 0, 0, 0, 0, 6, -1120, 6, 58, 0, 
0, 0, 0, 0, 0, 0, 0, -86, 0, 0, 0, 99, 0, 0, 0, 0, 0, 0, 0, 0, 0, 0, 0, 4, 0, 0, 0, 0, 0, -12, 0, 0, 0, 0, 0, 6, -976, 4, 55, 0, 
0, 0, 0, 0, 0, 0, 0, -46, 0, 0, 0, 547, 0, 0, 0, 0, 0, 0, 0, 0, 0, 0, 0, 1, 0, 0, 0, 0, 0, -12, 0, 0, 0, 0, 0, 6, -1424, 7, 55, 0