-145, 0, 0, -56, -80, 0, 0, -59, 0, -189, -37, 0, 2, 0, 0, 1, 1, 0, 0, 1, 0, 3, 0, 0, 4, 0, 0, 0, 0, 0, 6, 0, 0, 6, 6, 0, 1408, 29, 60, 0, 
-97, 0, 8, -8, 0, 0, 0, 0, 0, -141, 11, 0, 2, 0, 2, 1, 0, 0, 0, 0, 0, 3, 0, 0, 4, 0, 0, 0, 0, 0, 6, 0, 6, 6, 0, 0, 1360, 29, 57, 0, 
-65, 0, 0, 24, 0, 0, 0, 21, 0, -109, 0, 0, 1, 0, 0, 0, 0, 0, 0, 0, 0, 2, 0, 0, 4, 0, 0, 0, 0, 0, 6, 0, 0, 6, 6, 0, 1328, 30, 49, 0, 
-225, 0, 0, -136, -160, 0, 0, -139, 0, -269, 0, 0, 1, 0, 0, 0, 0, 0, 0, 0, 0, 2, 0, 0, 4, 0, 0, 0, 0, 0, 6, 0, 0, 6, 6, 0, 1488, 30, 49, 0