-209, 0, 0, -40, 0, 0, 0, -47, -127, -224, 11, -257, 1, 0, 0, 0, 0, 0, 0, 0, 0, 3, -2, 2, 4, 0, 0, 0, 0, 19, 6, 0, 0, 6, 0, 6, -1552, 15, 62, 0, 
-177, 0, 0, -8, 0, 0, 0, -15, -95, -192, 0, -225, 1, 0, 0, 0, 0, 0, 0, 0, 0, 3, 0, 2, 4, 0, 0, 0, 0, 19, 6, 0, 0, 6, 0, 6, -1584, 15, 51, 0, 
-113, 0, 0, 56, 0, 0, 0, 49, -31, -128, 0, -161, 1, 0, 0, 0, 0, 0, 0, 0, 0, 3, 0, 2, 4, 0, 0, 0, 0, 19, 6, 0, 0, 6, 0, 6, -1648, 15, 51, 0, 
-81, 0, 0, 0, 0, 0, 0, 81, 1, 0, 0, -129, 1, 0, 0, 0, 0, 0, 0, 0, 0, 0, 0, 2, 4, 0, 0, 0, 0, 19, 6, 0, 0, 0, 0, 6, -1680, 15, 43, 0