0, -36, 20, 8, -64, -50, 15, -13, -79, 0, 0, 0, 0, 3, 1, 0, -2, 0, 6, 0, 3, 0, 0, 0, 0, 4, 4, -4, -4, 0, 0, 6, 6, 6, 6, 0, -1392, 71, 63, 0, 
0, 92, 0, 136, 64, 0, 0, 115, 49, 0, 0, 0, 0, 5, 0, 2, 0, 0, 0, 2, 5, 0, 0, 0, 0, 4, 0, -4, -4, 0, 0, 6, 0, 6, 6, 0, -1520, 69, 51, 0, 
0, 188, 0, 0, 160, 174, 0, 211, 145, 0, 0, 0, 0, 5, 0, 0, 0, 2, 0, 2, 5, 0, 0, 0, 0, 4, 0, 0, -4, 0, 0, 6, 0, 0, 6, 0, -1616, 69, 28, 0, 
0, 0, 0, 0, 192, 0, 0, 243, 177, 0, 0, 0, 0, 0, 0, 0, 0, 0, 0, 2, 5, 0, 0, 0, 0, 0, 0, 0, -4, 0, 0, 0, 0, 0, 6, 0, -1648, 69, 7, 0