0, 0, 16, 0, 0, 0, 0, 9, -4, 0, 21, 62, 0, 0, 0, 0, 0, 0, 0, 1, 1, 0, 1, 2, 0, 0, 0, 0, 0, -2, 0, 0, 6, 0, 0, 6, -1664, 6, 61, 0, 
0, 0, 0, 0, 0, 0, 0, 0, 44, 0, 0, 110, 0, 0, 0, 0, 0, 0, 0, 0, 0, 0, 0, 1, 0, 0, 0, 0, 0, -2, 0, 0, 0, 0, 0, 6, -1712, 7, 38, 0, 
0, 0, 0, 0, 0, 0, 0, 0, 172, 0, 0, 238, 0, 0, 0, 0, 0, 0, 0, 0, 0, 0, 0, 1, 0, 0, 0, 0, 0, -2, 0, 0, 0, 0, 0, 6, -1840, 7, 38, 0, 
0, 0, 0, 0, 0, 0, 0, 0, 0, 0, 0, 0, 0, 0, 0, 0, 0, 0, 0, 0, 0, 0, 0, 0, 0, 0, 0, 0, 0, 0, 0, 0, 0, 0, 0, 0, 0, 0, 0, 0