215, 0, 8, -32, -64, 0, 0, -45, -57, 0, 37, 339, -1, 0, 0, 0, 0, 0, 0, 1, 0, 0, 0, 0, -4, 0, 0, -4, 0, -25, 6, 0, 6, 6, 6, 6, -256, 8, 63, 0, 
247, 0, 0, 0, -32, 0, 0, -13, -25, 0, 69, 371, -1, 0, 0, 0, 0, 0, 0, 1, 0, 0, 0, 0, -4, 0, 0, -4, 0, -25, 6, 0, 0, 6, 6, 6, -288, 8, 60, 0, 
311, 0, 0, 64, 32, 0, 0, 51, 39, 0, 0, 435, -1, 0, 0, 0, 0, 0, 0, 1, 0, 0, 0, 0, -4, 0, 0, -4, 0, -25, 6, 0, 0, 6, 6, 6, -352, 8, 50, 0, 
343, 0, 0, 0, 64, 0, 0, 83, 71, 0, 0, 467, -1, 0, 0, 0, 0, 0, 0, 1, 0, 0, 0, 0, -4, 0, 0, 0, 0, -25, 6, 0, 0, 0, 6, 6, -384, 8, 43, 0