0, 0, 0, 104, 0, 0, 0, 190, 331, 0, 0, 0, 0, 0, 0, 4, 0, 0, 0, 6, 0, 0, 0, 0, 0, 0, 0, 4, 0, 0, 0, 0, 0, 6, 0, 0, 992, 35, 63, 0, 
0, 0, 0, -8, 0, 0, 0, 78, 219, 0, 0, 0, 0, 0, 0, 4, 0, 0, 0, 6, 0, 0, 0, 0, 0, 0, 0, 4, 0, 0, 0, 0, 0, 6, 0, 0, 1104, 35, 63, 0, 
422, 0, 16, 72, 0, 0, 0, 158, 299, 0, 38, 0, 5, 0, 2, 0, 0, 0, 0, 2, -4, 0, 2, 0, -8, 0, 0, 4, 0, 0, 6, 0, 6, 6, 0, 0, 1024, 39, 62, 0, 
0, 0, 0, -200, 0, 0, 0, -114, 27, 0, 0, 0, 0, 0, 0, 4, 0, 0, 0, 6, 0, 0, 0, 0, 0, 0, 0, 4, 0, 0, 0, 0, 0, 6, 0, 0, 1296, 35, 61, 0