261, 0, 8, 8, 48, 0, 0, 24, 67, 335, 34, 0, 2, 0, 1, 0, 0, 0, 0, 0, 0, 6, 2, 0, -4, 0, -4, 0, 0, 0, 6, 0, 6, 6, 6, 0, -1200, 27, 63, 0, 
437, 0, 0, 184, 224, 0, 0, 200, 243, 511, 0, 0, 2, 0, 0, 0, 0, 0, 0, 0, 0, 6, 0, 0, -4, 0, 0, 0, 0, 0, 6, 0, 0, 6, 6, 0, -1376, 27, 49, 0, 
0, 0, 0, -88, -48, 0, 0, -72, -29, 0, 0, 0, 0, 0, 0, 0, 0, 0, 0, 0, 0, 0, 0, 0, 0, 0, 0, 0, 0, 0, 0, 0, 0, 6, 6, 0, -1104, 27, 47, 0, 
501, 0, 0, 0, 288, 0, 0, 264, 307, 575, 0, 0, 2, 0, 0, 0, 0, 0, 0, 0, 0, 6, 0, 0, -4, 0, 0, 0, 0, 0, 6, 0, 0, 0, 6, 0, -1440, 27, 25, 0