-85, 0, 16, 32, 48, 0, 0, 0, 49, -90, 5, -109, 0, 0, 1, 1, 0, 0, 0, 0, 0, 3, 3, 2, 0, 0, 0, 0, 0, 9, 6, 0, 6, 6, 6, 5, -1696, 15, 63, 0, 
-181, 0, 0, -64, -48, 0, 0, -55, -47, -186, 0, -205, 0, 0, 0, 1, 0, 0, 0, 1, 0, 3, 0, 2, 0, 0, 0, 0, 0, 9, 6, 0, 0, 6, 6, 5, -1600, 15, 51, 0, 
0, 0, 0, 112, 128, 0, 0, 121, 129, 0, 0, 0, 0, 0, 0, 1, 0, 0, 0, 1, 0, 0, 0, 0, 0, 0, 0, 0, 0, 0, 0, 0, 0, 6, 6, 0, -1776, 15, 40, 0, 
187, 0, 0, 0, 0, 0, 0, 0, 0, 0, 0, 163, 0, 0, 0, 0, 0, 0, 0, 0, 0, 0, 0, 2, 0, 0, 0, 0, 0, 9, 6, 0, 0, 0, 0, 5, -1968, 15, 28, 0