-268, 0, 16, 0, 0, 0, 0, -42, 45, 0, 5, -411, -3, 0, -2, 0, 1, 0, 0, 0, 2, 0, -2, -2, 4, 0, 0, 0, 4, 32, 6, 0, 6, 0, 6, 6, 1248, 15, 61, 0, 
-147, 0, 0, 0, 0, 0, 0, 134, 71, 0, 0, -235, -3, 0, 0, 0, 0, 0, 0, 0, 1, 0, 0, -2, 4, 0, 0, 0, 0, 32, 6, 0, 0, 0, 0, 6, 1072, 15, 43, 0, 
0, 0, 0, 0, 0, 0, 0, 0, 151, 0, 0, -155, 0, 0, 0, 0, 0, 0, 0, 0, 0, 0, 0, -3, 0, 0, 0, 0, 0, 32, 0, 0, 0, 0, 0, 6, 992, 16, 38, 0, 
-19, 0, 0, 0, 0, 0, 0, 0, 0, 0, 0, -107, 0, 0, 0, 0, 0, 0, 0, 0, 0, 0, 0, 1, 4, 0, 0, 0, 0, 32, 6, 0, 0, 0, 0, 6, 944, 12, 28, 0