-312, 0, 16, -112, -272, 0, 0, -133, -294, -363, 35, 0, 5, 0, 1, 0, 0, 0, 0, 1, 0, 4, 4, 0, 8, 0, 0, -4, 4, 0, 6, 0, 6, 6, 6, 0, -240, 26, 63, 0, 
-232, 0, 0, -32, -192, 0, 0, -53, -214, -283, 0, 0, 5, 0, 0, 0, 0, 0, 0, 1, 0, 4, 0, 0, 8, 0, 0, -4, 4, 0, 6, 0, 0, 6, 6, 0, -320, 26, 49, 0, 
-152, 0, 0, 48, -112, 0, 0, 27, -134, -203, 0, 0, 5, 0, 0, 0, 0, 0, 0, 1, 0, 4, 0, 0, 8, 0, 0, -4, 4, 0, 6, 0, 0, 6, 6, 0, -400, 26, 49, 0, 
0, 0, 0, 192, 32, 0, 0, 171, 10, 0, 0, 0, 0, 0, 0, 0, 0, 0, 0, 1, 0, 0, 0, 0, 0, 0, 0, -4, 4, 0, 0, 0, 0, 6, 6, 0, -544, 26, 47, 0