-21, 0, 8, 16, 16, 0, 0, 18, 19, 0, 0, -25, -2, 0, -1, 0, 0, 0, 0, 0, 0, 0, 0, 2, 0, 0, 0, 0, 0, 1, 6, 0, 6, 6, 6, 6, 1840, 16, 62, 0, 
0, 0, 0, 112, 112, 0, 0, 114, 115, 0, 0, 0, 0, 0, 0, 0, 0, 0, 0, 0, 0, 0, 0, 0, 0, 0, 0, 0, 0, 0, 0, 0, 0, 6, 6, 0, 1744, 16, 40, 0, 
171, 0, 0, 0, 0, 0, 0, 0, 0, 0, 0, 167, 0, 0, 0, 0, 0, 0, 0, 0, 0, 0, 0, 4, 0, 0, 0, 0, 0, 1, 6, 0, 0, 0, 0, 6, 1648, 14, 28, 0, 
443, 0, 0, 0, 0, 0, 0, 0, 0, 444, 0, 439, 0, 0, 0, 0, 0, 0, 0, 0, 0, 4, 0, 4, 0, 0, 0, 0, 0, 1, 6, 0, 0, 0, 0, 6, 1376, 14, 22, 0