-78, 0, 0, 32, 48, 0, 0, 39, 46, 0, -7, -98, 1, 0, 1, 0, 0, 0, 0, 1, 1, 0, 2, 2, 0, 0, 0, 0, 0, 8, 6, 0, 6, 6, 6, 6, -656, 10, 63, 0, 
-142, 0, 0, -32, -16, 0, 0, -25, -18, 0, -71, -162, 1, 0, 0, 0, 0, 0, 0, 1, 1, 0, 2, 2, 0, 0, 0, 0, 0, 8, 6, 0, 0, 6, 6, 6, -592, 10, 60, 0, 
0, 0, 0, 112, 128, 0, 0, 119, 126, 0, 0, 0, 0, 0, 0, 0, 0, 0, 0, 1, 1, 0, 0, 0, 0, 0, 0, 0, 0, 0, 0, 0, 0, 6, 6, 0, -736, 10, 40, 0, 
0, 0, 0, 0, 0, 0, 0, 0, -34, 0, 0, -190, 0, 0, 0, 0, 0, 0, 0, 0, 0, 0, 0, -4, 0, 0, 0, 0, 0, 15, 0, 0, 0, 0, 0, 4, -464, 12, 38, 0