242, 0, 8, 8, 0, 0, 0, -6, 0, 276, 20, 0, 1, 0, 1, -1, 0, 0, 0, 5, 0, 2, 0, 0, -4, 0, 0, 0, 0, 0, 6, 0, 6, 6, 0, 0, -1760, 24, 58, 0, 
274, 0, 0, 40, 0, 0, 0, 163, 0, 308, 52, 0, 2, 0, 0, 0, 0, 0, 0, 0, 0, 3, 1, 0, -4, 0, 0, 0, 0, 0, 6, 0, 0, 6, 0, 0, -1792, 23, 46, 0, 
0, 0, 8, 8, 0, 0, 0, 131, 0, 0, 20, 0, 0, 0, 2, 0, 0, 0, 0, 0, 0, 0, 1, 0, 0, 0, 0, 0, 0, 0, 0, 0, 6, 6, 0, 0, -1760, 23, 38, 0, 
498, 0, 0, 184, 0, 0, 0, 250, 0, 532, 0, 0, -1, 0, 0, 0, 0, 0, 0, 3, 0, 0, 0, 0, -4, 0, 0, 0, 0, 0, 6, 0, 0, 6, 0, 0, -2016, 26, 24, 0