0, -88, 12, 0, 0, -69, -3, 6, -3, 0, 0, 0, 0, 1, 0, 0, 2, 4, -1, 4, 7, 0, 0, 0, 0, 4, 0, 0, 0, 0, 0, 6, 6, 0, 6, 0, 1776, 67, 61, 0, 
0, -56, 0, 0, 32, -37, 29, 38, 29, 0, 0, 0, 0, -1, 0, 0, 0, 2, -3, 2, 5, 0, 0, 0, 0, 4, 0, 0, 0, 0, 0, 6, 0, 0, 6, 0, 1744, 69, 50, 0, 
0, 152, 0, 0, 240, 171, 0, 246, 237, 0, 0, 0, 0, -1, 0, 0, 0, 2, 0, 2, 5, 0, 0, 0, 0, 4, 0, 0, 0, 0, 0, 6, 0, 0, 6, 0, 1536, 69, 28, 0, 
0, 184, 0, 0, 272, 0, 0, 0, 269, 0, 0, 0, 0, -1, 0, 0, 0, 0, 0, 0, 5, 0, 0, 0, 0, 4, 0, 0, 0, 0, 0, 6, 0, 0, 6, 0, 1504, 69, 9, 0