-47, 0, 8, 8, 0, 0, 0, 6, 6, 0, 0, -60, -1, 0, 0, 0, 0, 0, 0, 0, 0, 0, 0, 1, 4, 0, 0, 0, 0, 6, 6, 0, 6, 6, 0, 6, -1760, 12, 63, 0, 
-111, 0, 0, -56, -40, 0, 0, -58, -58, 0, -64, 0, -1, 0, 0, 0, 0, 0, 0, 0, 0, 0, 0, 0, 4, 0, 0, 0, 4, 0, 6, 0, 0, 6, 6, 0, -1696, 12, 42, 0, 
0, 0, 0, 104, 120, 0, 0, 102, 102, 0, 0, 0, 0, 0, 0, 0, 0, 0, 0, 0, 0, 0, 0, 0, 0, 0, 0, 0, 4, 0, 0, 0, 0, 6, 6, 0, -1856, 12, 40, 0, 
-351, 0, 0, 0, 0, 0, 0, 0, 0, 0, 0, -364, 0, 0, 0, 0, 0, 0, 0, 0, 0, 0, 0, 2, 4, 0, 0, 0, 0, 6, 6, 0, 0, 0, 0, 6, -1456, 11, 28, 0