0, -24, 4, 16, 20, -21, -3, 0, 16, 0, 0, 0, 0, 1, 0, 1, 0, -6, 4, 0, 2, 0, 0, 0, 0, 0, 0, 0, 0, 0, 0, 6, 6, 6, 6, 0, 688, 62, 63, 0, 
0, 8, 0, 48, 52, 11, 29, 58, 48, 0, 0, 0, 0, 1, 0, 1, 0, -6, 4, -2, 2, 0, 0, 0, 0, 0, 0, 0, 0, 0, 0, 6, 0, 6, 6, 0, 656, 62, 61, 0, 
0, 104, 0, 144, 148, 107, 0, 154, 144, 0, 0, 0, 0, 3, 0, 3, 2, -4, 0, 0, 4, 0, 0, 0, 0, 0, 0, 0, 0, 0, 0, 6, 0, 6, 6, 0, 560, 60, 51, 0, 
0, 168, 0, 0, 212, 171, 0, 218, 208, 0, 0, 0, 0, 3, 0, 0, 2, -4, 0, 0, 4, 0, 0, 0, 0, 0, 0, 0, 0, 0, 0, 6, 0, 0, 6, 0, 496, 60, 28, 0