290, 0, 0, 0, 0, 0, 0, -102, 0, 0, 63, 404, -1, 0, 0, 0, 0, 0, 0, 0, 0, 0, 2, 3, -4, 0, 0, 0, 0, -27, 6, 0, 0, 0, 0, 6, 1136, 5, 52, 0, 
434, 0, 0, 0, 0, 0, 0, 42, 0, 0, 0, 548, -1, 0, 0, 0, 0, 0, 0, 0, 0, 0, 0, 3, -4, 0, 0, 0, 0, -27, 6, 0, 0, 0, 0, 6, 992, 5, 39, 0, 
-142, 0, 0, 0, 0, 0, 0, 0, 0, 0, 0, -28, 0, 0, 0, 0, 0, 0, 0, 0, 0, 0, 0, 4, -4, 0, 0, 0, 0, -27, 6, 0, 0, 0, 0, 6, 1568, 4, 28, 0, 
-206, 0, 0, 0, 0, 0, 0, 0, 0, 0, 0, -92, 0, 0, 0, 0, 0, 0, 0, 0, 0, 0, 0, 4, -4, 0, 0, 0, 0, -27, 6, 0, 0, 0, 0, 6, 1632, 4, 28, 0