268, 0, 8, -48, -40, 0, 0, -53, -34, 0, 23, 328, 1, 0, 1, 0, -1, 0, 0, 0, -1, 0, 0, 6, -4, 0, 0, 0, 0, -21, 6, 0, 6, 6, 6, 6, 272, 12, 63, 0, 
316, 0, 0, 0, 8, 0, 0, -5, 14, 0, 71, 376, 2, 0, 0, 1, 0, 0, 0, 1, 0, 0, 1, 7, -4, 0, 0, 0, 0, -21, 6, 0, 0, 6, 6, 6, 224, 11, 60, 0, 
380, 0, 0, 64, 72, 0, 0, 59, 78, 0, 0, 440, 2, 0, 0, 1, 0, 0, 0, 1, 0, 0, 0, 7, -4, 0, 0, 0, 0, -21, 6, 0, 0, 6, 6, 6, 160, 11, 50, 0, 
0, 0, 0, 112, 120, 0, 0, 107, 126, 0, 0, 0, 0, 0, 0, 1, 0, 0, 0, 1, 0, 0, 0, 0, 0, 0, 0, 0, 0, 0, 0, 0, 0, 6, 6, 0, 112, 11, 40, 0