-164, 0, 16, 32, 0, 0, 0, 19, -5, -238, 12, 0, 3, 0, 1, 0, -1, 0, 0, 0, 3, 3, 3, 0, 4, 0, 0, 0, 0, 0, 6, 0, 6, 6, 6, 0, -1232, 32, 63, 0, 
0, 0, 0, 192, 160, 0, 0, 179, 155, 0, 0, 0, 0, 0, 0, 1, 0, 0, 0, 1, 4, 0, 0, 0, 0, 0, 0, 0, 0, 0, 0, 0, 0, 6, 6, 0, -1392, 31, 47, 0, 
0, 0, 0, 0, 256, 0, 0, 275, 251, 0, 0, 0, 0, 0, 0, 0, 0, 0, 0, 1, 4, 0, 0, 0, 0, 0, 0, 0, 0, 0, 0, 0, 0, 0, 6, 0, -1488, 31, 34, 0, 
574, 0, 0, 0, 0, 0, 0, 0, 0, 546, 0, 0, 0, 0, 0, 0, 0, 0, 0, 0, 0, 0, 0, 0, 4, 0, 0, 0, 0, 0, 6, 0, 0, 0, 0, 0, -2016, 35, 10, 0