0, 0, 16, 0, 0, 0, 0, 118, 202, 0, 0, 0, 0, 0, 5, 0, 0, 0, 0, 6, 0, 0, 0, 0, 0, 0, 0, 0, 0, 0, 0, 0, 6, 0, 0, 0, -1392, 35, 58, 0, 
0, 0, 0, 0, 0, 0, 0, -26, 58, 0, 0, 0, 0, 0, 0, 0, 0, 0, 0, 6, 0, 0, 0, 0, 0, 0, 0, 0, 0, 0, 0, 0, 0, 0, 0, 0, -1248, 35, 34, 0, 
0, 0, 0, 0, 0, 0, 0, 182, 266, 0, 0, 0, 0, 0, 0, 0, 0, 0, 0, 6, 0, 0, 0, 0, 0, 0, 0, 0, 0, 0, 0, 0, 0, 0, 0, 0, -1456, 35, 25, 0, 
-183, 0, 0, 0, 0, 0, 0, 0, 0, -60, 0, 0, 0, 0, 0, 0, 0, 0, 0, 0, 0, 4, 0, 0, -8, 0, 0, 0, 0, 0, 6, 0, 0, 0, 0, 0, -816, 43, 10, 0