306, 0, 0, 184, 184, 0, 0, 195, 185, 320, 0, 0, 3, 0, 0, 3, 3, 0, 0, 6, 0, 1, 0, 0, 0, 0, 0, 0, 0, 0, 6, 0, 0, 6, 6, 0, -944, 44, 63, 0, 
82, 0, 0, -40, -40, 0, 0, -29, -39, 96, 0, 0, 3, 0, 0, 3, 3, 0, 0, 6, 0, 1, 0, 0, 0, 0, 0, 0, 0, 0, 6, 0, 0, 6, 6, 0, -720, 44, 63, 0, 
114, 0, 0, -8, -8, 0, 0, 3, -7, 128, 0, 0, 3, 0, 3, 3, 3, 0, 0, 6, 0, 1, 0, 0, 0, 0, 0, 0, 0, 0, 6, 0, 6, 6, 6, 0, -752, 44, 62, 0, 
0, 0, 0, 88, 88, 0, 0, 99, 89, 0, 0, 0, 0, 0, 0, 3, 3, 0, 0, 6, 0, 0, 0, 0, 0, 0, 0, 0, 0, 0, 0, 0, 0, 6, 6, 0, -848, 44, 61, 0