-77, 0, 0, 40, 48, 0, 0, 39, 53, 0, -4, -98, 0, 0, 1, 0, 0, 0, 0, 0, 0, 0, 3, 1, 0, 0, 0, 4, 0, 6, 6, 0, 6, 6, 6, 6, 656, 16, 63, 0, 
-141, 0, 0, -24, -16, 0, 0, -25, -11, 0, -68, -162, 0, 0, 0, 0, 0, 0, 0, 0, 0, 0, 3, 1, 0, 0, 0, 4, 0, 6, 6, 0, 0, 6, 6, 6, 720, 16, 60, 0, 
-189, 0, 0, -72, -64, 0, 0, -73, -59, -198, 0, -210, 0, 0, 0, 0, 0, 0, 0, 0, 0, 2, 0, 1, 0, 0, 0, 4, 0, 6, 6, 0, 0, 6, 6, 6, 768, 16, 51, 0, 
0, 0, 0, 104, 112, 0, 0, 103, 117, 0, 0, 0, 0, 0, 0, 0, 0, 0, 0, 0, 0, 0, 0, 0, 0, 0, 0, 4, 0, 0, 0, 0, 0, 6, 6, 0, 592, 16, 40, 0