50, 0, 0, -8, 0, 0, 0, -5, -11, 0, 2, 62, -2, 0, 0, 0, 0, 0, 0, 0, 0, 0, -3, 3, 0, 0, 0, 0, 0, -5, 6, 0, 6, 6, 0, 6, 1776, 15, 63, 0, 
114, 0, 0, 56, 0, 0, 0, 59, 53, 0, 66, 0, -2, 0, 0, 0, 0, 0, 0, 0, 0, 0, -3, 0, 0, 0, 0, 0, 0, 0, 6, 0, 0, 6, 0, 0, 1712, 15, 42, 0, 
0, 0, 0, 104, 0, 0, 0, 107, 101, 0, 0, 0, 0, 0, 0, 0, 0, 0, 0, 0, 0, 0, 0, 0, 0, 0, 0, 0, 0, 0, 0, 0, 0, 6, 0, 0, 1664, 15, 40, 0, 
450, 0, 0, 0, 0, 0, 0, 0, 0, 0, 0, 462, 0, 0, 0, 0, 0, 0, 0, 0, 0, 0, 0, 5, 0, 0, 0, 0, 0, -5, 6, 0, 0, 0, 0, 6, 1376, 13, 28, 0