0, 0, 0, 192, 208, 0, 0, 200, 219, 0, 0, 0, 0, 0, 0, 1, 1, 0, 0, 0, 1, 0, 0, 0, 0, 0, 0, 4, 0, 0, 0, 0, 0, 6, 6, 0, -2192, 28, 47, 0, 
0, 0, 0, 16, 32, 0, 0, 24, 0, 0, 0, 0, 0, 0, 0, 1, 1, 0, 0, 0, 0, 0, 0, 0, 0, 0, 0, 4, 0, 0, 0, 0, 0, 6, 6, 0, -2016, 28, 47, 0, 
0, 0, 8, 64, 80, 0, 0, 72, 91, 0, 4, 0, 0, 0, 0, 0, 0, 0, 0, -1, 0, 0, 0, 0, 0, 0, -4, 4, 0, 0, 0, 0, 6, 6, 6, 0, -2064, 29, 43, 0, 
0, 0, 0, 0, 272, 0, 0, 264, 283, 0, 0, 0, 0, 0, 0, 0, 1, 0, 0, 0, 1, 0, 0, 0, 0, 0, 0, 0, 0, 0, 0, 0, 0, 0, 6, 0, -2256, 28, 34, 0