570, 0, 0, 0, 0, 0, 0, 0, 0, 516, 0, 0, 0, 0, 0, 0, 0, 0, 0, 0, 0, 3, 0, 0, 8, 0, 0, 0, 0, 0, 6, 0, 0, 0, 0, 0, 1344, 48, 10, 0, 
218, 0, 0, 0, 0, 0, 0, 0, 0, 164, 0, 0, 0, 0, 0, 0, 0, 0, 0, 0, 0, 3, 0, 0, 8, 0, 0, 0, 0, 0, 6, 0, 0, 0, 0, 0, 1696, 48, 10, 0, 
58, 0, 0, 0, 0, 0, 0, 0, 0, 4, 0, 0, 0, 0, 0, 0, 0, 0, 0, 0, 0, 3, 0, 0, 8, 0, 0, 0, 0, 0, 6, 0, 0, 0, 0, 0, 1856, 48, 10, 0, 
-54, 0, 0, 0, 0, 0, 0, 0, 0, -108, 0, 0, 0, 0, 0, 0, 0, 0, 0, 0, 0, 3, 0, 0, 8, 0, 0, 0, 0, 0, 6, 0, 0, 0, 0, 0, 1968, 48, 10, 0