0, -24, 20, 32, 28, -35, 12, 21, 21, 0, 0, 0, 0, 3, 1, 0, 0, -2, 5, -2, 1, 0, 0, 0, 0, 4, 0, 0, 0, 0, 0, 6, 6, 6, 6, 0, -752, 73, 63, 0, 
0, 88, 0, 144, 140, 77, 0, 133, 133, 0, 0, 0, 0, 5, 0, 2, 2, 0, 0, 0, 3, 0, 0, 0, 0, 4, 0, 0, 0, 0, 0, 6, 0, 6, 6, 0, -864, 71, 51, 0, 
0, 184, 0, 0, 236, 173, 0, 229, 229, 0, 0, 0, 0, 5, 0, 0, 2, 0, 0, 0, 3, 0, 0, 0, 0, 4, 0, 0, 0, 0, 0, 6, 0, 0, 6, 0, -960, 71, 28, 0, 
0, 0, 0, 0, 284, 0, 0, 0, 277, 0, 0, 0, 0, 0, 0, 0, 0, 0, 0, 0, 1, 0, 0, 0, 0, 0, 0, 0, 0, 0, 0, 0, 0, 0, 6, 0, -1008, 73, 2, 0