-183, 0, 16, 24, 40, 0, 0, 34, 46, 0, -32, -261, -1, 0, 0, 0, 0, 0, 0, 1, 1, 0, -1, 0, 0, 0, 8, 0, 0, 17, 6, 0, 6, 6, 6, 6, -864, 8, 63, 0, 
-119, 0, 0, 88, 104, 0, 0, 98, 110, 0, 22, -197, -1, 0, 0, 0, 0, 0, 0, 1, 1, 0, -1, 0, 0, 0, 0, 0, 0, 17, 6, 0, 0, 6, 6, 6, -928, 8, 60, 0, 
0, 0, 0, 0, 136, 0, 0, 130, 142, 0, 0, -165, 0, 0, 0, 0, 0, 0, 0, 1, 1, 0, 0, 0, 0, 0, 0, 0, 0, 17, 0, 0, 0, 0, 6, 6, -960, 8, 54, 0, 
-23, 0, 0, 0, 0, 0, 0, 0, 0, 0, 0, -101, 0, 0, 0, 0, 0, 0, 0, 0, 0, 0, 0, 1, 0, 0, 0, 0, 0, 17, 6, 0, 0, 0, 0, 6, -1024, 7, 28, 0