45, 0, 16, 8, 0, 0, 0, 0, 5, 0, 19, 52, 0, 0, 0, 0, 1, 0, 0, 0, 1, 0, 1, 1, 0, 0, 0, 0, 0, -2, 6, 0, 6, 6, 6, 6, 1408, 11, 63, 0, 
0, 0, 0, 56, 48, 0, 0, 0, 53, 0, 67, 0, 0, 0, 0, 0, 1, 0, 0, 0, 1, 0, 1, 0, 0, 0, 0, 0, 0, 0, 0, 0, 0, 6, 6, 0, 1360, 11, 30, 0, 
445, 0, 0, 0, 0, 0, 0, 0, 0, 0, 0, 452, 0, 0, 0, 0, 0, 0, 0, 0, 0, 0, 0, 1, 0, 0, 0, 0, 0, -2, 6, 0, 0, 0, 0, 6, 1008, 11, 28, 0, 
0, 0, 0, 0, 0, 0, 0, 0, 0, 0, 0, 0, 0, 0, 0, 0, 0, 0, 0, 0, 0, 0, 0, 0, 0, 0, 0, 0, 0, 0, 0, 0, 0, 0, 0, 0, 0, 0, 0, 0