0, 0, 0, 0, 196, 0, 0, 167, 223, 0, 0, 0, 0, 0, 0, 0, 2, 0, 0, 0, 3, 0, 0, 0, 0, 0, 0, 0, 4, 0, 0, 0, 0, 0, 6, 0, -1488, 41, 53, 0, 
0, 0, 0, 0, 20, 0, 0, -9, 0, 0, 0, 0, 0, 0, 0, 0, 2, 0, 0, 0, 0, 0, 0, 0, 0, 0, 0, 0, 4, 0, 0, 0, 0, 0, 6, 0, -1312, 41, 53, 0, 
0, 0, 0, 0, -76, 0, 0, -105, -49, 0, 0, 0, 0, 0, 0, 0, 2, 0, 0, 0, 3, 0, 0, 0, 0, 0, 0, 0, 4, 0, 0, 0, 0, 0, 6, 0, -1216, 41, 53, 0, 
0, 0, 0, 0, 308, 0, 0, 279, 335, 0, 0, 0, 0, 0, 0, 0, 2, 0, 0, 0, 3, 0, 0, 0, 0, 0, 0, 0, 4, 0, 0, 0, 0, 0, 6, 0, -1600, 41, 34, 0