0, 0, 0, 48, -144, 0, 0, 5, -192, 0, 0, 0, 0, 0, 0, 0, 1, 0, 0, 0, 4, 0, 0, 0, 0, 0, 0, -12, -8, 0, 0, 0, 0, 6, 6, 0, 2096, 60, 22, 0, 
0, 0, 0, 144, -48, 0, 0, 101, 0, 0, 0, 0, 0, 0, 0, 0, 1, 0, 0, 0, 0, 0, 0, 0, 0, 0, 0, -12, -8, 0, 0, 0, 0, 6, 6, 0, 2000, 60, 19, 0, 
0, 0, 0, 0, 96, 0, 0, 245, 48, 0, 0, 0, 0, 0, 0, 0, 1, 0, 0, 0, 4, 0, 0, 0, 0, 0, 0, 0, -8, 0, 0, 0, 0, 0, 6, 0, 1856, 60, 7, 0, 
0, 0, 0, 0, -96, 0, 0, 53, -144, 0, 0, 0, 0, 0, 0, 0, 1, 0, 0, 0, 4, 0, 0, 0, 0, 0, 0, 0, -8, 0, 0, 0, 0, 0, 6, 0, 2048, 60, 7, 0