0, 48, 8, -4, -8, 22, 21, -7, -7, 0, 0, 0, 0, 1, 0, -1, 0, -2, 0, 5, -2, 0, 0, 0, 0, -4, -4, 0, 4, 0, 0, 6, 6, 6, 6, 0, -864, 55, 63, 0, 
0, 0, 0, 188, 0, 214, 0, 0, 185, 0, 0, 0, 0, 0, 0, 1, 0, 0, 0, 0, 0, 0, 0, 0, 0, 0, 0, 0, 0, 0, 0, 0, 0, 6, 0, 0, -1056, 53, 57, 0, 
0, 192, 0, 140, 136, 166, 0, 137, 137, 0, 0, 0, 0, 3, 0, 1, 2, 0, 0, 7, 0, 0, 0, 0, 0, -4, 0, 0, 4, 0, 0, 6, 0, 6, 6, 0, -1008, 53, 51, 0, 
0, 0, 0, 0, 0, 262, 0, 0, 233, 0, 0, 0, 0, 0, 0, 0, 0, 0, 0, 0, 0, 0, 0, 0, 0, 0, 0, 0, 0, 0, 0, 0, 0, 0, 0, 0, -1104, 53, 37, 0