239, 0, 16, 32, 0, 0, 0, 64, 145, 0, 0, 337, -1, 0, 2, 2, 0, 0, 0, 1, 0, 0, 0, 3, -4, 0, -4, 0, 0, -33, 6, 0, 6, 6, 0, 6, -2000, 5, 62, 0, 
0, 0, 0, 0, 0, 0, 0, -96, -15, 0, 0, 177, 0, 0, 0, 0, 0, 0, 0, 1, 0, 0, 0, 3, 0, 0, 0, 0, 0, -33, 0, 0, 0, 0, 0, 6, -1840, 5, 54, 0, 
447, 0, 0, 0, 0, 0, 0, 0, 0, 0, 0, 545, 0, 0, 0, 0, 0, 0, 0, 0, 0, 0, 0, 4, -4, 0, 0, 0, 0, -33, 6, 0, 0, 0, 0, 6, -2208, 4, 28, 0, 
-193, 0, 0, 0, 0, 0, 0, 0, 0, 0, 0, -95, 0, 0, 0, 0, 0, 0, 0, 0, 0, 0, 0, 4, -4, 0, 0, 0, 0, -33, 6, 0, 0, 0, 0, 6, -1568, 4, 28, 0