-277, 0, -16, 32, 0, 0, 0, 38, 56, -304, -29, 0, 1, 0, 0, 0, 0, 0, 0, 3, -3, 2, 3, 0, 4, 0, 0, 0, 0, 0, 6, 0, 6, 6, 0, 0, 1088, 38, 63, 0, 
0, 0, 0, 192, 0, 0, 0, 198, 216, 0, 0, 0, 0, 0, 0, 3, 0, 0, 0, 6, 0, 0, 0, 0, 0, 0, 0, 0, 0, 0, 0, 0, 0, 6, 0, 0, 928, 35, 47, 0, 
0, 0, 0, 0, 0, 0, 0, 278, 296, 0, 0, 0, 0, 0, 0, 0, 0, 0, 0, 6, 0, 0, 0, 0, 0, 0, 0, 0, 0, 0, 0, 0, 0, 0, 0, 0, 848, 35, 34, 0, 
59, 0, 0, 0, 0, 0, 0, 0, 0, 32, 0, 0, 0, 0, 0, 0, 0, 0, 0, 0, 0, 1, 0, 0, 4, 0, 0, 0, 0, 0, 6, 0, 0, 0, 0, 0, 752, 39, 10, 0