0, 0, 0, 36, 104, 151, 28, 57, 113, 0, 0, 0, 0, 0, 0, 0, 0, 1, 0, 5, -2, 0, 0, 0, 0, 0, 0, 4, 4, 0, 0, 0, 0, 6, 6, 0, -1696, 55, 52, 0, 
0, 0, 0, 0, 0, 263, 0, 0, 225, 0, 0, 0, 0, 0, 0, 0, 0, 3, 0, 0, 0, 0, 0, 0, 0, 0, 0, 0, 0, 0, 0, 0, 0, 0, 0, 0, -1808, 53, 37, 0, 
0, 0, 0, 148, 216, 0, 0, 169, 225, 0, 0, 0, 0, 0, 0, 2, 2, 0, 0, 7, 0, 0, 0, 0, 0, 0, 0, 4, 4, 0, 0, 0, 0, 6, 6, 0, -1808, 53, 22, 0, 
0, 0, 0, 0, 280, 0, 0, 233, 289, 0, 0, 0, 0, 0, 0, 0, 2, 0, 0, 7, 0, 0, 0, 0, 0, 0, 0, 0, 4, 0, 0, 0, 0, 0, 6, 0, -1872, 53, 7, 0