0, 0, 0, 56, 48, 0, 0, 50, 44, 0, 19, -213, 0, 0, 0, 0, 0, 0, 0, 1, 1, 0, 0, 0, 0, 0, 0, 0, 0, 19, 0, 0, 0, 6, 6, 6, 1808, 12, 60, 0, 
0, 0, 0, -24, -32, 0, 0, -30, -36, 0, -61, -293, 0, 0, 0, 0, 0, 0, 0, 1, 1, 0, 0, 0, 0, 0, 0, 0, 0, 19, 0, 0, 0, 6, 6, 6, 1888, 12, 60, 0, 
0, 0, 0, 0, 80, 0, 0, 82, 76, 0, 0, -181, 0, 0, 0, 0, 0, 0, 0, 1, 1, 0, 0, 0, 0, 0, 0, 0, 0, 19, 0, 0, 0, 0, 6, 6, 1776, 12, 54, 0, 
0, 0, 0, 0, 128, 0, 0, 130, 124, 0, 0, 0, 0, 0, 0, 0, 0, 0, 0, 1, 1, 0, 0, 0, 0, 0, 0, 0, 0, 0, 0, 0, 0, 0, 6, 0, 1728, 12, 24, 0