0, -33, 23, 23, 24, -76, 0, 0, 17, 0, 0, 0, 0, 1, 0, 1, 0, -4, 0, 0, 0, 0, 0, 0, 0, -12, 0, 0, 4, 0, 0, 6, 6, 6, 6, 0, 1456, 83, 62, 0, 
0, 95, 0, 151, 152, 52, 0, 0, 145, 0, 0, 0, 0, 1, 0, 1, 0, -4, 0, 0, 0, 0, 0, 0, 0, -12, 0, 0, 4, 0, 0, 6, 0, 6, 6, 0, 1328, 83, 42, 0, 
0, 191, 0, 0, 248, 148, 0, 0, 241, 0, 0, 0, 0, 1, 0, 0, 0, -4, 0, 0, 0, 0, 0, 0, 0, -12, 0, 0, 4, 0, 0, 6, 0, 0, 6, 0, 1232, 83, 12, 0, 
0, 0, 0, 0, 280, 180, 0, 0, 273, 0, 0, 0, 0, 0, 0, 0, 0, -4, 0, 0, 0, 0, 0, 0, 0, 0, 0, 0, 4, 0, 0, 0, 0, 0, 6, 0, 1200, 83, 7, 0