0, -52, 16, 8, -16, -42, 4, 4, -5, 0, 0, 0, 0, 3, 2, 1, 1, 2, 0, 5, -2, 0, 0, 0, 0, 4, 0, 0, -4, 0, 0, 6, 6, 6, 6, 0, 400, 66, 63, 0, 
0, -20, 0, 40, 16, -10, 36, 36, 27, 0, 0, 0, 0, 3, 0, 1, 1, 2, 0, 5, -2, 0, 0, 0, 0, 4, 0, 0, -4, 0, 0, 6, 0, 6, 6, 0, 368, 66, 61, 0, 
0, 76, 0, 136, 112, 86, 0, 132, 123, 0, 0, 0, 0, 5, 0, 3, 3, 4, 0, 7, 0, 0, 0, 0, 0, 4, 0, 0, -4, 0, 0, 6, 0, 6, 6, 0, 272, 64, 51, 0, 
0, 172, 0, 0, 208, 182, 0, 228, 219, 0, 0, 0, 0, 5, 0, 0, 3, 4, 0, 7, 0, 0, 0, 0, 0, 4, 0, 0, -4, 0, 0, 6, 0, 0, 6, 0, 176, 64, 28, 0