226, 0, 16, 0, 8, 0, 0, -8, 9, 247, 28, 0, 1, 0, 0, 0, 1, 0, 0, 1, 3, 3, 2, 0, 0, 0, 0, 0, 0, 0, 6, 0, 6, 6, 6, 0, 208, 32, 63, 0, 
418, 0, 0, 192, 200, 0, 0, 184, 201, 439, 0, 0, 1, 0, 0, 0, 1, 0, 0, 1, 3, 3, 0, 0, 0, 0, 0, 0, 0, 0, 6, 0, 0, 6, 6, 0, 16, 32, 49, 0, 
0, 0, 0, -96, -88, 0, 0, -104, -87, 0, 0, 0, 0, 0, 0, 0, 1, 0, 0, 1, 3, 0, 0, 0, 0, 0, 0, 0, 0, 0, 0, 0, 0, 6, 6, 0, 304, 32, 47, 0, 
498, 0, 0, 0, 280, 0, 0, 264, 281, 519, 0, 0, 0, 0, 0, 0, 0, 0, 0, 0, 2, 2, 0, 0, 0, 0, 0, 0, 0, 0, 6, 0, 0, 0, 6, 0, -64, 33, 25, 0