317, 260, 0, 196, 192, 237, 0, 199, 199, 329, 0, 0, 0, 1, 0, 0, 0, 4, 0, 1, 4, 2, 0, 0, 0, -4, 0, 0, 0, 0, 6, 6, 0, 6, 6, 0, 1312, 49, 63, 0, 
125, 68, 0, 4, 0, 45, 0, 7, 7, 137, 0, 0, 0, 1, 0, 0, 0, 4, 0, 1, 4, 2, 0, 0, 0, -4, 0, 0, 0, 0, 6, 6, 0, 6, 6, 0, 1504, 49, 63, 0, 
173, 116, 0, 52, 48, 93, 0, 55, 55, 185, 0, 0, 0, 1, 0, 0, 0, 4, 0, 1, 4, 2, 0, 0, 0, -4, 0, 0, 0, 0, 6, 6, 0, 6, 6, 0, 1456, 49, 63, 0, 
0, 148, 0, 84, 80, 125, 0, 87, 87, 0, 0, 0, 0, 1, 0, 0, 0, 4, 0, 1, 4, 0, 0, 0, 0, -4, 0, 0, 0, 0, 0, 6, 0, 6, 6, 0, 1424, 49, 61, 0