-45, 0, 8, 24, 24, 0, 0, 23, 30, 0, 4, -79, -2, 0, 0, 0, 0, 0, 0, 1, 1, 0, -1, 0, 0, 0, 0, 4, 0, 7, 6, 0, 6, 6, 6, 6, -816, 8, 63, 0, 
-125, 0, 0, -56, -56, 0, 0, -57, -50, 0, 0, -159, -2, 0, 0, 0, 0, 0, 0, 1, 1, 0, 0, 0, 0, 0, 0, 4, 0, 7, 6, 0, 0, 6, 6, 6, -736, 8, 50, 0, 
0, 0, 0, 104, 104, 0, 0, 103, 16, 0, 0, 0, 0, 0, 0, 0, 0, 0, 0, 1, 0, 0, 0, 0, 0, 0, 0, 4, 0, 0, 0, 0, 0, 6, 6, 0, -896, 8, 40, 0, 
451, 0, 0, 0, 0, 0, 0, 0, 0, 0, 0, 417, 0, 0, 0, 0, 0, 0, 0, 0, 0, 0, 0, 2, 0, 0, 0, 0, 0, 7, 6, 0, 0, 0, 0, 6, -1312, 6, 28, 0