0, 0, 16, -104, -256, 0, 0, -131, -282, 0, 0, 0, 0, 0, 6, 1, -2, 0, 0, 0, -2, 0, 0, 0, 0, 0, 0, 0, -4, 0, 0, 0, 6, 6, 6, 0, 400, 31, 63, 0, 
0, 0, 0, 40, -112, 0, 0, 13, 0, 0, 0, 0, 0, 0, 0, 3, 0, 0, 0, 2, 0, 0, 0, 0, 0, 0, 0, 0, -4, 0, 0, 0, 0, 6, 6, 0, 256, 29, 49, 0, 
0, 0, 0, 184, 32, 0, 0, 157, 6, 0, 0, 0, 0, 0, 0, 3, 0, 0, 0, 2, 0, 0, 0, 0, 0, 0, 0, 0, -4, 0, 0, 0, 0, 6, 6, 0, 112, 29, 47, 0, 
0, 0, 0, 0, 144, 0, 0, 269, 118, 0, 0, 0, 0, 0, 0, 0, 0, 0, 0, 2, 0, 0, 0, 0, 0, 0, 0, 0, -4, 0, 0, 0, 0, 0, 6, 0, 0, 29, 34, 0