-308, 0, 8, 0, 0, 0, 0, 65, 52, -340, -9, 0, 0, 0, 0, 0, 0, 0, 0, 1, 2, 0, -1, 0, 4, 0, 0, 0, 0, 0, 6, 0, 6, 0, 0, 0, -1408, 25, 63, 0, 
0, 0, 0, 184, 0, 0, 0, 177, 164, 0, 0, 0, 0, 0, 0, 0, 0, 0, 0, 1, 2, 0, 0, 0, 0, 0, 0, 0, 0, 0, 0, 0, 0, 6, 0, 0, -1520, 25, 47, 0, 
-308, 0, 8, 72, 0, 0, 0, 0, 0, -340, -9, 0, 1, 0, 1, 1, 0, 0, 0, 0, 0, 1, 0, 0, 4, 0, 0, 0, 0, 0, 6, 0, 6, 6, 0, 0, -1408, 24, 36, 0, 
0, 0, 0, 0, 0, 0, 0, 273, 260, 0, 0, 0, 0, 0, 0, 0, 0, 0, 0, 0, 1, 0, 0, 0, 0, 0, 0, 0, 0, 0, 0, 0, 0, 0, 0, 0, -1616, 26, 34, 0