0, 0, 0, 0, 0, 0, 0, 80, 0, 0, 0, -140, 0, 0, 0, 0, 0, 0, 0, 0, 0, 0, 0, 4, 0, 0, 0, 0, 0, 33, 0, 0, 0, 0, 0, 5, 2032, 19, 55, 0, 
-10, 0, 0, 0, 0, 0, 0, 0, 0, -54, 0, -108, 0, 0, 0, 0, 0, 0, 0, 0, 0, 3, 0, 1, 4, 0, 0, 0, 0, 33, 6, 0, 0, 0, 0, 5, 2000, 22, 22, 0, 
54, 0, 0, 0, 0, 0, 0, 0, 0, 10, 0, -44, 0, 0, 0, 0, 0, 0, 0, 0, 0, 3, 0, 1, 4, 0, 0, 0, 0, 33, 6, 0, 0, 0, 0, 5, 1936, 22, 22, 0, 
150, 0, 0, 0, 0, 0, 0, 0, 0, 106, 0, 52, 0, 0, 0, 0, 0, 0, 0, 0, 0, 3, 0, 1, 4, 0, 0, 0, 0, 33, 6, 0, 0, 0, 0, 5, 1840, 22, 22, 0