0, 0, 0, -136, -424, 0, 0, -213, 0, 0, 0, 0, 0, 0, 0, 2, 0, 0, 0, 2, 0, 0, 0, 0, 0, 0, 0, -12, -16, 0, 0, 0, 0, 6, 6, 0, -1280, 24, 60, 0, 
0, 0, 0, 40, -248, 0, 0, -37, 0, 0, 0, 0, 0, 0, 0, 2, 0, 0, 0, 2, 0, 0, 0, 0, 0, 0, 0, -12, -16, 0, 0, 0, 0, 6, 6, 0, -1456, 24, 49, 0, 
0, 0, 0, 0, -168, 0, 0, 43, -438, 0, 0, 0, 0, 0, 0, 0, 1, 0, 0, 3, 0, 0, 0, 0, 0, 0, 0, 0, -16, 0, 0, 0, 0, 0, 6, 0, -1536, 23, 34, 0, 
0, 0, 0, 0, 56, 0, 0, 267, 0, 0, 0, 0, 0, 0, 0, 0, 0, 0, 0, 2, 0, 0, 0, 0, 0, 0, 0, 0, -16, 0, 0, 0, 0, 0, 6, 0, -1760, 24, 34, 0