221, 0, 16, 8, 16, 0, 0, 0, 0, 0, 33, 278, 3, 0, 1, 0, -1, 0, 0, 0, 0, 0, 0, 5, -4, 0, 0, 0, 4, -19, 6, 0, 6, 6, 6, 6, 1792, 12, 63, 0, 
253, 0, 0, 40, 48, 0, 0, 0, 0, 0, 65, 310, 4, 0, 0, 1, 0, 0, 0, 0, 0, 0, 1, 6, -4, 0, 0, 0, 4, -19, 6, 0, 0, 6, 6, 6, 1760, 11, 56, 0, 
445, 0, 0, 0, 0, 0, 0, 0, 0, 0, 0, 502, 0, 0, 0, 0, 0, 0, 0, 0, 0, 0, 0, 2, -4, 0, 0, 0, 0, -19, 6, 0, 0, 0, 0, 6, 1568, 15, 28, 0, 
-83, 0, 0, 0, 0, 0, 0, 0, 0, 0, 0, -26, 0, 0, 0, 0, 0, 0, 0, 0, 0, 0, 0, 2, -4, 0, 0, 0, 0, -19, 6, 0, 0, 0, 0, 6, 2096, 15, 28, 0