-218, 0, 16, 64, 64, 0, 0, 66, 66, 0, 3, -293, 2, 0, 1, 0, 0, 0, 0, 1, 0, 0, -1, 5, 4, 0, 0, 0, 0, 27, 6, 0, 6, 6, 6, 6, 1984, 8, 63, 0, 
-170, 0, 0, 112, 112, 0, 0, 114, 114, 0, 0, -245, 2, 0, 0, 0, 0, 0, 0, 1, 0, 0, 0, 5, 4, 0, 0, 0, 0, 27, 6, 0, 0, 6, 6, 6, 1936, 8, 50, 0, 
0, 0, 0, 0, -176, 0, 0, 0, -174, 0, 0, -533, 0, 0, 0, 0, 0, 0, 0, 0, 0, 0, 0, 5, 0, 0, 0, 0, 0, 27, 0, 0, 0, 0, 6, 6, 2224, 8, 38, 0, 
54, 0, 0, 0, 0, 0, 0, 0, 0, 0, 0, -21, 0, 0, 0, 0, 0, 0, 0, 0, 0, 0, 0, 3, 4, 0, 0, 0, 0, 27, 6, 0, 0, 0, 0, 6, 1712, 10, 28, 0