0, 0, 0, 88, 424, 0, 0, 185, 0, 0, 0, 0, 0, 0, 0, 0, 1, 0, 0, 0, 0, 0, 0, 0, 0, 0, 0, 15, 12, 0, 0, 0, 0, 6, 6, 0, -496, 23, 49, 0, 
0, 0, 0, 0, 24, 0, 0, -215, 0, 0, 0, 0, 0, 0, 0, 0, 1, 0, 0, 0, 0, 0, 0, 0, 0, 0, 0, 0, 12, 0, 0, 0, 0, 0, 6, 0, -96, 23, 34, 0, 
574, 0, -8, 0, 0, 0, 0, 0, 0, 0, 0, 0, 7, 0, 0, 0, 0, 0, 0, 0, 0, 0, 3, 0, -16, 0, 0, 0, 0, 0, 6, 0, 6, 0, 0, 0, -704, 26, 31, 0, 
0, 0, 0, 0, 168, 0, 0, -71, 0, 0, 0, 0, 0, 0, 0, 0, 1, 0, 0, 0, 0, 0, 0, 0, 0, 0, 0, 0, 12, 0, 0, 0, 0, 0, 6, 0, -240, 23, 24, 0