239, 0, 8, 0, 12, 0, 0, 1, 20, 299, 21, 0, 0, 0, 0, 0, 0, 0, 0, 3, -3, 4, 3, 0, -4, 0, 0, 0, 0, 0, 6, 0, 6, 6, 6, 0, 928, 38, 63, 0, 
271, 0, 0, 32, 44, 0, 0, 33, 52, 331, 53, 0, 0, 0, 0, 0, 0, 0, 0, 3, -3, 4, 3, 0, -4, 0, 0, 0, 0, 0, 6, 0, 0, 6, 6, 0, 896, 38, 60, 0, 
431, 0, 0, 192, 204, 0, 0, 193, 212, 491, 0, 0, 3, 0, 0, 3, 3, 0, 0, 6, 0, 7, 0, 0, -4, 0, 0, 0, 0, 0, 6, 0, 0, 6, 6, 0, 736, 35, 49, 0, 
0, 0, 0, -96, -84, 0, 0, -95, -76, 0, 0, 0, 0, 0, 0, 3, 3, 0, 0, 6, 0, 0, 0, 0, 0, 0, 0, 0, 0, 0, 0, 0, 0, 6, 6, 0, 1024, 35, 47, 0