-150, 0, 16, 0, 8, 0, 0, 28, 1, -201, -6, -233, -1, 0, 0, 0, 0, 0, 0, 0, 1, 1, 2, 0, 4, 0, 0, 0, 0, 20, 6, 0, 6, 0, 6, 6, -64, 17, 61, 0, 
0, 0, 0, 0, 88, 0, 0, 108, 81, 0, 0, -153, 0, 0, 0, 0, 0, 0, 0, 0, 1, 0, 0, 0, 0, 0, 0, 0, 0, 20, 0, 0, 0, 0, 6, 6, -144, 17, 54, 0, 
-71, 0, 0, 0, 0, 0, 0, 0, 0, 0, 0, -121, 0, 0, 0, 0, 0, 0, 0, 0, 0, 0, 0, 2, 4, 0, 0, 0, 0, 20, 6, 0, 0, 0, 0, 6, -176, 15, 28, 0, 
41, 0, 0, 0, 0, 0, 0, 0, 0, 23, 0, -9, 0, 0, 0, 0, 0, 0, 0, 0, 0, 3, 0, 2, 4, 0, 0, 0, 0, 20, 6, 0, 0, 0, 0, 6, -288, 15, 22, 0