-2, 0, 8, 8, 16, 0, 0, 9, 0, -4, 9, 0, 0, 0, 0, 0, 0, 0, 0, 0, 0, 3, 0, 0, 0, 0, 0, -4, 0, 0, 6, 0, 6, 6, 6, 0, -128, 30, 63, 0, 
0, 0, 0, 184, 192, 0, 0, 185, 0, 0, 0, 0, 0, 0, 0, 0, 0, 0, 0, 0, 0, 0, 0, 0, 0, 0, 0, -4, 0, 0, 0, 0, 0, 6, 6, 0, -304, 30, 47, 0, 
0, 0, 0, 0, 224, 0, 0, 217, 0, 0, 0, 0, 0, 0, 0, 0, 0, 0, 0, 0, 0, 0, 0, 0, 0, 0, 0, 0, 0, 0, 0, 0, 0, 0, 6, 0, -336, 30, 34, 0, 
-258, 0, 0, 0, -240, 0, 0, -247, 0, -260, 0, 0, 0, 0, 0, 0, 0, 0, 0, 0, 0, 3, 0, 0, 0, 0, 0, 0, 0, 0, 6, 0, 0, 0, 6, 0, 128, 30, 25, 0