572, 0, 0, 0, 0, 0, 0, 0, 0, 477, 0, 0, 0, 0, 0, 0, 0, 0, 0, 0, 0, 1, 0, 0, 15, 0, 0, 0, 0, 0, 6, 0, 0, 0, 0, 0, 320, 44, 10, 0, 
220, 0, 0, 0, 0, 0, 0, 0, 0, 125, 0, 0, 0, 0, 0, 0, 0, 0, 0, 0, 0, 1, 0, 0, 15, 0, 0, 0, 0, 0, 6, 0, 0, 0, 0, 0, 672, 44, 10, 0, 
60, 0, 0, 0, 0, 0, 0, 0, 0, -35, 0, 0, 0, 0, 0, 0, 0, 0, 0, 0, 0, 1, 0, 0, 15, 0, 0, 0, 0, 0, 6, 0, 0, 0, 0, 0, 832, 44, 10, 0, 
-52, 0, 0, 0, 0, 0, 0, 0, 0, -147, 0, 0, 0, 0, 0, 0, 0, 0, 0, 0, 0, 1, 0, 0, 15, 0, 0, 0, 0, 0, 6, 0, 0, 0, 0, 0, 944, 44, 10, 0