68, 0, 16, 16, 16, 0, 0, 15, 15, 0, 21, 92, -1, 0, 0, 0, 0, 0, 0, 0, 0, 0, -1, -2, 0, 0, 0, 0, -4, -6, 6, 0, 6, 6, 6, 4, 128, 24, 63, 0, 
0, 0, 16, 16, 16, 0, 0, 15, 15, 83, 21, 0, 0, 0, 0, 0, 0, 0, 0, 0, 0, 0, -1, 0, 0, 0, 0, 0, -4, 0, 0, 0, 6, 6, 6, 0, 128, 24, 56, 0, 
0, 0, 0, 176, 176, 0, 0, 175, 175, 0, 0, 0, 0, 0, 0, 0, 0, 0, 0, 0, 0, 0, 0, 0, 0, 0, 0, 0, -4, 0, 0, 0, 0, 6, 6, 0, -32, 24, 47, 0, 
132, 0, 0, 0, 80, 0, 0, 79, 79, 0, 0, 156, -1, 0, 0, 0, 0, 0, 0, 0, 0, 0, 0, -2, 0, 0, 0, 0, -4, -6, 6, 0, 0, 0, 6, 4, 64, 24, 43, 0