-70, 0, 8, 0, 0, 0, 0, 15, 28, 0, -3, -102, 0, 0, 0, 0, 0, 0, 0, 1, 1, 0, 1, 2, 4, 0, 0, 0, 0, 7, 6, 0, 6, 0, 0, 6, -64, 6, 61, 0, 
-134, 0, 0, 0, 0, 0, 0, -49, -36, 0, -67, -166, -1, 0, 0, 0, 0, 0, 0, 0, 0, 0, 0, 1, 4, 0, 0, 0, 0, 7, 6, 0, 0, 0, 0, 6, 0, 7, 58, 0, 
0, 0, 0, 0, 0, 0, 0, 79, 92, 0, 61, 0, 0, 0, 0, 0, 0, 0, 0, 0, 0, 0, 0, 0, 0, 0, 0, 0, 0, 0, 0, 0, 0, 0, 0, 0, -128, 7, 33, 0, 
-294, 0, 0, 0, 0, 0, 0, 0, 0, 0, 0, -326, 0, 0, 0, 0, 0, 0, 0, 0, 0, 0, 0, 2, 4, 0, 0, 0, 0, 7, 6, 0, 0, 0, 0, 6, 160, 6, 28, 0