315, 0, 8, -80, -64, 0, 0, -77, -59, 0, 34, 423, 1, 0, 2, 1, 0, 0, 0, 2, 0, 0, 0, 5, -4, 0, 0, 0, 0, -17, 6, 0, 6, 6, 6, 6, -1696, 7, 63, 0, 
347, 0, 0, -48, -32, 0, 0, -45, -27, 0, 66, 455, 1, 0, 0, 1, 0, 0, 0, 2, 0, 0, 0, 5, -4, 0, 0, 0, 0, -17, 6, 0, 0, 6, 6, 6, -1728, 7, 60, 0, 
443, 0, 0, 48, 64, 0, 0, 51, 69, 0, 0, 551, 1, 0, 0, 1, 0, 0, 0, 2, 0, 0, 0, 5, -4, 0, 0, 0, 0, -17, 6, 0, 0, 6, 6, 6, -1824, 7, 50, 0, 
0, 0, 0, 112, 128, 0, 0, 115, 133, 0, 0, 0, 0, 0, 0, 1, 0, 0, 0, 2, 0, 0, 0, 0, 0, 0, 0, 0, 0, 0, 0, 0, 0, 6, 6, 0, -1888, 7, 40, 0