64, 0, 0, 8, 12, 0, 0, 9, 0, 71, 5, 0, 0, 0, 0, 0, -1, 0, 0, 2, 0, 1, 1, 0, 0, 0, 0, 0, -4, 0, 6, 0, 6, 6, 6, 0, 1632, 39, 63, 0, 
0, 0, 0, 40, 44, 0, 0, 41, 0, 0, 0, 0, 0, 0, 0, 1, 0, 0, 0, 3, 0, 0, 0, 0, 0, 0, 0, 0, -4, 0, 0, 0, 0, 6, 6, 0, 1600, 38, 47, 0, 
0, 0, 0, 152, 156, 0, 0, 153, 0, 0, 0, 0, 0, 0, 0, 1, 0, 0, 0, 3, 0, 0, 0, 0, 0, 0, 0, 0, -4, 0, 0, 0, 0, 6, 6, 0, 1488, 38, 47, 0, 
240, 0, 0, 184, 188, 0, 0, 185, 0, 0, 0, 0, 1, 0, 0, 1, 0, 0, 0, 3, 0, 0, 0, 0, 0, 0, 0, 0, -4, 0, 6, 0, 0, 6, 6, 0, 1456, 38, 35, 0