0, 64, 20, 0, 12, 51, 32, 13, 13, 0, 0, 0, 0, 0, 0, 0, 0, 4, 0, 4, -4, 0, 0, 0, 0, -4, -4, 0, -4, 0, 0, 6, 6, 0, 6, 0, 1872, 78, 61, 0, 
0, 192, 0, 0, 140, 0, 0, 0, 141, 0, 0, 0, 0, 4, 0, 0, 4, 0, 0, 0, 0, 0, 0, 0, 0, -4, 0, 0, -4, 0, 0, 6, 0, 0, 6, 0, 1744, 74, 28, 0, 
0, 0, 0, 0, 236, 0, 0, 0, 237, 0, 0, 0, 0, 0, 0, 0, 4, 0, 0, 0, 0, 0, 0, 0, 0, 0, 0, 0, -4, 0, 0, 0, 0, 0, 6, 0, 1648, 74, 7, 0, 
0, 0, 0, 0, 284, 0, 0, 0, 285, 0, 0, 0, 0, 0, 0, 0, 4, 0, 0, 0, 0, 0, 0, 0, 0, 0, 0, 0, -4, 0, 0, 0, 0, 0, 6, 0, 1600, 74, 2, 0