153, 0, 8, -16, -40, 0, 0, -27, -40, 0, 21, 192, -3, 0, 0, 0, 0, 0, 0, 0, 0, 0, -1, 0, 0, 0, 0, 0, 0, -13, 6, 0, 6, 6, 6, 6, 1760, 8, 63, 0, 
201, 0, 0, 32, 8, 0, 0, 21, 8, 0, 69, 240, -3, 0, 0, 0, 0, 0, 0, 0, 0, 0, -1, 0, 0, 0, 0, 0, 0, -13, 6, 0, 0, 6, 6, 6, 1712, 8, 60, 0, 
233, 0, 0, 64, 40, 0, 0, 53, 40, 0, 0, 272, -3, 0, 0, 0, 0, 0, 0, 0, 0, 0, 0, 0, 0, 0, 0, 0, 0, -13, 6, 0, 0, 6, 6, 6, 1680, 8, 50, 0, 
265, 0, 0, 0, 72, 0, 0, 85, 72, 0, 0, 304, -3, 0, 0, 0, 0, 0, 0, 0, 0, 0, 0, 0, 0, 0, 0, 0, 0, -13, 6, 0, 0, 0, 6, 6, 1648, 8, 43, 0