0, 0, 8, 96, 120, 0, 0, 110, 122, 0, -15, 0, 0, 0, 0, 0, 0, 0, 0, 1, 1, 0, -2, 0, 0, 0, 0, 4, 0, 0, 0, 0, 6, 6, 6, 0, -2096, 14, 50, 0, 
0, 0, 0, 0, 168, 0, 0, 0, 170, 0, 33, 0, 0, 0, 0, 0, 2, 0, 0, 0, 3, 0, 0, 0, 0, 0, 0, 0, 0, 0, 0, 0, 0, 0, 6, 0, -2144, 12, 17, 0, 
0, 0, 0, 0, 0, 0, 0, 0, 0, 0, 0, 0, 0, 0, 0, 0, 0, 0, 0, 0, 0, 0, 0, 0, 0, 0, 0, 0, 0, 0, 0, 0, 0, 0, 0, 0, 0, 0, 0, 0, 
0, 0, 0, 0, 0, 0, 0, 0, 0, 0, 0, 0, 0, 0, 0, 0, 0, 0, 0, 0, 0, 0, 0, 0, 0, 0, 0, 0, 0, 0, 0, 0, 0, 0, 0, 0, 0, 0, 0, 0