0, 0, 8, 0, 4, 0, 0, 0, 0, 120, 14, 0, 0, 0, 0, 0, -1, 0, 0, 2, -4, 1, 1, 0, 0, 0, 0, 0, 0, 0, 0, 0, 6, 6, 6, 0, 704, 39, 56, 0, 
0, 0, 0, 112, 116, 0, 0, 112, 112, 0, 0, 0, 0, 0, 0, 4, 3, 0, 0, 6, 0, 0, 0, 0, 0, 0, 0, 0, 0, 0, 0, 0, 0, 6, 6, 0, 592, 35, 47, 0, 
0, 0, 0, -80, -76, 0, 0, -80, -80, 0, 0, 0, 0, 0, 0, 4, 3, 0, 0, 6, 0, 0, 0, 0, 0, 0, 0, 0, 0, 0, 0, 0, 0, 6, 6, 0, 784, 35, 47, 0, 
0, 0, 0, 192, 196, 0, 0, 192, 192, 312, 0, 0, 0, 0, 0, 4, 3, 0, 0, 6, 0, 5, 0, 0, 0, 0, 0, 0, 0, 0, 0, 0, 0, 6, 6, 0, 512, 35, 31, 0