0, 0, 16, 0, -4, 0, 0, 23, -15, 0, 4, 0, 0, 0, 2, 0, 0, 0, 0, -2, 1, 0, 2, 0, 0, 0, 0, 0, 0, 0, 0, 0, 6, 0, 6, 0, -2000, 43, 44, 0, 
0, 0, 0, 0, 252, 0, 0, 279, 241, 0, 0, 0, 0, 0, 0, 0, 2, 0, 0, 0, 3, 0, 0, 0, 0, 0, 0, 0, 0, 0, 0, 0, 0, 0, 6, 0, -2256, 41, 34, 0, 
0, 0, 0, 0, 0, 0, 0, 0, 0, 0, 0, 0, 0, 0, 0, 0, 0, 0, 0, 0, 0, 0, 0, 0, 0, 0, 0, 0, 0, 0, 0, 0, 0, 0, 0, 0, 0, 0, 0, 0, 
0, 0, 0, 0, 0, 0, 0, 0, 0, 0, 0, 0, 0, 0, 0, 0, 0, 0, 0, 0, 0, 0, 0, 0, 0, 0, 0, 0, 0, 0, 0, 0, 0, 0, 0, 0, 0, 0, 0, 0