0, 40, 16, 16, 20, 45, 26, 26, 26, 0, 0, 0, 0, 2, 1, 0, 1, 5, 3, -3, 0, 0, 0, 0, 0, -4, 0, 0, 0, 0, 0, 6, 6, 6, 6, 0, -16, 63, 63, 0, 
0, -24, 0, -48, -44, -94, -38, -38, -38, 0, 0, 0, 0, 2, 0, 0, 1, 5, 3, -3, 0, 0, 0, 0, 0, -4, 0, 0, 0, 0, 0, 6, 0, 6, 6, 0, 48, 63, 61, 0, 
0, 168, 0, 144, 148, 0, 0, 154, 154, 0, 0, 0, 0, 5, 0, 3, 4, 0, 0, 0, 3, 0, 0, 0, 0, -4, 0, 0, 0, 0, 0, 6, 0, 6, 6, 0, -144, 60, 51, 0, 
0, 0, 0, 0, 228, 0, 0, 234, 234, 0, 0, 0, 0, 0, 0, 0, 4, 0, 0, 0, 3, 0, 0, 0, 0, 0, 0, 0, 0, 0, 0, 0, 0, 0, 6, 0, -224, 60, 9, 0