347, 0, 16, 0, -8, 0, 0, 0, 7, 380, 45, 0, 2, 0, 1, 0, 0, 0, 0, 0, 0, 2, 1, 0, -8, 0, 0, 0, 0, 0, 6, 0, 6, 0, 6, 0, -1936, 28, 61, 0, 
539, 0, 0, 0, 184, 0, 0, 0, 199, 572, 0, 0, 2, 0, 0, 0, 0, 0, 0, 0, 0, 2, 0, 0, -8, 0, 0, 0, 0, 0, 6, 0, 0, 0, 6, 0, -2128, 28, 13, 0, 
-101, 0, 0, 0, 0, 0, 0, 0, 0, -68, 0, 0, 0, 0, 0, 0, 0, 0, 0, 0, 0, 0, 0, 0, -8, 0, 0, 0, 0, 0, 6, 0, 0, 0, 0, 0, -1488, 30, 10, 0, 
571, 0, 0, 0, 216, 0, 0, 0, 231, 0, 0, 0, 2, 0, 0, 0, 0, 0, 0, 0, 0, 0, 0, 0, -8, 0, 0, 0, 0, 0, 6, 0, 0, 0, 6, 0, -2160, 28, 3, 0