0, 0, 8, 0, 0, 0, 0, 0, 0, 0, 13, 0, 0, 0, 0, 0, 0, 0, 0, 0, 0, 0, 3, 0, 0, 0, 0, 0, 0, 0, 0, 0, 6, 0, 0, 0, 1456, 42, 47, 0, 
0, 0, 0, 0, 0, 0, 0, -60, 0, 0, 0, 0, 0, 0, 0, 0, 0, 0, 0, 0, 0, 0, 0, 0, 0, 0, 0, 0, 0, 0, 0, 0, 0, 0, 0, 0, 1552, 41, 33, 0, 
466, 0, 0, 0, 0, 0, 0, 212, 0, 497, 0, 0, 2, 0, 0, 0, 0, 0, 0, 0, 0, 4, 0, 0, -4, 0, 0, 0, 0, 0, 6, 0, 0, 0, 0, 0, 1280, 41, 19, 0, 
530, 0, 0, 0, 0, 0, 0, 276, 0, 561, 0, 0, 2, 0, 0, 0, 0, 0, 0, 0, 0, 4, 0, 0, -4, 0, 0, 0, 0, 0, 6, 0, 0, 0, 0, 0, 1216, 41, 13, 0