0, 0, 0, 104, 32, 0, 0, 85, 23, 0, 0, 0, 0, 0, 0, 0, 0, 0, 0, 0, 0, 0, 0, 0, 0, 0, 0, -4, -4, 0, 0, 0, 0, 6, 6, 0, 1824, 22, 40, 0, 
0, 0, 0, 0, 80, 0, 0, 133, 71, 0, 0, 0, 0, 0, 0, 0, 0, 0, 0, 0, 0, 0, 0, 0, 0, 0, 0, 0, -4, 0, 0, 0, 0, 0, 6, 0, 1776, 22, 24, 0, 
0, 0, 16, 0, 0, 0, 0, 0, 0, 0, 55, 0, 0, 0, 0, 0, 0, 0, 0, 0, 0, 0, 1, 0, 0, 0, -4, 0, 0, 0, 0, 0, 6, 0, 0, 0, 2112, 23, 24, 0, 
0, 0, 16, 0, 0, 0, 0, 0, 0, 0, 55, 0, 0, 0, 0, 0, 0, 0, 0, 0, 0, 0, 1, 0, 0, 0, -4, 0, 0, 0, 0, 0, 6, 0, 0, 0, 2112, 23, 16, 0