0, 0, 0, 0, 0, 0, 0, 0, 2, 0, 18, 53, 0, 0, 0, 0, 0, 0, 0, 0, 0, 0, 2, -1, 0, 0, 0, 0, 0, -3, 0, 0, 0, 0, 0, 6, -832, 5, 56, 0, 
0, 0, 0, 0, 0, 0, 0, 0, 50, 0, 0, 101, 0, 0, 0, 0, 0, 0, 0, 0, 0, 0, 0, -1, 0, 0, 0, 0, 0, -3, 0, 0, 0, 0, 0, 6, -880, 5, 38, 0, 
0, 0, 0, 0, 0, 0, 0, 0, 178, 0, 0, 229, 0, 0, 0, 0, 0, 0, 0, 0, 0, 0, 0, -1, 0, 0, 0, 0, 0, -3, 0, 0, 0, 0, 0, 6, -1008, 5, 38, 0, 
0, 0, 0, 0, 0, 0, 0, 0, 0, 0, 0, 0, 0, 0, 0, 0, 0, 0, 0, 0, 0, 0, 0, 0, 0, 0, 0, 0, 0, 0, 0, 0, 0, 0, 0, 0, 0, 0, 0, 0