0, 0, 8, -40, -56, 0, 0, -55, -60, 0, 35, 0, 0, 0, 0, 0, -1, 0, 0, 0, -1, 0, 0, 0, 0, 0, -4, 0, 0, 0, 0, 0, 6, 6, 6, 0, 1888, 18, 50, 0, 
0, 0, 8, -120, -136, 0, 0, -135, -140, 0, 0, 0, 0, 0, 0, 1, 0, 0, 0, 1, 0, 0, 0, 0, 0, 0, 12, 0, 0, 0, 0, 0, 6, 6, 6, 0, 1968, 17, 45, 0, 
0, 0, 0, 104, 88, 0, 0, 33, 84, 0, 0, 0, 0, 0, 0, 1, 0, 0, 0, 0, 0, 0, 0, 0, 0, 0, 0, 0, 0, 0, 0, 0, 0, 6, 6, 0, 1744, 17, 40, 0, 
0, 0, 0, 0, 0, 0, 0, 113, 164, 0, 0, 0, 0, 0, 0, 0, 0, 0, 0, 0, 0, 0, 0, 0, 0, 0, 0, 0, 0, 0, 0, 0, 0, 0, 0, 0, 1664, 17, 24, 0