0, -48, -20, 40, -20, -40, 0, -21, 0, 0, 0, 0, 0, 1, 0, 0, 1, -4, 0, -4, 0, 0, 0, 0, 0, 0, 0, 15, 0, 0, 0, 6, 6, 6, 6, 0, -1712, 86, 62, 0, 
0, 48, 0, 136, 76, 56, 0, 75, 0, 0, 0, 0, 0, 4, 0, 0, 4, -1, 0, -1, 0, 0, 0, 0, 0, 0, 0, 15, 0, 0, 0, 6, 0, 6, 6, 0, -1808, 83, 47, 0, 
0, 160, 0, 0, 188, 168, 0, 187, 0, 0, 0, 0, 0, 5, 0, 0, 5, 0, 0, 0, 0, 0, 0, 0, 0, 0, 0, 0, 0, 0, 0, 6, 0, 0, 6, 0, -1920, 82, 20, 0, 
0, 192, 0, 0, 220, 0, 0, 219, 0, 0, 0, 0, 0, 5, 0, 0, 5, 0, 0, 0, 0, 0, 0, 0, 0, 0, 0, 0, 0, 0, 0, 6, 0, 0, 6, 0, -1952, 82, 9, 0