0, 0, 0, 0, 0, 0, 0, 17, 0, 0, 0, -46, 0, 0, 0, 0, 0, 0, 0, 0, 0, 0, 0, 0, 0, 0, 0, 0, 0, 2, 0, 0, 0, 0, 0, 6, 1296, 4, 55, 0, 
0, 0, 0, 0, 0, 0, 0, 0, 43, 0, 0, 106, 0, 0, 0, 0, 0, 0, 0, 0, 0, 0, 0, -1, 0, 0, 0, 0, 0, 13, 0, 0, 0, 0, 0, 5, 1152, 5, 38, 0, 
0, 0, 0, 0, 0, 0, 0, 0, 168, 0, 0, 482, 0, 0, 0, 0, 0, 0, 0, 0, 0, 0, 0, -1, 0, 0, 0, 0, 0, 2, 0, 0, 0, 0, 0, 6, 768, 5, 38, 0, 
0, 0, 0, 0, 0, 0, 0, 0, -132, 0, 0, -158, 0, 0, 0, 0, 0, 0, 0, 0, 0, 0, 0, 0, 0, 0, 0, 0, 0, 2, 0, 0, 0, 0, 0, 6, 1408, 4, 38, 0