127, 0, 0, -24, 0, 0, 0, -18, 10, 164, 7, 0, 0, 0, 0, 0, 0, 0, 0, 2, -4, 3, 1, 0, -4, 0, 0, -12, 0, 0, 6, 0, 6, 6, 0, 0, 1360, 39, 63, 0, 
159, 0, 0, 8, 0, 0, 0, 14, 42, 196, 39, 0, 0, 0, 0, 0, 0, 0, 0, 2, -4, 3, 1, 0, -4, 0, 0, -12, 0, 0, 6, 0, 0, 6, 0, 0, 1328, 39, 60, 0, 
191, 0, 0, 40, 0, 0, 0, 46, 74, 228, 0, 0, 4, 0, 0, 4, 0, 0, 0, 6, 0, 7, 0, 0, -4, 0, 0, -12, 0, 0, 6, 0, 0, 6, 0, 0, 1296, 35, 49, 0, 
335, 0, 0, 184, 0, 0, 0, 190, 218, 372, 0, 0, 4, 0, 0, 4, 0, 0, 0, 6, 0, 7, 0, 0, -4, 0, 0, -12, 0, 0, 6, 0, 0, 6, 0, 0, 1152, 35, 49, 0