394, 0, 8, -16, 8, 0, 0, -4, 9, 432, 0, 0, 0, 0, 0, -1, 0, 0, 0, 0, 1, 0, 0, 0, -8, 0, 0, 0, 0, 0, 6, 0, 6, 6, 6, 0, -1856, 26, 62, 0, 
538, 0, 0, 128, 152, 0, 0, 140, 153, 576, 0, 0, 1, 0, 0, 0, 1, 0, 0, 1, 2, 1, 0, 0, -8, 0, 0, 0, 0, 0, 6, 0, 0, 6, 6, 0, -2000, 25, 49, 0, 
0, 0, 0, 192, 216, 0, 0, 204, 217, 0, 0, 0, 0, 0, 0, 0, 1, 0, 0, 1, 2, 0, 0, 0, 0, 0, 0, 0, 0, 0, 0, 0, 0, 6, 6, 0, -2064, 25, 47, 0, 
0, 0, 0, 0, 280, 0, 0, 268, 281, 0, 0, 0, 0, 0, 0, 0, 0, 0, 0, 0, 1, 0, 0, 0, 0, 0, 0, 0, 0, 0, 0, 0, 0, 0, 6, 0, -2128, 26, 34, 0