159, 0, -8, 8, 0, 0, 0, 10, 0, 0, -1, 198, -1, 0, 0, 1, 0, 0, 0, 1, 0, 0, 0, 0, -4, 0, 0, 0, 0, -13, 6, 0, 6, 6, 0, 6, -1952, 23, 56, 0, 
207, 0, 0, 56, 0, 0, 0, 58, 0, 224, 47, 246, -1, 0, 0, 1, 0, 0, 0, 1, 0, -2, 0, 0, -4, 0, 0, 0, 0, -13, 6, 0, 0, 6, 0, 6, -2000, 23, 39, 0, 
63, 0, 0, 0, 0, 0, 0, -23, 0, 0, 0, 102, -2, 0, 0, 0, 0, 0, 0, 0, 0, 0, 0, -1, -4, 0, 0, 0, 0, -13, 6, 0, 0, 0, 0, 6, -1856, 24, 39, 0, 
-193, 0, 0, 0, 0, 0, 0, 0, 0, 0, 0, -154, 0, 0, 0, 0, 0, 0, 0, 0, 0, 0, 0, 1, -4, 0, 0, 0, 0, -13, 6, 0, 0, 0, 0, 6, -1600, 22, 28, 0