335, 0, 8, 0, 0, 0, 0, 0, 0, 0, -20, 0, 6, 0, 1, 0, 0, 0, 0, 0, 0, 0, 0, 0, -16, 0, 4, 0, 0, 0, 6, 0, 6, 0, 0, 0, 944, 24, 46, 0, 
383, 0, 0, 0, 0, 0, 0, 0, 0, 0, 28, 0, 6, 0, 0, 0, 0, 0, 0, 0, 0, 0, 0, 0, -16, 0, 0, 0, 0, 0, 6, 0, 0, 0, 0, 0, 896, 24, 27, 0, 
0, 0, 8, 0, 0, 0, 0, 0, 0, 0, -20, 0, 0, 0, 1, 0, 0, 0, 0, 0, 0, 0, 0, 0, 0, 0, 4, 0, 0, 0, 0, 0, 6, 0, 0, 0, 944, 24, 16, 0, 
-449, 0, 0, 0, 0, 0, 0, 0, 0, -261, 0, 0, 0, 0, 0, 0, 0, 0, 0, 0, 0, 3, 0, 0, -16, 0, 0, 0, 0, 0, 6, 0, 0, 0, 0, 0, 1728, 30, 10, 0