-163, 0, 16, 28, 4, 0, 0, 39, 0, -197, 7, 0, 3, 0, 3, 3, 4, 0, 0, 0, 0, 1, 4, 0, 4, 0, 0, 0, -4, 0, 6, 0, 6, 6, 6, 0, -816, 41, 63, 0, 
0, 0, 0, 188, 164, 0, 0, 199, 0, 0, 0, 0, 0, 0, 0, 3, 4, 0, 0, 0, 0, 0, 0, 0, 0, 0, 0, 0, -4, 0, 0, 0, 0, 6, 6, 0, -976, 41, 47, 0, 
0, 0, 0, 0, 244, 0, 0, 279, 0, 0, 0, 0, 0, 0, 0, 0, 4, 0, 0, 0, 0, 0, 0, 0, 0, 0, 0, 0, -4, 0, 0, 0, 0, 0, 6, 0, -1056, 41, 34, 0, 
573, 0, 0, 0, 0, 0, 0, 0, 0, 509, 0, 0, 0, 0, 0, 0, 0, 0, 0, 0, 0, 3, 0, 0, 4, 0, 0, 0, 0, 0, 6, 0, 0, 0, 0, 0, -1552, 44, 10, 0