-74, 0, 8, 0, 20, 0, 0, 28, 37, -87, 9, 0, 0, 0, 0, 0, 0, 0, 0, 0, 3, -1, 0, 0, 4, 0, 4, 0, 0, 0, 6, 0, 6, 0, 6, 0, -224, 41, 63, 0, 
0, 0, 0, 0, 260, 0, 0, 268, 277, 0, 0, 0, 0, 0, 0, 0, 0, 0, 0, 0, 3, 0, 0, 0, 0, 0, 0, 0, 0, 0, 0, 0, 0, 0, 6, 0, -464, 41, 34, 0, 
-250, 0, 0, 0, -156, 0, 0, -148, -139, -263, 0, 0, 0, 0, 0, 0, 0, 0, 0, 0, 3, -1, 0, 0, 4, 0, 0, 0, 0, 0, 6, 0, 0, 0, 6, 0, -48, 41, 25, 0, 
342, 0, 0, 0, 436, 0, 0, 0, 0, 329, 0, 0, 0, 0, 0, 0, 0, 0, 0, 0, 0, -1, 0, 0, 4, 0, 0, 0, 0, 0, 6, 0, 0, 0, 6, 0, -640, 41, 13, 0