0, 0, 0, 0, 0, 0, 0, 0, 11, 0, 14, 33, 0, 0, 0, 0, 0, 0, 0, 0, 0, 0, 2, 3, 0, 0, 0, 0, 0, -2, 0, 0, 0, 0, 0, 6, 1296, 5, 56, 0, 
0, 0, 0, 0, 0, 0, 0, 0, -181, 0, 0, -159, 0, 0, 0, 0, 0, 0, 0, 0, 0, 0, 0, 3, 0, 0, 0, 0, 0, -2, 0, 0, 0, 0, 0, 6, 1488, 5, 38, 0, 
0, 0, 0, 0, 0, 0, 0, 0, 171, 0, 0, 193, 0, 0, 0, 0, 0, 0, 0, 0, 0, 0, 0, 3, 0, 0, 0, 0, 0, -2, 0, 0, 0, 0, 0, 6, 1136, 5, 38, 0, 
0, 0, 0, 0, 0, 0, 0, 0, 59, 0, 62, 0, 0, 0, 0, 0, 0, 0, 0, 0, 0, 0, 2, 0, 0, 0, 0, 0, 0, 0, 0, 0, 0, 0, 0, 0, 1248, 5, 17, 0