304, 0, 16, 48, 0, 0, 0, 77, 183, 409, 18, 461, 1, 0, 0, 0, 0, 0, 0, 0, -1, 2, 3, 7, -4, 0, -4, 4, 0, -31, 6, 0, 6, 6, 0, 6, -1152, 16, 63, 0, 
0, 0, 0, 0, 0, 0, 0, 0, -89, 0, 0, 0, 0, 0, 0, 0, 0, 0, 0, 0, 0, 0, 0, 0, 0, 0, 0, 0, 0, 0, 0, 0, 0, 0, 0, 0, -880, 15, 38, 0, 
352, 0, 0, 0, 0, 0, 0, 0, 0, 457, 66, 509, -2, 0, 0, 0, 0, 0, 0, 0, 0, -1, 0, 4, -4, 0, 0, 0, 0, -31, 6, 0, 0, 0, 0, 6, -1200, 19, 25, 0, 
384, 0, 0, 0, 0, 0, 0, 0, 0, 489, 0, 541, 0, 0, 0, 0, 0, 0, 0, 0, 0, 1, 0, 6, -4, 0, 0, 0, 0, -31, 6, 0, 0, 0, 0, 6, -1232, 17, 22, 0