294, 0, 8, -8, 40, 0, 0, 6, 51, 388, 16, 446, 0, 0, 1, 0, 0, 0, 0, 1, 0, 2, 0, 3, -4, 0, 4, 0, 0, -32, 6, 0, 6, 6, 6, 6, -480, 19, 63, 0, 
342, 0, 0, 40, 88, 0, 0, 54, 99, 436, 64, 494, 0, 0, 0, 0, 0, 0, 0, 1, 0, 2, 0, 3, -4, 0, 0, 0, 0, -32, 6, 0, 0, 6, 6, 6, -528, 19, 62, 0, 
230, 0, 8, -72, -24, 0, 0, -58, -13, 324, 0, 382, 0, 0, 1, 0, 0, 0, 0, 1, 0, 2, 0, 3, -4, 0, 4, 0, 0, -32, 6, 0, 6, 6, 6, 6, -416, 19, 61, 0, 
0, 0, 0, 104, 152, 0, 0, 118, 163, 0, 0, 0, 0, 0, 0, 0, 0, 0, 0, 1, 0, 0, 0, 0, 0, 0, 0, 0, 0, 0, 0, 0, 0, 6, 6, 0, -592, 19, 40, 0