0, 0, 0, 0, 0, 0, 0, 0, -7, 0, 36, 72, 0, 0, 0, 0, 0, 0, 0, 0, 0, 0, 1, 2, 0, 0, 0, 0, 0, -2, 0, 0, 0, 0, 0, 6, -1904, 6, 56, 0, 
0, 0, 0, 0, 0, 0, 0, 0, 41, 0, 0, 120, 0, 0, 0, 0, 0, 0, 0, 0, 0, 0, 0, 2, 0, 0, 0, 0, 0, -2, 0, 0, 0, 0, 0, 6, -1952, 6, 38, 0, 
0, 0, 0, 0, 0, 0, 0, 0, 169, 0, 0, 248, 0, 0, 0, 0, 0, 0, 0, 0, 0, 0, 0, 2, 0, 0, 0, 0, 0, -2, 0, 0, 0, 0, 0, 6, -2080, 6, 38, 0, 
0, 0, 0, 0, 0, 0, 0, 0, 0, 0, 0, 0, 0, 0, 0, 0, 0, 0, 0, 0, 0, 0, 0, 0, 0, 0, 0, 0, 0, 0, 0, 0, 0, 0, 0, 0, 0, 0, 0, 0