47, 0, 16, 8, 8, 0, 0, 13, 7, 0, 18, 55, -2, 0, 0, 0, 1, 0, 0, 0, 0, 0, 0, 1, 0, 0, 0, 0, 4, -4, 6, 0, 6, 6, 6, 6, -1968, 7, 63, 0, 
207, 0, 0, 64, 168, 0, 0, 0, 167, 0, 0, 223, -2, 0, 0, 0, 1, 0, 0, 0, 0, 0, 0, 1, 0, 0, 0, 4, 4, 9, 6, 0, 0, 6, 6, 4, -2128, 7, 40, 0, 
383, 0, 0, 0, 0, 0, 0, 0, 0, 0, 0, 391, 0, 0, 0, 0, 0, 0, 0, 0, 0, 0, 0, 3, 0, 0, 0, 0, 0, -4, 6, 0, 0, 0, 0, 6, -2304, 5, 28, 0, 
0, 0, 0, 0, 0, 0, 0, 0, 0, 0, 0, 0, 0, 0, 0, 0, 0, 0, 0, 0, 0, 0, 0, 0, 0, 0, 0, 0, 0, 0, 0, 0, 0, 0, 0, 0, 0, 0, 0, 0