-23, 0, 8, 8, 8, 0, 0, 9, 16, -26, 0, 0, -1, 0, 0, 0, 0, 0, 0, 0, 0, 1, -1, 0, 0, 0, 0, 0, 0, 0, 6, 0, 6, 6, 6, 0, 2080, 25, 63, 0, 
-23, 0, 8, 8, 8, 0, 0, 9, 16, -26, 0, 0, -1, 0, 0, 0, 0, 0, 0, 0, 0, 1, -1, 0, 0, 0, 0, 0, 0, 0, 6, 0, 6, 6, 6, 0, 2080, 25, 62, 0, 
0, 0, 0, 40, 40, 0, 0, 41, 0, 0, 0, 0, 0, 0, 0, 0, 0, 0, 0, 0, 0, 0, 0, 0, 0, 0, 0, 0, 0, 0, 0, 0, 0, 6, 6, 0, 2048, 25, 47, 0, 
0, 0, 0, 184, 184, 0, 0, 185, 192, 0, 0, 0, 0, 0, 0, 0, 0, 0, 0, 0, 0, 0, 0, 0, 0, 0, 0, 0, 0, 0, 0, 0, 0, 6, 6, 0, 1904, 25, 47, 0