0, 0, 0, 196, 0, 0, 0, 188, 160, 0, 0, 0, 0, 0, 0, 4, 0, 0, 0, 6, 0, 0, 0, 0, 0, 0, 0, 0, 0, 0, 0, 0, 0, 6, 0, 0, -656, 44, 61, 0, 
0, 0, 0, 52, 0, 0, 0, 44, 16, 0, 0, 0, 0, 0, 0, 4, 0, 0, 0, 6, 0, 0, 0, 0, 0, 0, 0, 0, 0, 0, 0, 0, 0, 6, 0, 0, -512, 44, 61, 0, 
0, 0, 0, 0, 0, 0, 0, 268, 240, 0, 0, 0, 0, 0, 0, 0, 0, 0, 0, 6, 0, 0, 0, 0, 0, 0, 0, 0, 0, 0, 0, 0, 0, 0, 0, 0, -736, 44, 53, 0, 
0, -108, 0, 0, 0, -100, 32, 0, 0, 0, 0, 0, 0, -2, 0, 0, 0, 1, 0, 0, 0, 0, 0, 0, 0, 12, 0, 0, 0, 0, 0, 6, 0, 0, 0, 0, -528, 55, 41, 0