-53, 0, 8, 16, 16, 0, 0, 0, 17, -72, 6, 0, 1, 0, 1, 1, 1, 0, 0, 0, 5, 2, 0, 0, 0, 0, 0, 0, 0, 0, 6, 0, 6, 6, 6, 0, -1216, 30, 63, 0, 
-245, 0, 0, -176, -176, 0, 0, -164, -175, -264, 0, 0, 0, 0, 0, 0, 0, 0, 0, 0, 4, 1, 0, 0, 0, 0, 0, 0, 0, 0, 6, 0, 0, 6, 6, 0, -1024, 31, 49, 0, 
0, 0, 0, 48, 48, 0, 0, 60, 49, 0, 0, 0, 0, 0, 0, 0, 0, 0, 0, 0, 4, 0, 0, 0, 0, 0, 0, 0, 0, 0, 0, 0, 0, 6, 6, 0, -1248, 31, 47, 0, 
0, 0, 0, 192, 192, 0, 0, 204, 193, 0, 0, 0, 0, 0, 0, 0, 0, 0, 0, 0, 4, 0, 0, 0, 0, 0, 0, 0, 0, 0, 0, 0, 0, 6, 6, 0, -1392, 31, 47, 0