0, 252, 0, 92, 152, 0, 0, 109, 203, 0, 0, 0, 0, 3, 0, 0, 0, 0, 0, 0, 3, 0, 0, 0, 0, -12, 0, 4, 4, 0, 0, 6, 0, 6, 6, 0, -1552, 50, 61, 0, 
0, -20, 0, -180, -120, 0, 0, -163, -69, 0, 0, 0, 0, 3, 0, 0, 0, 0, 0, 0, 3, 0, 0, 0, 0, -12, 0, 4, 4, 0, 0, 6, 0, 6, 6, 0, -1280, 50, 61, 0, 
0, 172, 0, 12, 72, 0, 29, 29, 123, 0, 0, 0, 0, 3, 0, 0, 0, 0, 6, 0, 3, 0, 0, 0, 0, -12, 0, 4, 4, 0, 0, 6, 0, 6, 6, 0, -1472, 50, 57, 0, 
0, 0, 0, 188, 248, 0, 0, 205, 299, 0, 0, 0, 0, 0, 0, 0, 0, 0, 0, 0, 3, 0, 0, 0, 0, 0, 0, 4, 4, 0, 0, 0, 0, 6, 6, 0, -1648, 50, 47, 0