77, 0, 16, 16, 48, 0, 0, 0, 0, 0, 18, 92, -1, 0, 0, 0, -1, 0, 0, 0, 0, 0, 1, -1, 0, 0, 0, 0, 0, -6, 6, 0, 6, 6, 6, 6, 736, 18, 63, 0, 
-35, 0, -16, -16, 16, 0, 0, 2, 0, 53, -14, 60, -2, 0, 0, 0, -1, 0, 0, 1, 0, 0, 1, -1, 15, 0, 0, 0, 0, -6, 6, 0, 6, 6, 6, 6, 768, 18, 63, 0, 
125, 0, 0, 64, 96, 0, 0, 82, 108, 0, 66, 0, 0, 0, 0, 1, 0, 0, 0, 2, 1, 0, 2, 0, 0, 0, 0, 0, 0, 0, 6, 0, 0, 6, 6, 0, 688, 17, 42, 0, 
0, 0, 0, 112, 144, 0, 0, 130, 156, 0, 0, 0, 0, 0, 0, 1, 0, 0, 0, 2, 1, 0, 0, 0, 0, 0, 0, 0, 0, 0, 0, 0, 0, 6, 6, 0, 640, 17, 40, 0