0, 0, -16, 56, 56, 0, 0, 55, 51, 0, 58, 0, 0, 0, 0, 0, 0, 0, 0, 0, 1, 0, 3, 0, 0, 0, -4, 0, 0, 0, 0, 0, 6, 6, 6, 0, 2112, 16, 50, 0, 
0, 0, 8, 8, 8, 0, 0, 7, 3, 0, 10, 0, 0, 0, 0, 0, 0, 0, 0, 0, 1, 0, 3, 0, 0, 0, 0, 0, 0, 0, 0, 0, 6, 6, 6, 0, 2160, 16, 50, 0, 
0, 0, 16, 88, 88, 0, 0, 87, 83, 0, 0, 0, 0, 0, 0, 0, 0, 0, 0, 0, 1, 0, 0, 0, 0, 0, -4, 0, 0, 0, 0, 0, 6, 6, 6, 0, 2080, 16, 45, 0, 
0, 0, 0, 0, 136, 0, 0, 135, 131, 0, 0, 0, 0, 0, 0, 0, 0, 0, 0, 0, 1, 0, 0, 0, 0, 0, 0, 0, 0, 0, 0, 0, 0, 0, 6, 0, 2032, 16, 24, 0