184, 0, 0, -16, -24, 0, 0, -29, -34, 233, 27, 0, -1, 0, 0, 0, 0, 0, 0, 1, 1, -1, 1, 0, 0, 0, 4, 0, 0, 0, 6, 0, 6, 6, 6, 0, -1408, 29, 63, 0, 
392, 0, 0, 192, 184, 0, 0, 179, 174, 441, 0, 0, -1, 0, 0, 0, 0, 0, 0, 1, 1, -1, 0, 0, 0, 0, 0, 0, 0, 0, 6, 0, 0, 6, 6, 0, -1616, 29, 49, 0, 
0, 0, 0, -112, -128, 0, 0, -125, -130, 0, 0, 0, 0, 0, 0, 0, 0, 0, 0, 1, 1, 0, 0, 0, 0, 0, 0, 0, 0, 0, 0, 0, 0, 6, 6, 0, -1312, 29, 47, 0, 
488, 0, 0, 0, 272, 0, 0, 275, 270, 537, 0, 0, -1, 0, 0, 0, 0, 0, 0, 1, 1, -1, 0, 0, 0, 0, 0, 0, 0, 0, 6, 0, 0, 0, 6, 0, -1712, 29, 25, 0