-130, 0, 8, 64, 0, 0, 0, 71, 0, 0, -8, -185, 1, 0, 1, 0, 0, 0, 0, 0, 0, 0, 2, 3, 4, 0, 0, 0, 0, 11, 6, 0, 6, 6, 0, 6, 1136, 5, 56, 0, 
-274, 0, 0, 0, 0, 0, 0, -73, 0, 0, 0, -329, 1, 0, 0, 0, 0, 0, 0, 0, 0, 0, 0, 3, 4, 0, 0, 0, 0, 11, 6, 0, 0, 0, 0, 6, 1280, 5, 39, 0, 
-226, 0, 0, 0, 0, 0, 0, 0, 0, 0, 0, -281, 0, 0, 0, 0, 0, 0, 0, 0, 0, 0, 0, 2, 4, 0, 0, 0, 0, 11, 6, 0, 0, 0, 0, 6, 1232, 6, 28, 0, 
446, 0, 0, 0, 0, 0, 0, 0, 0, 0, 0, 391, 0, 0, 0, 0, 0, 0, 0, 0, 0, 0, 0, 2, 4, 0, 0, 0, 0, 11, 6, 0, 0, 0, 0, 6, 560, 6, 28, 0