-250, 0, 16, 0, -4, 0, 0, 23, -15, -338, 4, 0, 2, 0, 2, 0, 0, 0, 0, -2, 1, 4, 2, 0, 8, 0, 0, 0, 0, 0, 6, 0, 6, 0, 6, 0, 1600, 43, 62, 0, 
0, 0, 0, 0, 252, 0, 0, 279, 241, 0, 0, 0, 0, 0, 0, 0, 2, 0, 0, 0, 3, 0, 0, 0, 0, 0, 0, 0, 0, 0, 0, 0, 0, 0, 6, 0, 1344, 41, 53, 0, 
-218, 0, 0, 0, 28, 0, 0, 55, 17, -306, 36, 0, 2, 0, 0, 0, 0, 0, 0, -2, 1, 4, 2, 0, 8, 0, 0, 0, 0, 0, 6, 0, 0, 0, 6, 0, 1568, 43, 46, 0, 
0, 0, 0, 0, 300, 0, 0, 0, 289, 0, 0, 0, 0, 0, 0, 0, 0, 0, 0, 0, 1, 0, 0, 0, 0, 0, 0, 0, 0, 0, 0, 0, 0, 0, 6, 0, 1296, 43, 37, 0