-212, 0, 8, 8, -40, 0, 0, -6, -55, -295, 2, -343, -1, 0, 0, 0, 0, 0, 0, 0, 0, 0, 3, 1, 8, 0, 0, -4, 0, 25, 6, 0, 6, 6, 6, 6, 1776, 21, 63, 0, 
0, 0, 0, 0, 88, 0, 0, 122, 73, 0, 0, -215, 0, 0, 0, 0, 0, 0, 0, 0, 0, 0, 0, 1, 0, 0, 0, 0, 0, 25, 0, 0, 0, 0, 6, 6, 1648, 21, 54, 0, 
0, 0, 0, 0, 136, 0, 0, 0, 121, 0, 0, -167, 0, 0, 0, 0, 0, 0, 0, 0, 0, 0, 0, 1, 0, 0, 0, 0, 0, 25, 0, 0, 0, 0, 6, 6, 1600, 21, 38, 0, 
252, 0, 0, 0, 0, 0, 0, 0, 0, 169, 0, 121, 0, 0, 0, 0, 0, 0, 0, 0, 0, 1, 0, 2, 8, 0, 0, 0, 0, 25, 6, 0, 0, 0, 0, 6, 1312, 20, 22, 0