255, 0, 8, -8, -8, 0, 0, -9, 9, 0, 0, 318, 1, 0, 0, 0, 0, 0, 0, -1, -1, 0, 0, 5, 0, 0, -4, 0, 0, -21, 6, 0, 6, 6, 6, 6, 1824, 12, 62, 0, 
319, 0, 0, 56, 56, 0, 0, 55, 73, 0, 0, 382, 2, 0, 0, 1, 0, 0, 0, 0, 0, 0, 0, 6, 0, 0, 0, 0, 0, -21, 6, 0, 0, 6, 6, 6, 1760, 11, 50, 0, 
351, 0, 0, 0, 88, 0, 0, 87, 105, 0, 0, 414, 2, 0, 0, 0, 0, 0, 0, 0, 0, 0, 0, 6, 0, 0, 0, 0, 0, -21, 6, 0, 0, 0, 6, 6, 1728, 11, 43, 0, 
0, 0, 0, 0, -168, 0, 0, 0, -151, 0, 0, 158, 0, 0, 0, 0, 0, 0, 0, 0, 0, 0, 0, 6, 0, 0, 0, 0, 0, -21, 0, 0, 0, 0, 6, 6, 1984, 11, 38, 0