0, 0, 0, 184, 0, 0, 0, 116, 3, 0, 0, 0, 0, 0, 0, 3, 0, 0, 0, 6, 0, 0, 0, 0, 0, 0, 0, -8, 0, 0, 0, 0, 0, 6, 0, 0, 1376, 44, 61, 0, 
0, 0, 0, 40, 0, 0, 0, -28, -141, 0, 0, 0, 0, 0, 0, 3, 0, 0, 0, 6, 0, 0, 0, 0, 0, 0, 0, -8, 0, 0, 0, 0, 0, 6, 0, 0, 1520, 44, 61, 0, 
0, 0, 0, 0, 0, 0, 0, 260, 147, 0, 0, 0, 0, 0, 0, 0, 0, 0, 0, 6, 0, 0, 0, 0, 0, 0, 0, 0, 0, 0, 0, 0, 0, 0, 0, 0, 1232, 44, 53, 0, 
0, 0, 0, 0, 0, 180, 0, 180, 0, 0, 0, 0, 0, 0, 0, 0, 0, 3, 0, 0, 0, 0, 0, 0, 0, 0, 0, 0, 0, 0, 0, 0, 0, 0, 0, 0, 1312, 50, 5, 0