50, 0, 16, 8, 8, 0, 0, 22, 3, 0, 19, 69, -1, 0, 0, 0, 0, 0, 0, 0, 0, 0, 3, 2, 0, 0, 0, 0, 0, -3, 6, 0, 6, 6, 6, 6, 16, 10, 63, 0, 
0, 0, 0, 0, 0, 0, 0, -9, 0, 0, 0, -43, 0, 0, 0, 0, 0, 0, 0, 0, 0, 0, 0, 1, 0, 0, 0, 0, 0, -3, 0, 0, 0, 0, 0, 6, 128, 11, 55, 0, 
0, 0, 0, 104, 104, 0, 0, 118, 99, 0, 0, 0, 0, 0, 0, 0, 0, 0, 0, 0, 0, 0, 0, 0, 0, 0, 0, 0, 0, 0, 0, 0, 0, 6, 6, 0, -80, 10, 40, 0, 
450, 0, 0, 0, 0, 0, 0, 0, 0, 0, 0, 469, 0, 0, 0, 0, 0, 0, 0, 0, 0, 0, 0, 3, 0, 0, 0, 0, 0, -3, 6, 0, 0, 0, 0, 6, -384, 9, 28, 0