0, 124, 15, 12, 36, 110, 27, 27, 45, 0, 0, 0, 0, 2, 0, 0, 0, 1, 1, 5, -1, 0, 0, 0, 0, -8, 0, 0, 0, 0, 0, 6, 6, 6, 6, 0, 1568, 55, 63, 0, 
0, 0, 0, -108, 0, -18, 0, 0, -83, 0, 0, 0, 0, 0, 0, 0, 0, 2, 0, 0, 0, 0, 0, 0, 0, 0, 0, 0, 0, 0, 0, 0, 0, 6, 0, 0, 1696, 54, 57, 0, 
0, 0, 0, 164, 0, 254, 0, 0, 189, 0, 0, 0, 0, 0, 0, 0, 0, 2, 0, 0, 0, 0, 0, 0, 0, 0, 0, 0, 0, 0, 0, 0, 0, 6, 0, 0, 1424, 54, 57, 0, 
0, -20, 0, -124, -108, -34, 0, -117, -99, 0, 0, 0, 0, 3, 0, 0, 1, 2, 0, 6, 0, 0, 0, 0, 0, -8, 0, 0, 0, 0, 0, 6, 0, 6, 6, 0, 1712, 54, 51, 0