0, 36, 20, 16, 12, 38, 19, 19, 19, 0, 0, 0, 0, 1, 0, 1, 0, 2, -3, 2, 5, 0, 0, 0, 0, 0, 0, 0, 0, 0, 0, 6, 6, 6, 6, 0, -496, 69, 63, 0, 
0, 164, 0, 144, 140, 166, 0, 147, 147, 0, 0, 0, 0, 1, 0, 1, 0, 2, 0, 2, 5, 0, 0, 0, 0, 0, 0, 0, 0, 0, 0, 6, 0, 6, 6, 0, -624, 69, 51, 0, 
0, 0, 0, 0, 236, 0, 0, 243, 243, 0, 0, 0, 0, 0, 0, 0, 0, 0, 0, 2, 5, 0, 0, 0, 0, 0, 0, 0, 0, 0, 0, 0, 0, 0, 6, 0, -720, 69, 7, 0, 
0, 0, 0, 0, 284, 0, 0, 0, 291, 0, 0, 0, 0, 0, 0, 0, 0, 0, 0, 0, 5, 0, 0, 0, 0, 0, 0, 0, 0, 0, 0, 0, 0, 0, 6, 0, -768, 69, 2, 0