0, 68, 20, 16, 20, 0, 25, 16, 25, 0, 0, 0, 0, 1, 0, 0, 0, 0, 5, -1, 3, 0, 0, 0, 0, -4, 0, 0, 4, 0, 0, 6, 6, 6, 6, 0, 304, 61, 62, 0, 
0, 196, 0, 144, 148, 0, 0, 144, 153, 0, 0, 0, 0, 2, 0, 1, 1, 0, 0, 0, 4, 0, 0, 0, 0, -4, 0, 0, 4, 0, 0, 6, 0, 6, 6, 0, 176, 60, 37, 0, 
0, 0, 0, 0, 244, 0, 0, 240, 249, 0, 0, 0, 0, 0, 0, 0, 1, 0, 0, 0, 4, 0, 0, 0, 0, 0, 0, 0, 4, 0, 0, 0, 0, 0, 6, 0, 80, 60, 7, 0, 
0, 0, 0, 0, 292, 0, 0, 0, 297, 0, 0, 0, 0, 0, 0, 0, 0, 0, 0, 0, 3, 0, 0, 0, 0, 0, 0, 0, 4, 0, 0, 0, 0, 0, 6, 0, 32, 61, 2, 0