-192, 0, 8, 64, 96, 0, 0, 68, 100, -212, 0, -240, 0, 0, 1, 0, 0, 0, 0, 1, 1, 4, 0, 0, 4, 0, 0, 0, 4, 15, 6, 0, 6, 6, 6, 5, -1728, 22, 61, 0, 
-144, 0, 0, 112, 144, 0, 0, 116, 148, 0, 0, -192, 0, 0, 0, 0, 0, 0, 0, 1, 1, 0, 0, 0, 4, 0, 0, 0, 4, 15, 6, 0, 0, 6, 6, 5, -1776, 22, 50, 0, 
0, 0, -24, 0, 0, 0, 0, 36, 68, -244, 0, 0, 0, 0, 0, 0, 0, 0, 0, 0, 0, 3, 0, 0, 0, 0, 0, 0, 0, 0, 0, 0, 6, 0, 0, 0, -1696, 23, 40, 0, 
0, 0, 8, 0, 0, 0, 0, 68, 100, 0, 0, 0, 0, 0, 0, 0, 0, 0, 0, 0, 0, 0, 0, 0, 0, 0, 0, 0, 0, 0, 0, 0, 6, 0, 0, 0, -1728, 23, 37, 0