248, 0, 16, -40, -48, 0, 0, 0, 0, 0, 27, 309, 1, 0, 2, 2, 1, 0, 0, 0, 0, 0, 0, 5, -4, 0, -4, 0, 0, -17, 6, 0, 6, 6, 6, 6, 672, 7, 63, 0, 
280, 0, 0, -8, -16, 0, 0, 0, 0, 0, 59, 341, 1, 0, 0, 2, 1, 0, 0, 0, 0, 0, 0, 5, -4, 0, 0, 0, 0, -17, 6, 0, 0, 6, 6, 6, 640, 7, 56, 0, 
344, 0, 0, 56, 48, 0, 0, 0, 0, 0, 0, 405, 0, 0, 0, 1, 0, 0, 0, 0, 0, 0, 0, 4, -4, 0, 0, 0, 0, -17, 6, 0, 0, 6, 6, 6, 576, 8, 40, 0, 
0, 0, 0, 0, 176, 0, 0, 0, 0, 0, 0, 533, 0, 0, 0, 0, 0, 0, 0, 0, 0, 0, 0, 4, 0, 0, 0, 0, 0, -17, 0, 0, 0, 0, 6, 6, 448, 8, 38, 0