0, 0, 0, 56, 120, 0, 0, 87, 152, 0, 19, 196, 0, 0, 0, 0, 0, 0, 0, 0, 0, 0, 0, 4, 0, 0, 0, 4, 0, -16, 0, 0, 0, 6, 6, 6, -1568, 13, 60, 0, 
0, 0, 0, 0, 168, 0, 0, 0, 0, 0, 67, 244, 0, 0, 0, 0, 0, 0, 0, 0, 0, 0, 0, 4, 0, 0, 0, 0, 0, -16, 0, 0, 0, 0, 6, 6, -1616, 13, 56, 0, 
0, 0, 0, 0, 0, 0, 0, -25, 0, 0, 0, 84, 0, 0, 0, 0, 0, 0, 0, 0, 0, 0, 0, 4, 0, 0, 0, 0, 0, -16, 0, 0, 0, 0, 0, 6, -1456, 13, 55, 0, 
0, 0, 0, -24, 40, 0, 0, 7, 0, 0, 0, 116, 0, 0, 0, 0, 0, 0, 0, 0, 0, 0, 0, 4, 0, 0, 0, 4, 0, -16, 0, 0, 0, 6, 6, 6, -1488, 13, 46, 0