0, -56, 0, 40, 36, -55, 11, 29, 29, 0, 0, 0, 0, 0, 0, 0, 0, 2, -3, 2, 5, 0, 0, 0, 0, 4, 0, 4, 0, 0, 0, 6, 0, 6, 6, 0, 1856, 69, 61, 0, 
0, 40, 0, 136, 132, 41, 0, 125, 125, 0, 0, 0, 0, 0, 0, 0, 0, 2, 0, 2, 5, 0, 0, 0, 0, 4, 0, 4, 0, 0, 0, 6, 0, 6, 6, 0, 1760, 69, 51, 0, 
0, 152, 0, 0, 244, 153, 0, 237, 237, 0, 0, 0, 0, 0, 0, 0, 0, 2, 0, 2, 5, 0, 0, 0, 0, 4, 0, 0, 0, 0, 0, 6, 0, 0, 6, 0, 1648, 69, 28, 0, 
0, 0, 0, 0, 0, 0, 0, 0, 0, 0, 0, 0, 0, 0, 0, 0, 0, 0, 0, 0, 0, 0, 0, 0, 0, 0, 0, 0, 0, 0, 0, 0, 0, 0, 0, 0, 0, 0, 0, 0