-157, -84, 0, -20, -16, 0, 0, -32, -13, -198, 0, 0, 3, 3, 0, 2, 2, 0, 0, 6, 0, 3, 0, 0, 4, 4, 0, 0, 0, 0, 6, 6, 0, 6, 6, 0, 1552, 44, 63, 0, 
-221, -148, 0, -84, -80, 0, 0, -96, -77, -262, 0, 0, 3, 3, 0, 2, 2, 0, 0, 6, 0, 3, 0, 0, 4, 4, 0, 0, 0, 0, 6, 6, 0, 6, 6, 0, 1616, 44, 63, 0, 
-109, -36, -8, 28, 32, 0, 0, 16, 35, -150, 0, 0, 3, 3, 3, 2, 2, 0, 0, 6, 0, 3, 0, 0, 4, 4, -4, 0, 0, 0, 6, 6, 6, 6, 6, 0, 1504, 44, 62, 0, 
0, 124, 0, 188, 192, 0, 0, 176, 195, 0, 0, 0, 0, 3, 0, 2, 2, 0, 0, 6, 0, 0, 0, 0, 0, 4, 0, 0, 0, 0, 0, 6, 0, 6, 6, 0, 1344, 44, 61, 0