-13, 0, 8, 8, 8, 0, 0, 6, 0, -17, 3, 0, 0, 0, 0, 0, 0, 0, 0, 1, 0, 3, 0, 0, 0, 0, 0, 0, 0, 0, 6, 0, 6, 6, 6, 0, -1312, 30, 63, 0, 
0, 0, 0, 40, 40, 0, 0, 38, 0, 0, 0, 0, 0, 0, 0, 0, 0, 0, 0, 1, 0, 0, 0, 0, 0, 0, 0, 0, 0, 0, 0, 0, 0, 6, 6, 0, -1344, 30, 47, 0, 
0, 0, 0, 184, 184, 0, 0, 182, 0, 0, 0, 0, 0, 0, 0, 0, 0, 0, 0, 1, 0, 0, 0, 0, 0, 0, 0, 0, 0, 0, 0, 0, 0, 6, 6, 0, -1488, 30, 47, 0, 
0, 0, 0, 0, 232, 0, 0, 230, 0, 0, 0, 0, 0, 0, 0, 0, 0, 0, 0, 1, 0, 0, 0, 0, 0, 0, 0, 0, 0, 0, 0, 0, 0, 0, 6, 0, -1536, 30, 34, 0