0, 0, 16, -8, -52, 0, 5, -23, -70, 0, 0, 0, 0, 0, 2, 0, 1, 0, 2, -3, 0, 0, 0, 0, 0, 0, 4, 0, -4, 0, 0, 0, 6, 6, 6, 0, 1824, 53, 56, 0, 
0, 0, 0, 184, 140, 0, 0, 169, 122, 0, 0, 0, 0, 0, 0, 3, 4, 0, 0, 0, 3, 0, 0, 0, 0, 0, 0, 0, -4, 0, 0, 0, 0, 6, 6, 0, 1632, 50, 47, 0, 
0, 0, 0, 24, -20, 0, 37, 9, -38, 0, 0, 0, 0, 0, 0, 0, 1, 0, 2, -3, 0, 0, 0, 0, 0, 0, 0, 0, -4, 0, 0, 0, 0, 6, 6, 0, 1792, 53, 46, 0, 
0, 0, 0, 0, 236, 0, 0, 265, 218, 0, 0, 0, 0, 0, 0, 0, 4, 0, 0, 0, 3, 0, 0, 0, 0, 0, 0, 0, -4, 0, 0, 0, 0, 0, 6, 0, 1536, 50, 34, 0