226, 0, 8, -16, 8, 0, 0, -5, 13, 0, 22, 373, -1, 0, 0, 0, 0, 0, 0, 0, 0, 0, 0, 1, -4, 0, 0, 0, 0, -29, 6, 0, 6, 6, 6, 6, -1600, 7, 63, 0, 
274, 0, 0, 32, 56, 0, 0, 43, 61, 0, 70, 421, -1, 0, 0, 0, 0, 0, 0, 0, 0, 0, 0, 1, -4, 0, 0, 0, 0, -29, 6, 0, 0, 6, 6, 6, -1648, 7, 60, 0, 
0, 0, 0, 0, -120, 0, 0, -133, -115, 0, 0, 245, 0, 0, 0, 0, 0, 0, 0, 0, 0, 0, 0, 1, 0, 0, 0, 0, 0, -29, 0, 0, 0, 0, 6, 6, -1472, 7, 54, 0, 
306, 0, 0, 64, 88, 0, 0, 75, 93, 0, 0, 453, -1, 0, 0, 0, 0, 0, 0, 0, 0, 0, 0, 1, -4, 0, 0, 0, 0, -29, 6, 0, 0, 6, 6, 6, -1680, 7, 50, 0