-464, 0, 8, -184, 0, 0, 0, 0, 0, -535, 23, 0, 7, 0, 2, 0, 0, 0, 0, 0, 0, 7, 2, 0, 12, 0, 0, -4, 0, 0, 6, 0, 6, 6, 0, 0, -32, 28, 57, 0, 
-240, 0, 0, 40, -272, 0, 0, -99, -418, -311, 0, 0, 7, 0, 0, 0, 1, 0, 0, 0, 7, 7, 0, 0, 12, 0, 0, -4, -8, 0, 6, 0, 0, 6, 6, 0, -256, 28, 49, 0, 
0, 0, 0, 0, 96, 0, 0, 269, 0, 0, 0, 0, 0, 0, 0, 0, 1, 0, 0, 0, 0, 0, 0, 0, 0, 0, 0, 0, -8, 0, 0, 0, 0, 0, 6, 0, -624, 28, 34, 0, 
0, 0, 0, 0, -112, 0, 0, 61, 0, 0, 0, 0, 0, 0, 0, 0, 1, 0, 0, 0, 0, 0, 0, 0, 0, 0, 0, 0, -8, 0, 0, 0, 0, 0, 6, 0, -416, 28, 34, 0