211, 0, 8, -7, -16, 0, 0, -18, -17, 239, 19, 272, 1, 0, 0, 0, 0, 0, 0, 0, 0, 4, 0, 4, -4, 0, -4, 0, 0, -22, 6, 0, 6, 6, 6, 6, 688, 18, 63, 0, 
259, 0, 0, 41, 32, 0, 0, 30, 31, 287, 67, 320, 1, 0, 0, 0, 0, 0, 0, 0, 0, 4, 0, 4, -4, 0, 0, 0, 0, -22, 6, 0, 0, 6, 6, 6, 640, 18, 62, 0, 
0, 0, 0, 105, 96, 0, 0, 94, 95, 0, 0, 0, 0, 0, 0, 0, 0, 0, 0, 0, 0, 0, 0, 0, 0, 0, 0, 0, 0, 0, 0, 0, 0, 6, 6, 0, 576, 18, 40, 0, 
67, 0, 0, 0, 0, 0, 0, 0, 0, 0, 0, 128, 0, 0, 0, 0, 0, 0, 0, 0, 0, 0, 0, 3, -4, 0, 0, 0, 0, -22, 6, 0, 0, 0, 0, 6, 832, 19, 28, 0