171, 0, 8, -16, 0, 0, 0, -3, 10, 0, 36, 203, -1, 0, 0, 0, 0, 0, 0, 0, 0, 0, 2, 3, -4, 0, -4, 0, 4, -9, 6, 0, 6, 6, 6, 6, -752, 10, 63, 0, 
203, 0, 0, 16, 32, 0, 0, 29, 42, 0, 68, 235, -1, 0, 0, 0, 0, 0, 0, 0, 0, 0, 2, 3, -4, 0, 0, 0, 4, -9, 6, 0, 0, 6, 6, 6, -784, 10, 60, 0, 
251, 0, 0, 64, 80, 0, 0, 77, 90, 0, 0, 283, -1, 0, 0, 0, 0, 0, 0, 0, 0, 0, 0, 3, -4, 0, 0, 0, 4, -9, 6, 0, 0, 6, 6, 6, -832, 10, 50, 0, 
0, 0, 0, 112, 128, 0, 0, 125, 138, 0, 0, 0, 0, 0, 0, 0, 0, 0, 0, 0, 0, 0, 0, 0, 0, 0, 0, 0, 4, 0, 0, 0, 0, 6, 6, 0, -880, 10, 40, 0