105, 0, 16, 16, 24, 0, 0, 15, 27, 115, 19, 130, -1, 0, 0, 0, 1, 0, 0, 1, 1, -1, 1, 1, -4, 0, 0, 0, 0, -10, 6, 0, 6, 6, 6, 4, -656, 22, 63, 0, 
153, 0, 0, 64, 72, 0, 0, 63, 75, 0, 67, 178, -1, 0, 0, 0, 1, 0, 0, 1, 1, 0, 1, 1, -4, 0, 0, 0, 0, -10, 6, 0, 0, 6, 6, 4, -704, 22, 60, 0, 
0, 0, 0, 112, 120, 0, 0, 111, 123, 0, 0, 0, 0, 0, 0, 0, 1, 0, 0, 1, 1, 0, 0, 0, 0, 0, 0, 0, 0, 0, 0, 0, 0, 6, 6, 0, -752, 22, 40, 0, 
0, 0, 0, 0, -24, 0, 0, -33, -21, 0, 0, 0, 0, 0, 0, 0, 0, 0, 0, 0, 0, 0, 0, 0, 0, 0, 0, 0, 0, 0, 0, 0, 0, 0, 6, 0, -608, 23, 34, 0