317, 0, 16, -56, 0, 0, 0, -62, -87, 349, 39, 0, 0, 0, 0, 0, 0, 0, 0, 1, -1, 2, 0, 0, -8, 0, -4, 0, 0, 0, 6, 0, 6, 6, 0, 0, -2176, 24, 62, 0, 
317, 0, 16, -56, 0, 0, 0, -62, 0, 349, 39, 0, 0, 0, 0, 0, 0, 0, 0, 1, 0, 2, 0, 0, -8, 0, -4, 0, 0, 0, 6, 0, 6, 6, 0, 0, -2176, 24, 58, 0, 
349, 0, 0, -24, 0, 0, 0, -30, -55, 381, 71, 0, 0, 0, 0, 0, 0, 0, 0, 1, -1, 2, 0, 0, -8, 0, 0, 0, 0, 0, 6, 0, 0, 6, 0, 0, -2208, 24, 55, 0, 
445, 0, 0, 72, 0, 0, 0, 66, 41, 477, 0, 0, 1, 0, 0, 1, 0, 0, 0, 2, 0, 3, 0, 0, -8, 0, 0, 0, 0, 0, 6, 0, 0, 6, 0, 0, -2304, 23, 49, 0