403, 0, 0, 0, 0, 0, 0, -83, -157, 0, 0, 540, 0, 0, 0, 0, 0, 0, 0, 0, 1, 0, 0, 3, -4, 0, 0, 0, 0, -29, 6, 0, 0, 0, 0, 6, 976, 5, 43, 0, 
291, 0, 0, 0, 0, 0, 0, 0, 0, 0, 32, 428, -2, 0, 0, 0, 0, 0, 0, 0, 0, 0, 0, 1, -4, 0, 0, 0, 0, -29, 6, 0, 0, 0, 0, 6, 1088, 7, 40, 0, 
323, 0, 0, 0, 0, 0, 0, 0, 0, 0, 64, 460, -1, 0, 0, 0, 0, 0, 0, 0, 0, 0, 1, 2, -4, 0, -4, 0, 0, -29, 6, 0, 6, 0, 0, 6, 1056, 6, 34, 0, 
-301, 0, 0, 0, 0, 0, 0, 0, 0, 0, 0, -164, 0, 0, 0, 0, 0, 0, 0, 0, 0, 0, 0, 3, -4, 0, 0, 0, 0, -29, 6, 0, 0, 0, 0, 6, 1680, 5, 28, 0