0, -12, 0, 12, 4, -26, 1, 0, 20, 0, 0, 0, 0, 3, 3, 3, 3, 4, 2, 0, 0, 0, 0, 0, 0, 0, 0, 0, -4, 0, 0, 6, 6, 6, 6, 0, 1584, 64, 63, 0, 
0, 20, 0, 44, 36, 6, 33, 61, 52, 0, 0, 0, 0, 1, 0, 1, 1, 2, 0, 5, -2, 0, 0, 0, 0, 0, 0, 0, -4, 0, 0, 6, 0, 6, 6, 0, 1552, 66, 61, 0, 
0, 116, 0, 140, 112, 102, 0, 157, 148, 0, 0, 0, 0, 3, 0, 3, 3, 4, 0, 7, 0, 0, 0, 0, 0, 0, 0, 0, -4, 0, 0, 6, 0, 6, 6, 0, 1456, 64, 51, 0, 
0, 188, 0, 0, 192, 182, 0, 237, 228, 0, 0, 0, 0, 4, 0, 0, 3, 4, 0, 7, 0, 0, 0, 0, 0, 4, 0, 0, -4, 0, 0, 6, 0, 0, 6, 0, 1376, 64, 28, 0