-154, 0, 16, 32, 24, 0, 0, 32, 8, -172, 0, 0, -1, 0, 0, 0, 0, 0, 0, 1, 0, -1, 0, 0, 4, 0, 0, 0, 0, 0, 6, 0, 6, 6, 6, 0, 832, 26, 62, 0, 
0, 0, 0, 192, 184, 0, 0, 192, 168, 0, 0, 0, 0, 0, 0, 0, 0, 0, 0, 1, 0, 0, 0, 0, 0, 0, 0, 0, 0, 0, 0, 0, 0, 6, 6, 0, 672, 26, 47, 0, 
0, 0, 0, 0, 264, 0, 0, 272, 248, 0, 0, 0, 0, 0, 0, 0, 0, 0, 0, 1, 0, 0, 0, 0, 0, 0, 0, 0, 0, 0, 0, 0, 0, 0, 6, 0, 592, 26, 34, 0, 
582, 0, 0, 0, 0, 0, 0, 0, 0, 564, 0, 0, 0, 0, 0, 0, 0, 0, 0, 0, 0, 0, 0, 0, 4, 0, 0, 0, 0, 0, 6, 0, 0, 0, 0, 0, 96, 25, 10, 0