-175, 0, 8, 16, 0, 0, 0, 0, -12, -194, -6, 0, 2, 0, 2, 1, 0, 0, 0, 0, 0, 6, 1, 0, 4, 0, 0, 0, -4, 0, 6, 0, 6, 6, 6, 0, 2176, 29, 63, 0, 
0, 0, 0, 192, 176, 0, 0, 0, 164, 0, 0, 0, 0, 0, 0, 1, 0, 0, 0, 0, 0, 0, 0, 0, 0, 0, 0, 0, -4, 0, 0, 0, 0, 6, 6, 0, 2000, 29, 35, 0, 
273, 0, 0, 0, 0, 0, 0, 0, 436, 254, 0, 0, 2, 0, 0, 0, 0, 0, 0, 0, 0, 6, 0, 0, 4, 0, 0, 0, 0, 0, 6, 0, 0, 0, 0, 0, 1728, 29, 13, 0, 
577, 0, 0, 0, 0, 0, 0, 0, 0, 558, 0, 0, 0, 0, 0, 0, 0, 0, 0, 0, 0, 4, 0, 0, 4, 0, 0, 0, 0, 0, 6, 0, 0, 0, 0, 0, 1424, 31, 10, 0