0, 40, 8, 20, 36, 32, 4, 23, 42, 0, 0, 0, 0, 2, 1, 0, 0, 0, -2, 3, 6, 0, 0, 0, 0, -4, 0, 4, 0, 0, 0, 6, 6, 6, 6, 0, -144, 68, 63, 0, 
0, 72, 0, 52, 68, 64, 36, 55, 74, 0, 0, 0, 0, 2, 0, 0, 0, 0, -2, 3, 6, 0, 0, 0, 0, -4, 0, 4, 0, 0, 0, 6, 0, 6, 6, 0, -176, 68, 61, 0, 
0, -24, 0, -44, -28, -32, 0, -41, -22, 0, 0, 0, 0, 2, 0, 0, 0, 0, 0, 3, 6, 0, 0, 0, 0, -4, 0, 4, 0, 0, 0, 6, 0, 6, 6, 0, -80, 68, 51, 0, 
0, 168, 0, 148, 164, 160, 0, 151, 170, 0, 0, 0, 0, 2, 0, 0, 0, 0, 0, 3, 6, 0, 0, 0, 0, -4, 0, 4, 0, 0, 0, 6, 0, 6, 6, 0, -272, 68, 51, 0