116, 0, 16, 0, 8, 0, 0, 0, 3, 144, 32, 0, 1, 0, 1, 0, 1, 0, 0, 0, 6, 3, 0, 0, 0, 0, 0, 0, 0, 0, 6, 0, 6, 6, 6, 0, -1136, 29, 63, 0, 
164, 0, 0, 48, 56, 0, 0, -60, 51, 192, 0, 0, 1, 0, 0, 0, 1, 0, 0, 5, 6, 3, 0, 0, 0, 0, 0, 0, 0, 0, 6, 0, 0, 6, 6, 0, -1184, 29, 49, 0, 
308, 0, 0, 192, 200, 0, 0, 84, 195, 336, 0, 0, 1, 0, 0, 0, 1, 0, 0, 5, 6, 3, 0, 0, 0, 0, 0, 0, 0, 0, 6, 0, 0, 6, 6, 0, -1328, 29, 49, 0, 
0, 0, 0, -96, -88, 0, 0, -204, -93, 0, 0, 0, 0, 0, 0, 0, 1, 0, 0, 5, 6, 0, 0, 0, 0, 0, 0, 0, 0, 0, 0, 0, 0, 6, 6, 0, -1040, 29, 47, 0