-186, 0, 16, 80, 96, 0, 0, 82, 95, -237, 3, -267, 0, 0, 0, 0, -1, 0, 0, 0, 0, 2, -1, 3, 4, 0, 0, 0, 0, 15, 6, 0, 6, 6, 6, 6, -768, 19, 63, 0, 
-106, 0, 0, 0, 0, 0, 0, 0, 0, 0, 0, -187, 0, 0, 0, 0, 0, 0, 0, 0, 0, 0, 0, 3, 4, 0, 0, 0, 0, 15, 6, 0, 0, 0, 0, 6, -848, 19, 28, 0, 
-10, 0, 0, 0, 0, 0, 0, 0, 0, -61, 0, -91, 0, 0, 0, 0, 0, 0, 0, 0, 0, 2, 0, 3, 4, 0, 0, 0, 0, 15, 6, 0, 0, 0, 0, 6, -944, 19, 22, 0, 
150, 0, 0, 0, 0, 0, 0, 0, 0, 99, 0, 69, 0, 0, 0, 0, 0, 0, 0, 0, 0, 2, 0, 3, 4, 0, 0, 0, 0, 15, 6, 0, 0, 0, 0, 6, -1104, 19, 22, 0