0, 0, 16, 0, 0, 0, 0, 0, 0, 0, 0, 0, 0, 0, 0, 0, 0, 0, 0, 0, 0, 0, 0, 0, 0, 0, -16, 0, 0, 0, 0, 0, 6, 0, 0, 0, -1680, 34, 36, 0, 
-189, 0, 0, 0, 0, 0, 0, 0, 0, 0, 14, 0, 7, 0, 0, 0, 0, 0, 0, 0, 0, 0, 0, 0, 8, 0, 0, 0, 0, 0, 6, 0, 0, 0, 0, 0, -1568, 35, 27, 0, 
547, 0, 0, 0, 0, 0, 0, 0, 0, 494, 0, 0, 0, 0, 0, 0, 0, 0, 0, 0, 0, 3, 0, 0, 8, 0, 0, 0, 0, 0, 6, 0, 0, 0, 0, 0, -2304, 42, 10, 0, 
67, 0, 0, 0, 0, 0, 0, 0, 0, 14, 0, 0, 0, 0, 0, 0, 0, 0, 0, 0, 0, 3, 0, 0, 8, 0, 0, 0, 0, 0, 6, 0, 0, 0, 0, 0, -1824, 42, 10, 0