307, 0, -16, 176, 384, 0, 0, 223, 425, 356, -30, 0, 3, 0, 1, 0, -2, 0, 0, 1, -2, 2, 2, 0, -4, 0, 4, 4, 8, 0, 6, 0, 6, 6, 6, 0, -2304, 28, 49, 0, 
0, 0, 0, 64, 272, 0, 0, 111, 313, 0, 0, 0, 0, 0, 0, 2, 0, 0, 0, 3, 0, 0, 0, 0, 0, 0, 0, 4, 8, 0, 0, 0, 0, 6, 6, 0, -2192, 26, 47, 0, 
0, 0, 0, -176, 32, 0, 0, -129, 0, 0, 0, 0, 0, 0, 0, 2, 0, 0, 0, 3, 0, 0, 0, 0, 0, 0, 0, 4, 8, 0, 0, 0, 0, 6, 6, 0, -1952, 26, 47, 0, 
-301, 0, 0, 0, -224, 0, 0, 0, -183, -252, 0, 0, 5, 0, 0, 0, 0, 0, 0, 0, 0, 4, 0, 0, -4, 0, 0, 0, 8, 0, 6, 0, 0, 0, 6, 0, -1696, 26, 13, 0