203, 0, 8, 16, 40, 0, 0, 22, 57, 231, 14, 0, -1, 0, 0, 0, 0, 0, 0, 0, 3, -2, 2, 0, 4, 0, 0, 0, 4, 0, 6, 0, 6, 6, 6, 0, -928, 32, 63, 0, 
235, 0, 0, 48, 72, 0, 0, 54, 89, 263, 46, 0, -1, 0, 0, 0, 0, 0, 0, 0, 3, -2, 2, 0, 4, 0, 0, 0, 4, 0, 6, 0, 0, 6, 6, 0, -960, 32, 60, 0, 
379, 0, 0, 192, 216, 0, 0, 198, 233, 407, 0, 0, -1, 0, 0, 0, 0, 0, 0, 0, 3, -2, 0, 0, 4, 0, 0, 0, 4, 0, 6, 0, 0, 6, 6, 0, -1104, 32, 49, 0, 
459, 0, 0, 0, 296, 0, 0, 278, 313, 476, 0, 0, -1, 0, 0, 0, 0, 0, 0, 0, 3, -2, 0, 0, 4, 0, 0, 0, 4, 0, 6, 0, 0, 0, 6, 0, -1184, 32, 25, 0