-33, 0, 8, 16, 8, 0, 0, 13, 6, -48, -1, -54, -1, 0, 0, 0, 0, 0, 0, 1, 0, -1, 1, 4, 0, 0, 0, 0, 0, 3, 6, 0, 6, 6, 6, 6, -1200, 18, 63, 0, 
0, 0, 0, 112, 104, 0, 0, 109, 102, 0, 0, 0, 0, 0, 0, 0, 0, 0, 0, 1, 0, 0, 0, 0, 0, 0, 0, 0, 0, 0, 0, 0, 0, 6, 6, 0, -1296, 18, 40, 0, 
111, 0, 0, 0, 0, 0, 0, 0, 0, 0, 0, 90, 0, 0, 0, 0, 0, 0, 0, 0, 0, 0, 0, 5, 0, 0, 0, 0, 0, 3, 6, 0, 0, 0, 0, 6, -1344, 17, 28, 0, 
191, 0, 0, 0, 0, 0, 0, 0, 0, 0, 0, 170, 0, 0, 0, 0, 0, 0, 0, 0, 0, 0, 0, 5, 0, 0, 0, 0, 0, 3, 6, 0, 0, 0, 0, 6, -1424, 17, 28, 0