0, 0, 8, 0, 0, 0, 0, 0, 0, 0, 0, 0, 0, 0, 0, 0, 0, 0, 0, 0, 0, 0, 0, 0, 0, 0, -4, 0, 0, 0, 0, 0, 6, 0, 0, 0, -1520, 30, 36, 0, 
218, 0, 0, 0, 0, 0, 0, 0, 0, 140, 0, 0, 0, 0, 0, 0, 0, 0, 0, 0, 0, 1, 0, 0, 12, 0, 0, 0, 0, 0, 6, 0, 0, 0, 0, 0, -2112, 39, 10, 0, 
58, 0, 0, 0, 0, 0, 0, 0, 0, -20, 0, 0, 0, 0, 0, 0, 0, 0, 0, 0, 0, 1, 0, 0, 12, 0, 0, 0, 0, 0, 6, 0, 0, 0, 0, 0, -1952, 39, 10, 0, 
-54, 0, 0, 0, 0, 0, 0, 0, 0, -132, 0, 0, 0, 0, 0, 0, 0, 0, 0, 0, 0, 1, 0, 0, 12, 0, 0, 0, 0, 0, 6, 0, 0, 0, 0, 0, -1840, 39, 10, 0