251, 0, 8, 0, -32, 0, 0, -12, -25, 282, 29, 321, 0, 0, 0, 0, 0, 0, 0, 0, 0, 2, 2, 2, -4, 0, -4, 0, 0, -25, 6, 0, 6, 0, 6, 5, 288, 16, 61, 0, 
283, 0, 0, 0, 0, 0, 0, 20, 7, 314, 61, 353, 0, 0, 0, 0, 0, 0, 0, 0, 0, 2, 2, 2, -4, 0, 0, 0, 0, -25, 6, 0, 0, 0, 6, 5, 256, 16, 53, 0, 
139, 0, 0, 0, -144, 0, 0, -124, -137, 0, 0, 209, 0, 0, 0, 0, 0, 0, 0, 0, 0, 0, 0, 2, -4, 0, 0, 0, 0, -25, 6, 0, 0, 0, 6, 5, 400, 16, 43, 0, 
347, 0, 0, 0, 64, 0, 0, 84, 71, 378, 0, 417, 0, 0, 0, 0, 0, 0, 0, 0, 0, 2, 0, 2, -4, 0, 0, 0, 0, -25, 6, 0, 0, 0, 6, 5, 192, 16, 37, 0