0, 24, 8, 4, 0, 32, 4, 13, 4, 0, 0, 0, 0, 1, 1, 0, 0, -3, 6, 0, 3, 0, 0, 0, 0, 0, 0, -4, 0, 0, 0, 6, 6, 6, 0, 0, 1488, 71, 60, 0, 
0, 56, 0, 36, 0, 64, 36, 45, 36, 0, 0, 0, 0, 1, 0, 0, 0, -3, 6, 0, 3, 0, 0, 0, 0, 0, 0, -4, 0, 0, 0, 6, 0, 6, 0, 0, 1456, 71, 53, 0, 
0, 168, 0, 148, 0, 176, 0, 157, 148, 0, 0, 0, 0, 1, 0, 0, 0, -3, 0, 0, 3, 0, 0, 0, 0, 0, 0, -4, 0, 0, 0, 6, 0, 6, 0, 0, 1344, 71, 26, 0, 
0, 0, 0, 0, 0, 0, 0, 237, 228, 0, 0, 0, 0, 0, 0, 0, 0, 0, 0, 0, 3, 0, 0, 0, 0, 0, 0, 0, 0, 0, 0, 0, 0, 0, 0, 0, 1264, 71, 2, 0