-307, 0, 8, -8, -80, 0, 0, -19, -158, 0, -7, -388, 0, 0, 0, 0, 0, 0, 0, 1, 1, 0, 0, 5, 4, 0, 0, -4, -4, 27, 6, 0, 6, 6, 6, 6, 1040, 13, 63, 0, 
-195, 0, 0, 104, 32, 0, 0, 69, -46, 0, 0, -276, 0, 0, 0, 0, 0, 0, 0, 0, 1, 0, 0, 5, 4, 0, 0, -4, -4, 27, 6, 0, 0, 6, 6, 6, 928, 13, 50, 0, 
-131, 0, 0, 0, 96, 0, 0, 133, 18, 0, 0, -212, 0, 0, 0, 0, 0, 0, 0, 0, 1, 0, 0, 5, 4, 0, 0, 0, -4, 27, 6, 0, 0, 0, 6, 6, 864, 13, 43, 0, 
0, 0, 0, 0, 0, 0, 0, 0, 98, 0, 0, -132, 0, 0, 0, 0, 0, 0, 0, 0, 0, 0, 0, 4, 0, 0, 0, 0, 0, 27, 0, 0, 0, 0, 0, 6, 784, 14, 38, 0