0, -44, 8, 24, 0, -27, 1, 19, 48, 0, 0, 0, 0, 1, 1, 1, 0, -2, 0, 5, -2, 0, 0, 0, 0, 4, 0, 0, 0, 0, 0, 6, 6, 6, 0, 0, 160, 55, 60, 0, 
0, 0, 0, 0, 0, -27, 0, 0, 48, 0, 0, 0, 0, 0, 0, 0, 0, 0, 0, 0, 0, 0, 0, 0, 0, 0, 0, 0, 0, 0, 0, 0, 0, 0, 0, 0, 160, 53, 37, 0, 
0, 0, 0, 0, 0, 261, 0, 0, 336, 0, 0, 0, 0, 0, 0, 0, 0, 0, 0, 0, 0, 0, 0, 0, 0, 0, 0, 0, 0, 0, 0, 0, 0, 0, 0, 0, -128, 53, 37, 0, 
0, 68, 0, 136, 0, 85, 0, 131, 160, 0, 0, 0, 0, 3, 0, 3, 0, 0, 0, 7, 0, 0, 0, 0, 0, 4, 0, 0, 0, 0, 0, 6, 0, 6, 0, 0, 48, 53, 26, 0