114, 0, 16, 0, 0, 0, 0, 3, -10, 146, 23, 0, 0, 0, 0, 0, 1, 0, 0, 1, 1, 1, 2, 0, -4, 0, 0, 0, 0, 0, 6, 0, 6, 6, 6, 0, 128, 27, 63, 0, 
284, 0, 0, 48, 48, 0, 0, 51, 38, 218, 0, 0, 1, 0, 0, 0, 1, 0, 0, 1, 1, 1, 0, 0, 0, 0, 0, 0, 0, 0, 6, 0, 0, 6, 6, 0, 80, 27, 49, 0, 
428, 0, 0, 192, 192, 0, 0, 195, 182, 362, 0, 0, 1, 0, 0, 0, 1, 0, 0, 1, 1, 1, 0, 0, 0, 0, 0, 0, 0, 0, 6, 0, 0, 6, 6, 0, -64, 27, 49, 0, 
0, 0, 0, -80, -80, 0, 0, -77, -90, 0, 0, 0, 0, 0, 0, 0, 1, 0, 0, 1, 1, 0, 0, 0, 0, 0, 0, 0, 0, 0, 0, 0, 0, 6, 6, 0, 208, 27, 47, 0