-61, 0, 8, 0, 8, 0, 0, 8, 8, -69, 2, 0, 1, 0, 0, 0, 0, 0, 0, -2, 1, 2, 2, 0, 0, 0, 0, 0, 0, 0, 6, 0, 6, 0, 6, 0, 2112, 43, 63, 0, 
0, 0, 0, 0, 264, 0, 0, 264, 264, 0, 0, 0, 0, 0, 0, 0, 2, 0, 0, 0, 3, 0, 0, 0, 0, 0, 0, 0, 0, 0, 0, 0, 0, 0, 6, 0, 1856, 41, 34, 0, 
355, 0, 0, 0, 424, 0, 0, 0, 424, 347, 0, 0, 1, 0, 0, 0, 0, 0, 0, 0, 1, 2, 0, 0, 0, 0, 0, 0, 0, 0, 6, 0, 0, 0, 6, 0, 1696, 43, 13, 0, 
579, 0, 0, 0, 0, 0, 0, 0, 0, 571, 0, 0, 0, 0, 0, 0, 0, 0, 0, 0, 0, 1, 0, 0, 0, 0, 0, 0, 0, 0, 6, 0, 0, 0, 0, 0, 1472, 44, 10, 0