0, 0, 16, 56, 200, 0, 0, 107, 277, 0, 14, 0, 0, 0, 4, 1, -1, 0, 0, 0, -1, 0, 6, 0, 0, 0, 0, 4, 4, 0, 0, 0, 6, 6, 6, 0, 1280, 28, 63, 0, 
0, 0, 0, 88, 232, 0, 0, 139, 309, 0, 46, 0, 0, 0, 0, 2, 0, 0, 0, 1, 0, 0, 7, 0, 0, 0, 0, 4, 4, 0, 0, 0, 0, 6, 6, 0, 1248, 27, 60, 0, 
0, 0, 0, 184, 328, 0, 0, 235, 405, 0, 0, 0, 0, 0, 0, 2, 0, 0, 0, 1, 0, 0, 0, 0, 0, 0, 0, 4, 4, 0, 0, 0, 0, 6, 6, 0, 1152, 27, 49, 0, 
0, 0, 0, -120, 24, 0, 0, -69, 0, 0, 0, 0, 0, 0, 0, 2, 0, 0, 0, 1, 0, 0, 0, 0, 0, 0, 0, 4, 4, 0, 0, 0, 0, 6, 6, 0, 1456, 27, 47, 0