0, -80, 16, 40, 48, -60, -4, 0, 43, 0, 0, 0, 0, 3, 1, 1, 0, 0, 2, 0, 0, 0, 0, 0, 0, 4, 4, 0, 0, 0, 0, 6, 6, 6, 6, 0, 1440, 53, 63, 0, 
0, 0, 0, 40, 48, -60, 0, 0, 43, 0, 0, 0, 0, 0, 0, 1, 0, 0, 0, 0, 0, 0, 0, 0, 0, 0, 0, 0, 0, 0, 0, 0, 0, 6, 6, 0, 1440, 53, 57, 0, 
0, 0, 0, 184, 192, 84, 0, 0, 187, 0, 0, 0, 0, 0, 0, 1, 0, 0, 0, 0, 0, 0, 0, 0, 0, 0, 0, 0, 0, 0, 0, 0, 0, 6, 6, 0, 1296, 53, 57, 0, 
0, 16, 0, 136, 144, 36, 0, 0, 139, 0, 0, 0, 0, 3, 0, 1, 0, 0, 0, 0, 0, 0, 0, 0, 0, 4, 0, 0, 0, 0, 0, 6, 0, 6, 6, 0, 1344, 53, 42, 0