455, 257, 0, 152, 228, 0, 0, 159, 253, 495, 0, 0, 2, 1, 0, 0, 1, 0, 0, 2, 5, 3, 0, 0, -4, -12, 0, 4, 4, 0, 6, 6, 0, 6, 6, 0, 432, 48, 63, 0, 
0, -15, 0, -120, -44, 0, 0, -113, -19, 0, 0, 0, 0, 1, 0, 0, 1, 0, 0, 2, 5, 0, 0, 0, 0, -12, 0, 4, 4, 0, 0, 6, 0, 6, 6, 0, 704, 48, 61, 0, 
487, 0, 0, 184, 260, 0, 0, 191, 285, 527, 0, 0, 2, 0, 0, 0, 1, 0, 0, 2, 5, 3, 0, 0, -4, 0, 0, 4, 4, 0, 6, 0, 0, 6, 6, 0, 400, 48, 49, 0, 
535, 0, 0, 0, 308, 0, 0, 239, 333, 575, 0, 0, 1, 0, 0, 0, 0, 0, 0, 1, 4, 2, 0, 0, -4, 0, 0, 0, 4, 0, 6, 0, 0, 0, 6, 0, 352, 49, 25, 0