0, 0, 0, 16, 0, 0, 0, 16, -4, -19, 0, -29, 1, 0, 0, 1, 0, 0, 0, 0, 0, 4, 0, 5, 0, 0, 0, 0, 0, 5, 6, 0, 0, 6, 6, 6, 1024, 17, 51, 0, 
0, 0, 8, -32, -48, 0, 0, -32, -52, 0, -5, 0, 0, 0, 0, 1, 0, 0, 0, 0, 0, 0, 2, 0, 0, 0, -4, 0, 0, 0, 0, 0, 6, 6, 6, 0, 1072, 17, 50, 0, 
0, 0, 0, 112, 96, 0, 0, 112, 92, 0, 0, 0, 0, 0, 0, 1, 0, 0, 0, 0, 0, 0, 0, 0, 0, 0, 0, 0, 0, 0, 0, 0, 0, 6, 6, 0, 928, 17, 40, 0, 
192, 0, 0, 0, 0, 0, 0, 0, 0, 0, 0, 163, 0, 0, 0, 0, 0, 0, 0, 0, 0, 0, 0, 4, 0, 0, 0, 0, 0, 5, 6, 0, 0, 0, 0, 6, 832, 18, 28, 0