291, 0, 8, -40, -64, 0, 0, -53, -72, 319, 49, 359, -1, 0, 0, 0, 0, 0, 0, 0, 1, 1, 1, 0, -4, 0, -4, 0, 0, -26, 6, 0, 6, 6, 6, 6, 1328, 17, 63, 0, 
348, 0, 0, 56, 32, 0, 0, 43, 24, 415, 0, 455, -1, 0, 0, 0, 0, 0, 0, 0, 1, 1, 0, 0, 0, 0, 0, 0, 0, -26, 6, 0, 0, 6, 6, 6, 1232, 17, 51, 0, 
0, 0, 0, 104, 80, 0, 0, 91, 72, 0, 0, 0, 0, 0, 0, 0, 0, 0, 0, 0, 1, 0, 0, 0, 0, 0, 0, 0, 0, 0, 0, 0, 0, 6, 6, 0, 1184, 17, 40, 0, 
147, 0, 0, 0, 0, 0, 0, 0, 0, 0, 0, 215, 0, 0, 0, 0, 0, 0, 0, 0, 0, 0, 0, 1, -4, 0, 0, 0, 0, -26, 6, 0, 0, 0, 0, 6, 1472, 16, 28, 0