-167, 0, 16, 25, 24, 0, 0, 20, 17, -191, -1, 0, -1, 0, 0, 0, 0, 0, 0, 0, 2, 2, 2, 0, 4, 0, 0, 0, 4, 0, 6, 0, 6, 6, 6, 0, 912, 33, 63, 0, 
0, 0, 0, 185, 184, 0, 0, 180, 177, 0, 0, 0, 0, 0, 0, 0, 0, 0, 0, 0, 2, 0, 0, 0, 0, 0, 0, 0, 4, 0, 0, 0, 0, 6, 6, 0, 752, 33, 47, 0, 
0, 0, 0, 0, 280, 0, 0, 276, 273, 0, 0, 0, 0, 0, 0, 0, 0, 0, 0, 0, 2, 0, 0, 0, 0, 0, 0, 0, 4, 0, 0, 0, 0, 0, 6, 0, 656, 33, 34, 0, 
569, 0, 0, 0, 0, 0, 0, 0, 0, 545, 0, 0, 0, 0, 0, 0, 0, 0, 0, 0, 0, 3, 0, 0, 4, 0, 0, 0, 0, 0, 6, 0, 0, 0, 0, 0, 176, 32, 10, 0