-309, 0, 8, 80, 80, 0, 0, 0, 87, -409, -16, -476, 3, 0, 2, 2, 2, 0, 0, 0, 3, 5, 0, 5, 4, 0, 4, 4, 0, 37, 6, 0, 6, 6, 6, 6, 528, 12, 63, 0, 
-277, 0, 0, 112, 112, 0, 0, 0, 119, -377, 16, -444, 3, 0, 0, 2, 2, 0, 0, 0, 3, 5, 0, 5, 4, 0, 0, 4, 0, 37, 6, 0, 0, 6, 6, 6, 496, 12, 60, 0, 
-229, 0, 0, 0, 160, 0, 0, 0, 167, -329, 0, -396, 1, 0, 0, 0, 0, 0, 0, 0, 1, 3, 0, 3, 4, 0, 0, 0, 0, 37, 6, 0, 0, 0, 6, 6, 448, 14, 23, 0, 
-69, 0, 0, 0, 0, 0, 0, 0, 0, -169, 0, -236, 0, 0, 0, 0, 0, 0, 0, 0, 0, 2, 0, 2, 4, 0, 0, 0, 0, 37, 6, 0, 0, 0, 0, 6, 288, 15, 22, 0