175, 0, 8, 0, -16, 0, 0, -31, 0, 0, 0, 97, -3, 0, 0, 0, 0, 0, 0, 0, 0, 0, 0, 1, -16, 0, 0, 0, 0, -7, 6, 0, 6, 0, 6, 6, -1568, 16, 60, 0, 
255, 0, 0, 0, 64, 0, 0, 49, 0, 0, 0, 177, -3, 0, 0, 0, 0, 0, 0, 0, 0, 0, 0, 1, -16, 0, 0, 0, 0, -7, 6, 0, 0, 0, 6, 6, -1648, 16, 43, 0, 
287, 0, 0, 0, 96, 0, 0, 81, 0, 204, 0, 209, -3, 0, 0, 0, 0, 0, 0, 0, 0, 2, 0, 1, -16, 0, 0, 0, 0, -7, 6, 0, 0, 0, 6, 6, -1680, 16, 37, 0, 
-249, 0, 0, 0, 0, 0, 0, 0, 0, 0, 0, -159, 0, 0, 0, 0, 0, 0, 0, 0, 0, 0, 0, 3, -12, 0, 0, 0, 0, -7, 6, 0, 0, 0, 0, 6, -1312, 14, 28, 0