195, 0, 16, 8, 32, 0, 0, 6, 44, 0, 25, 239, 1, 0, 2, 0, -1, 0, 0, 0, -1, 0, 3, 4, -4, 0, 0, 4, 0, -15, 6, 0, 6, 6, 6, 6, -1936, 9, 63, 0, 
227, 0, 0, 40, 64, 0, 0, 38, 76, 0, 57, 271, 2, 0, 0, 1, 0, 0, 0, 1, 0, 0, 4, 5, -4, 0, 0, 4, 0, -15, 6, 0, 0, 6, 6, 6, -1968, 8, 60, 0, 
275, 0, 0, 0, 112, 0, 0, 86, 124, 0, 0, 319, 2, 0, 0, 0, 0, 0, 0, 1, 0, 0, 0, 5, -4, 0, 0, 0, 0, -15, 6, 0, 0, 0, 6, 6, -2016, 8, 43, 0, 
451, 0, 0, 0, 0, 0, 0, 0, 0, 0, 0, 495, 0, 0, 0, 0, 0, 0, 0, 0, 0, 0, 0, 1, -4, 0, 0, 0, 0, -15, 6, 0, 0, 0, 0, 6, -2192, 12, 28, 0