0, -36, 8, 24, 28, -26, 12, 0, 21, 0, 0, 0, 0, 2, 2, 2, 2, 2, 1, 0, 0, 0, 0, 0, 0, 4, 0, 4, 4, 0, 0, 6, 6, 6, 6, 0, -752, 54, 63, 0, 
0, 76, 0, 136, 140, 86, 0, 152, 133, 0, 0, 0, 0, 2, 0, 2, 2, 2, 0, 6, 0, 0, 0, 0, 0, 4, 0, 4, 4, 0, 0, 6, 0, 6, 6, 0, -864, 54, 51, 0, 
0, 0, 0, 0, 0, 262, 0, 0, 309, 0, 0, 0, 0, 0, 0, 0, 0, 2, 0, 0, 0, 0, 0, 0, 0, 0, 0, 0, 0, 0, 0, 0, 0, 0, 0, 0, -1040, 54, 37, 0, 
0, 0, 0, 0, 0, -10, 0, 0, 37, 0, 0, 0, 0, 0, 0, 0, 0, 2, 0, 0, 0, 0, 0, 0, 0, 0, 0, 0, 0, 0, 0, 0, 0, 0, 0, 0, -768, 54, 37, 0