-359, 0, 16, 32, -72, 0, 0, 6, 0, -403, -6, -466, 5, 0, 2, 0, -2, 0, 0, 0, 0, 6, 2, 6, 4, 0, 0, 0, -4, 33, 6, 0, 6, 6, 6, 6, 1952, 11, 63, 0, 
-279, 0, 0, 112, 8, 0, 0, 86, 0, 0, 0, 0, 7, 0, 0, 2, 0, 0, 0, 2, 0, 0, 0, 0, 4, 0, 0, 0, -4, 0, 6, 0, 0, 6, 6, 0, 1872, 9, 51, 0, 
-231, 0, 0, 0, 56, 0, 0, 134, 0, 0, 0, 0, 7, 0, 0, 0, 0, 0, 0, 2, 0, 0, 0, 0, 4, 0, 0, 0, -4, 0, 6, 0, 0, 0, 6, 0, 1824, 9, 37, 0, 
-119, 0, 0, 0, 0, 0, 0, 0, 0, 0, 0, -226, 0, 0, 0, 0, 0, 0, 0, 0, 0, 0, 0, 1, 4, 0, 0, 0, 0, 33, 6, 0, 0, 0, 0, 6, 1712, 16, 28, 0