334, 0, 16, 16, 64, 0, 0, 35, 85, 374, 0, 423, 1, 0, 1, 0, 0, 0, 0, 1, 0, 5, 0, 5, -4, 0, 0, 0, 4, -29, 6, 0, 6, 6, 6, 5, -928, 13, 61, 0, 
382, 0, 0, 64, 112, 0, 0, 83, 133, 422, 0, 471, 1, 0, 0, 0, 0, 0, 0, 1, 0, 5, 0, 5, -4, 0, 0, 0, 4, -29, 6, 0, 0, 6, 6, 5, -976, 13, 51, 0, 
0, 0, 0, 112, 160, 0, 0, 131, 0, 0, 0, 0, 0, 0, 0, 0, 0, 0, 0, 1, 0, 0, 0, 0, 0, 0, 0, 0, 4, 0, 0, 0, 0, 6, 6, 0, -1024, 13, 40, 0, 
0, 0, 0, 0, 0, 0, 0, 0, -155, 0, 0, 183, 0, 0, 0, 0, 0, 0, 0, 0, 0, 0, 0, 5, 0, 0, 0, 0, 0, -29, 0, 0, 0, 0, 0, 5, -688, 13, 38, 0