0, 0, 8, 0, 0, 0, 0, 0, 0, 0, 0, 0, 0, 0, 0, 0, 0, 0, 0, 0, 0, 0, 0, 0, 0, 0, -4, 0, 0, 0, 0, 0, 6, 0, 0, 0, 848, 34, 36, 0, 
-336, 0, 0, 0, 0, 0, 0, 0, 0, 0, 32, 0, 7, 0, 0, 0, 0, 0, 0, 0, 0, 0, 0, 0, 12, 0, 0, 0, 0, 0, 6, 0, 0, 0, 0, 0, 928, 35, 27, 0, 
64, 0, 0, 0, 0, 0, 0, 0, 0, -1, 0, 0, 0, 0, 0, 0, 0, 0, 0, 0, 0, 3, 0, 0, 12, 0, 0, 0, 0, 0, 6, 0, 0, 0, 0, 0, 528, 42, 10, 0, 
-48, 0, 0, 0, 0, 0, 0, 0, 0, -113, 0, 0, 0, 0, 0, 0, 0, 0, 0, 0, 0, 3, 0, 0, 12, 0, 0, 0, 0, 0, 6, 0, 0, 0, 0, 0, 640, 42, 10, 0