173, 0, 8, 0, 0, 0, 0, 31, 50, 186, 15, 207, 0, 0, 0, 0, 0, 0, 0, 0, 0, 2, 2, 1, -4, 0, -4, 0, 0, -12, 6, 0, 6, 0, 0, 6, 1520, 16, 61, 0, 
221, 0, 0, 0, 0, 0, 0, 79, 98, 234, 63, 255, 0, 0, 0, 0, 0, 0, 0, 0, 0, 2, 2, 1, -4, 0, 0, 0, 0, -12, 6, 0, 0, 0, 0, 6, 1472, 16, 53, 0, 
77, 0, 0, 0, 0, 0, 0, -65, -46, 0, 0, 111, 0, 0, 0, 0, 0, 0, 0, 0, 0, 0, 0, 1, -4, 0, 0, 0, 0, -12, 6, 0, 0, 0, 0, 6, 1616, 16, 43, 0, 
-195, 0, 0, 0, 0, 0, 0, 0, 0, 0, 0, -161, 0, 0, 0, 0, 0, 0, 0, 0, 0, 0, 0, 1, -4, 0, 0, 0, 0, -12, 6, 0, 0, 0, 0, 6, 1888, 16, 28, 0