303, 0, 0, 0, 0, 0, 0, 0, 0, 339, 0, 0, 0, 0, 0, 0, 0, 0, 0, 0, 0, 3, 0, 0, -8, 0, 0, 0, 0, 0, 6, 0, 0, 0, 0, 0, -2304, 32, 10, 0, 
-97, 0, 0, 0, 0, 0, 0, 0, 0, -61, 0, 0, 0, 0, 0, 0, 0, 0, 0, 0, 0, 3, 0, 0, -8, 0, 0, 0, 0, 0, 6, 0, 0, 0, 0, 0, -1904, 32, 10, 0, 
0, 0, 0, 0, 0, 0, 0, 0, 0, 0, 0, 0, 0, 0, 0, 0, 0, 0, 0, 0, 0, 0, 0, 0, 0, 0, 0, 0, 0, 0, 0, 0, 0, 0, 0, 0, 0, 0, 0, 0, 
0, 0, 0, 0, 0, 0, 0, 0, 0, 0, 0, 0, 0, 0, 0, 0, 0, 0, 0, 0, 0, 0, 0, 0, 0, 0, 0, 0, 0, 0, 0, 0, 0, 0, 0, 0, 0, 0, 0, 0