0, 0, 0, 184, 244, 0, 0, 211, 286, 0, 0, 0, 0, 0, 0, 4, 4, 0, 0, 6, 0, 0, 0, 0, 0, 0, 0, 4, 4, 0, 0, 0, 0, 6, 6, 0, -32, 44, 61, 0, 
0, 0, 0, -88, -28, 0, 0, -61, 14, 0, 0, 0, 0, 0, 0, 4, 4, 0, 0, 6, 0, 0, 0, 0, 0, 0, 0, 4, 4, 0, 0, 0, 0, 6, 6, 0, 240, 44, 61, 0, 
0, 136, 0, 40, 100, 105, 0, 67, 0, 0, 0, 0, 0, 2, 0, 0, 0, 5, 0, 2, 0, 0, 0, 0, 0, -12, 0, 4, 4, 0, 0, 6, 0, 6, 6, 0, 112, 48, 61, 0, 
0, 0, 0, 0, 308, 0, 0, 275, 350, 0, 0, 0, 0, 0, 0, 0, 4, 0, 0, 6, 0, 0, 0, 0, 0, 0, 0, 0, 4, 0, 0, 0, 0, 0, 6, 0, -96, 44, 34, 0