0, 0, 16, 0, 0, 0, 0, 28, 34, 0, 8, -33, 0, 0, 0, 0, 0, 0, 0, 0, 0, 0, 2, 3, 0, 0, 0, 0, 0, 2, 0, 0, 6, 0, 0, 6, -384, 5, 61, 0, 
0, 0, 0, 0, 0, 0, 0, 0, -94, 0, 0, -161, 0, 0, 0, 0, 0, 0, 0, 0, 0, 0, 0, 3, 0, 0, 0, 0, 0, 2, 0, 0, 0, 0, 0, 6, -256, 5, 38, 0, 
0, 0, 0, 0, 0, 0, 0, 76, 82, 0, 56, 0, 0, 0, 0, 0, 0, 0, 0, 0, 0, 0, 2, 0, 0, 0, 0, 0, 0, 0, 0, 0, 0, 0, 0, 0, -432, 5, 33, 0, 
0, 0, 0, 0, 0, 0, 0, 124, 130, 0, 0, 0, 0, 0, 0, 0, 0, 0, 0, 0, 0, 0, 0, 0, 0, 0, 0, 0, 0, 0, 0, 0, 0, 0, 0, 0, -480, 5, 24, 0