-350, 0, 8, 80, 80, 0, 0, 0, 78, -389, -7, 0, -1, 0, 0, 0, 0, 0, 0, 0, 0, 1, 0, 0, 4, 0, 4, 0, -4, 0, 6, 0, 6, 6, 6, 0, -160, 24, 57, 0, 
0, 0, -24, 48, 48, 0, 0, 0, 46, -421, -39, 0, 0, 0, 0, 0, 0, 0, 0, 0, 0, 1, 0, 0, 0, 0, 4, 0, -4, 0, 0, 0, 6, 6, 6, 0, -128, 24, 51, 0, 
0, 0, 0, -128, -128, 0, 0, 0, -130, 0, 0, 0, 0, 0, 0, 0, 0, 0, 0, 0, 0, 0, 0, 0, 0, 0, 0, 0, -4, 0, 0, 0, 0, 6, 6, 0, 48, 24, 35, 0, 
0, 0, 0, 192, 192, 0, 0, 0, 190, 0, 0, 0, 0, 0, 0, 0, 0, 0, 0, 0, 0, 0, 0, 0, 0, 0, 0, 0, -4, 0, 0, 0, 0, 6, 6, 0, -272, 24, 35, 0