-162, 0, 8, 16, 0, 0, 0, 16, 16, -179, -1, 0, -1, 0, 1, 0, 0, 0, 0, 4, -2, 3, 3, 0, 4, 0, 0, 0, 0, 0, 6, 0, 6, 6, 0, 0, -512, 37, 63, 0, 
0, 0, 0, 192, 0, 0, 0, 192, 192, 0, 0, 0, 0, 0, 0, 2, 0, 0, 0, 6, 0, 0, 0, 0, 0, 0, 0, 0, 0, 0, 0, 0, 0, 6, 0, 0, -688, 35, 47, 0, 
0, 0, 0, 0, 0, 0, 0, 272, 272, 0, 0, 0, 0, 0, 0, 0, 0, 0, 0, 6, 0, 0, 0, 0, 0, 0, 0, 0, 0, 0, 0, 0, 0, 0, 0, 0, -768, 35, 34, 0, 
574, 0, 0, 0, 0, 0, 0, 0, 0, 557, 0, 0, 0, 0, 0, 0, 0, 0, 0, 0, 0, 4, 0, 0, 4, 0, 0, 0, 0, 0, 6, 0, 0, 0, 0, 0, -1248, 36, 10, 0