345, 0, 16, 104, 0, 0, 0, 124, 265, 375, 0, 0, 3, 0, 1, 1, 0, 0, 0, 6, 0, 7, 0, 0, -8, 0, 0, 0, 0, 0, 6, 0, 6, 6, 0, 0, 608, 35, 62, 0, 
425, 0, 0, 184, 0, 0, 0, 204, 345, 455, 0, 0, 3, 0, 0, 1, 0, 0, 0, 6, 0, 7, 0, 0, -8, 0, 0, 0, 0, 0, 6, 0, 0, 6, 0, 0, 528, 35, 49, 0, 
201, 0, 0, -40, 0, 0, 0, -20, 121, 231, 0, 0, 3, 0, 0, 1, 0, 0, 0, 6, 0, 7, 0, 0, -8, 0, 0, 0, 0, 0, 6, 0, 0, 6, 0, 0, 752, 35, 49, 0, 
0, 0, 0, -136, 0, 0, 0, -116, 25, 0, 0, 0, 0, 0, 0, 1, 0, 0, 0, 6, 0, 0, 0, 0, 0, 0, 0, 0, 0, 0, 0, 0, 0, 6, 0, 0, 848, 35, 47, 0