0, 0, 0, 20, 24, 0, 29, 0, 29, 0, 0, 0, 0, 0, 0, 0, 1, 0, 3, 0, 1, 0, 0, 0, 0, 0, 0, 0, 0, 0, 0, 0, 0, 6, 6, 0, 656, 52, 37, 0, 
0, 0, 0, 196, 200, 0, 0, 0, 205, 0, 0, 0, 0, 0, 0, 0, 1, 0, 0, 0, 1, 0, 0, 0, 0, 0, 0, 0, 0, 0, 0, 0, 0, 6, 6, 0, 480, 52, 35, 0, 
0, 0, 0, 148, 152, 0, 0, 0, 157, 0, 0, 0, 0, 0, 0, 0, 1, 0, 0, 0, 1, 0, 0, 0, 0, 0, 0, 0, 0, 0, 0, 0, 0, 6, 6, 0, 528, 52, 11, 0, 
0, 0, 0, 0, 424, 0, 0, 0, 429, 412, 0, 0, 0, 0, 0, 0, 0, 0, 0, 0, 0, -2, 0, 0, 0, 0, 0, 0, 0, 0, 0, 0, 0, 0, 6, 0, 256, 53, 3, 0