0, 0, 0, 0, 40, 0, 0, 0, 0, 0, 0, 0, 0, 0, 0, 0, 0, 0, 0, 0, 0, 0, 0, 0, 0, 0, 0, 0, 12, 0, 0, 0, 0, 0, 6, 0, 1472, 14, 38, 0, 
148, 0, 0, 0, 168, 0, 0, -25, 0, 297, 0, 0, 6, 0, 0, 0, 0, 0, 0, 0, 0, 7, 0, 0, -12, 0, 0, 0, 12, 0, 6, 0, 0, 0, 6, 0, 1344, 14, 37, 0, 
-380, 0, 0, 0, 0, 0, 0, 0, -177, -231, 0, 0, 6, 0, 0, 0, 0, 0, 0, 0, 0, 7, 0, 0, -12, 0, 0, 0, 0, 0, 6, 0, 0, 0, 0, 0, 1872, 14, 23, 0, 
260, 0, 0, -72, 0, 0, 0, 87, 0, 409, 0, 0, 6, 0, 0, 0, 0, 0, 0, 0, 0, 7, 0, 0, -12, 0, 0, 12, 0, 0, 6, 0, 0, 6, 0, 0, 1232, 14, 19, 0